ID,Title,Content,Excerpt,Date,Post Type,Permalink,URL,Title,Caption,Description,Alt Text,Featured,URL,Locality  Category,Geography,geo_locality,_last_editor_used_jetpack,_wp_old_date,locality_address_syntax,locality_address,_locality_address,locality_pincode,_locality_pincode,locality_lat_long,_locality_lat_long,locality_number_of_units,_locality_number_of_units,locality_banner_pic,_locality_banner_pic,locality_square_pic,_locality_square_pic,locality_marquee,_locality_marquee,_yoast_wpseo_primary_locality_category,_yoast_wpseo_metadesc,_yoast_wpseo_content_score,_yoast_wpseo_estimated-reading-time-minutes,locality_description,_locality_description,_rvy_has_revisions,locality_payment_type_mycred_balance,_locality_payment_type_mycred_balance,locality_payment_type_prepaid_razorpay,_locality_payment_type_prepaid_razorpay,locality_payment_type_cod,_locality_payment_type_cod,locality_payment_type,_locality_payment_type,_wp_old_slug,_rvy_base_post_id,Status,Author ID,Author Username,Author Email,Author First Name,Author Last Name,Slug,Format,Template,Parent,Parent Slug,Order,Comment Status,Ping Status,Post Modified Date,Reference url
1,Panache,Welcome to Panache,,,,,,,,,,,,Gated Community,Kolkata,Kolkata,,,,"Salt Lake City sector 5, Kolkata.",,700091,,"22.552485,88.378654",,576,,,,,,,,,,,,,,,,,,,,,,,,,,,,,,,Panache-Kolkata,,,,,,,,,https://www.magicbricks.com/panache-salt-lake-city-sector-5-kolkata-pdpid-4d4235303732383739
2,Urbana,Welcome to Urbana,,,,,,,,,,,,Gated Community,Kolkata,Kolkata,,,,"Em by Pass, Near Mukundapur Police Station, Kolkata-700046",,700001,,"22.5047,88.40033",,1170,,,,,,,,,,,,,,,,,,,,,,,,,,,,,,,Urbana-Kolkata,,,,,,,,,https://www.magicbricks.com/urbana-e-m-bypass-kolkata-pdpid-4d4235303234323532
3,Diamond City North,Welcome to Diamond City North,,,,,,,,,,,,Gated Community,Kolkata,Kolkata,,,,"Jessore Road , Backside Of Diamond Plaza Mall, Close To Nagerbazar, Shyamnagar Road , Kolkata -70002",,700080,,"22.613333,88.41147",,915,,,,,,,,,,,,,,,,,,,,,,,,,,,,,,,Diamond-City-North-Kolkata,,,,,,,,,https://www.magicbricks.com/diamond-city-north-jessore-road-kolkata-pdpid-4d4235303330373531
4,Active Acres,Welcome to Active Acres,,,,,,,,,,,,Gated Community,Kolkata,Kolkata,,,,"54/10, D.C. Dey Road, Near ITC Sonar, Off E.M. Bypass, Kolkata, West Bengal 700015.",,700001,,"22.53018,88.38494",,1028,,,,,,,,,,,,,,,,,,,,,,,,,,,,,,,Active-Acres-Kolkata,,,,,,,,,https://www.magicbricks.com/active-acres-e-m-bypass-kolkata-pdpid-4d4235303138383430
5,Upohar,Welcome to Upohar,,,,,,,,,,,,Gated Community,Kolkata,Kolkata,,,,2052 chak garia Near Em bypass Kolkata 94,,700001,,"22.464333,88.38768",,1213,,,,,,,,,,,,,,,,,,,,,,,,,,,,,,,Upohar-Kolkata,,,,,,,,,https://www.magicbricks.com/upohar-e-m-bypass-kolkata-pdpid-4d4235303031373634
6,Atri Green Palace,Welcome to Atri Green Palace,,,,,,,,,,,,Gated Community,Kolkata,Kolkata,,,,"Garia Main Road, Kolkata.",,700084,,"22.46587,88.39311",,0,,,,,,,,,,,,,,,,,,,,,,,,,,,,,,,Atri-Green-Palace-Kolkata,,,,,,,,,https://www.magicbricks.com/atri-green-palace-garia-main-road-kolkata-pdpid-4d4235313030363931
7,Anushka Premier Residency,Welcome to Anushka Premier Residency,,,,,,,,,,,,Gated Community,Kolkata,Kolkata,,,,"778, Sonarpur Station Rd, Kamalgazi, Narendrapur, Kolkata, West Bengal",,700001,,"22.51952,88.398224",,48,,,,,,,,,,,,,,,,,,,,,,,,,,,,,,,Anushka-Premier-Residency-Kolkata,,,,,,,,,https://www.magicbricks.com/anushka-premier-residency-e-m-bypass-kolkata-pdpid-4d4235323834383231
8,Udita Apartments,Welcome to Udita Apartments,,,,,,,,,,,,Gated Community,Kolkata,Kolkata,,,,"EM BYPASS, KALIKAPUR, KOLKATA-700075",,700001,,"22.49842,88.256805",,1600,,,,,,,,,,,,,,,,,,,,,,,,,,,,,,,Udita-Apartments-Kolkata,,,,,,,,,https://www.magicbricks.com/udita-apartments-e-m-bypass-kolkata-pdpid-4d4235303336313932
9,Team Taurus Wow,Welcome to Team Taurus Wow,,,,,,,,,,,,Gated Community,Kolkata,Kolkata,,,,"Bablatala, Salua, Kolkata, West Bengal",,700136,,"22.631645,88.44712",,25,,,,,,,,,,,,,,,,,,,,,,,,,,,,,,,Team-Taurus-Wow-Kolkata,,,,,,,,,https://www.magicbricks.com/team-taurus-wow-rajarhat-kolkata-pdpid-4d4235303030313338
10,Vasudha Greens,Welcome to Vasudha Greens,,,,,,,,,,,,Gated Community,Kolkata,Kolkata,,,,"1613, Dakshini Kumar Khali, Near Kamalgazi, Kolkata-700103.",,700103,,"22.45247,88.38754",,14,,,,,,,,,,,,,,,,,,,,,,,,,,,,,,,Vasudha-Greens-Kolkata,,,,,,,,,https://www.magicbricks.com/vasudha-greens-kamalgazi-kolkata-pdpid-4d4235303733353038
11,Siddhashree Apartment,Welcome to Siddhashree Apartment,,,,,,,,,,,,Gated Community,Kolkata,Kolkata,,,,"16, Golf Club Rd, Rajendra Prasad Colony, Tollygunge, Kolkata, West Bengal",,700033,,"22.495886,88.348595",,0,,,,,,,,,,,,,,,,,,,,,,,,,,,,,,,Siddhashree-Apartment-Kolkata,,,,,,,,,https://www.magicbricks.com/siddhashree-apartment-tollygunge-kolkata-pdpid-4d4235323837373833
12,Merlin 5th Avenue,Welcome to Merlin 5th Avenue,,,,,,,,,,,,Gated Community,Kolkata,Kolkata,,,,"Salt Lake City, Kolkata",,700091,,"22.582932,88.41183",,441,,,,,,,,,,,,,,,,,,,,,,,,,,,,,,,Merlin-5th-Avenue-Kolkata,,,,,,,,,https://www.magicbricks.com/merlin-5th-avenue-salt-lake-city-sector-5-kolkata-pdpid-4d4235303839323531
13,Rosedale Garden,Welcome to Rosedale Garden,,,,,,,,,,,,Gated Community,Kolkata,Kolkata,,,,"Action Area 3, Block 3, Rajarhat, New Town, Kolkata-700156",,700156,,"22.58289,88.455536",,546,,,,,,,,,,,,,,,,,,,,,,,,,,,,,,,Rosedale-Garden-Kolkata,,,,,,,,,https://www.magicbricks.com/rosedale-garden-new-town-kolkata-pdpid-4d4235303138383930
14,Neelachal Apartment,Welcome to Neelachal Apartment,,,,,,,,,,,,Gated Community,Kolkata,Kolkata,,,,"493B_3 G.T Road, howrah-102",,711101,,"22.57332,88.01621",,66,,,,,,,,,,,,,,,,,,,,,,,,,,,,,,,Neelachal-Apartment-Kolkata,,,,,,,,,https://www.magicbricks.com/neelachal-apartment-howrah-kolkata-pdpid-4d4235303737323530
15,Akankha,Welcome to Akankha,,,,,,,,,,,,Gated Community,Kolkata,Kolkata,,,,"Action Area 2, Newtown, Kolkata, West Bengal 700157",,700156,,"22.60802,88.49045",,554,,,,,,,,,,,,,,,,,,,,,,,,,,,,,,,Akankha-Kolkata,,,,,,,,,https://www.magicbricks.com/akankha-new-town-kolkata-pdpid-4d4235303238393436
16,Avani Regency,Welcome to Avani Regency,,,,,,,,,,,,Gated Community,Kolkata,Kolkata,,,,"Rajendra Prasad Colony, Tollygunge, Kolkata, West Bengal",,700033,,"22.49828,88.34658",,0,,,,,,,,,,,,,,,,,,,,,,,,,,,,,,,Avani-Regency-Kolkata,,,,,,,,,https://www.magicbricks.com/avani-regency-tollygunge-kolkata-pdpid-4d4235323835353933
17,Shapoorji Paloonji Sukhobristi,Welcome to Shapoorji Paloonji Sukhobristi,,,,,,,,,,,,Gated Community,Kolkata,Kolkata,,,,"Block K, SP Sukhobrishti Ln, Action Area III, Newtown, Kolkata, West Bengal",,700156,,"22.56919,88.50906",,2000,,,,,,,,,,,,,,,,,,,,,,,,,,,,,,,Shapoorji-Paloonji-Sukhobristi-Kolkata,,,,,,,,,https://www.magicbricks.com/shapoorji-paloonji-sukhobristi-new-town-kolkata-pdpid-4d4235323039373631
18,The Gateway,Welcome to The Gateway,,,,,,,,,,,,Gated Community,Kolkata,Kolkata,,,,Kolkata,,711114,,"22.575418,88.30188",,0,,,,,,,,,,,,,,,,,,,,,,,,,,,,,,,The-Gateway-Kolkata,,,,,,,,,https://www.magicbricks.com/the-gateway-kona-expressway-kolkata-pdpid-4d4235303234383136
19,Sherwood Estate,Welcome to Sherwood Estate,,,,,,,,,,,,Gated Community,Kolkata,Kolkata,,,,"Narendrapur, Kolkata South",,700103,,"22.658144,88.20501",,1600,,,,,,,,,,,,,,,,,,,,,,,,,,,,,,,Sherwood-Estate-Kolkata,,,,,,,,,https://www.magicbricks.com/sherwood-estate-narendrapur-kolkata-pdpid-4d4235303031373635
20,Meena Icon,Welcome to Meena Icon,,,,,,,,,,,,Gated Community,Kolkata,Kolkata,,,,"B.T Road, Sodepur, Panihati more, Kolkata - 700110",,700110,,"22.699654,88.374916",,70,,,,,,,,,,,,,,,,,,,,,,,,,,,,,,,Meena-Icon-Kolkata,,,,,,,,,https://www.magicbricks.com/meena-icon-sodepur-kolkata-pdpid-4d4235303330333534
21,Greenfield City,Welcome to Greenfield City,,,,,,,,,,,,Gated Community,Kolkata,Kolkata,,,,Kolkata,,700141,,"22.488312,88.270584",,0,,,,,,,,,,,,,,,,,,,,,,,,,,,,,,,Greenfield-City-Kolkata,,,,,,,,,https://www.magicbricks.com/greenfield-city-shibrampur-kolkata-pdpid-4d4235313235343337
22,SP Shukhobristhi,Welcome to SP Shukhobristhi,,,,,,,,,,,,Gated Community,Kolkata,Kolkata,,,,"Rajarhat, new town, action area 2, kolkata-700156",,700135,,"22.621883,88.45174",,20000,,,,,,,,,,,,,,,,,,,,,,,,,,,,,,,SP-Shukhobristhi-Kolkata,,,,,,,,,https://www.magicbricks.com/sp-shukhobristhi-action-area-3-kolkata-pdpid-4d4235303334383434
23,Southwinds,Welcome to Southwinds,,,,,,,,,,,,Gated Community,Kolkata,Kolkata,,,,"132 Ghosal Para Road, Manikpur Sonarpur ,Kolkata-700151.",,700070,,"22.4335,88.39678",,1326,,,,,,,,,,,,,,,,,,,,,,,,,,,,,,,Southwinds-Kolkata,,,,,,,,,https://www.magicbricks.com/southwinds-rajpur-sonarpur-kolkata-pdpid-4d4235303137373539
24,Raghab Residancy,Welcome to Raghab Residancy,,,,,,,,,,,,Gated Community,Kolkata,Kolkata,,,,"Forsaha Road, Howrah-7111101",,711101,,"22.577873,88.349655",,144,,,,,,,,,,,,,,,,,,,,,,,,,,,,,,,Raghab-Residancy-Kolkata,,,,,,,,,https://www.magicbricks.com/raghab-residancy-howrah-kolkata-pdpid-4d4235303735393839
25,Galaxy Apartment,Welcome to Galaxy Apartment,,,,,,,,,,,,Gated Community,Kolkata,Kolkata,,,,Kolkata,,700001,,"22.552635,88.37065",,0,,,,,,,,,,,,,,,,,,,,,,,,,,,,,,,Galaxy-Apartment-Kolkata,,,,,,,,,https://www.magicbricks.com/galaxy-apartment-entally-kolkata-pdpid-4d4235323039333235
26,SU Casa Wood,Welcome to SU Casa Wood,,,,,,,,,,,,Gated Community,Kolkata,Kolkata,,,,"Jagaddal, Embypass Extension, Narendrapur, Kolkata -700103",,700103,,"22.425163,88.401115",,212,,,,,,,,,,,,,,,,,,,,,,,,,,,,,,,SU-Casa-Wood-Kolkata,,,,,,,,,https://www.magicbricks.com/su-casa-wood-narendrapur-kolkata-pdpid-4d4235303030333536
27,Sugam Serenity,Welcome to Sugam Serenity,,,,,,,,,,,,Gated Community,Kolkata,Kolkata,,,,"710, Kusumba P.O Narendrapur Kolkata - 103",,700103,,"22.448656,88.403786",,179,,,,,,,,,,,,,,,,,,,,,,,,,,,,,,,Sugam-Serenity-Kolkata,,,,,,,,,https://www.magicbricks.com/sugam-serenity-kamalgazi-kolkata-pdpid-4d4235303432353433
28,Eden Tulip,Welcome to Eden Tulip,,,,,,,,,,,,Gated Community,Kolkata,Kolkata,,,,"Husainpur Road ,Madurdaha ,Kolkata-700141",,700107,,"22.504475,88.40937",,6,,,,,,,,,,,,,,,,,,,,,,,,,,,,,,,Eden-Tulip-Kolkata,,,,,,,,,https://www.magicbricks.com/eden-tulip-madurdaha-kolkata-pdpid-4d4235303330373137
29,Devaloke Nest,Welcome to Devaloke Nest,,,,,,,,,,,,Gated Community,Kolkata,Kolkata,,,,"Ramchandrapur, Kamalgachhi More, Kolkata, West Bengal",,700041,,"22.442156,88.39124",,0,,,,,,,,,,,,,,,,,,,,,,,,,,,,,,,Devaloke-Nest-Kolkata,,,,,,,,,https://www.magicbricks.com/devaloke-nest-ramchandrapur-kolkata-pdpid-4d4235323835353835
30,Club Town Estates,Welcome to Club Town Estates,,,,,,,,,,,,Gated Community,Kolkata,Kolkata,,,,"Chatkal More, Dum Dum Road, Space Town, Jhilbagan, Dum Dum, Kolkata- 700074",,700028,,"22.621305,88.40228",,250,,,,,,,,,,,,,,,,,,,,,,,,,,,,,,,Club-Town-Estates-Kolkata,,,,,,,,,https://www.magicbricks.com/club-town-estates-dum-dum-kolkata-pdpid-4d4235303333313331
31,Udita the Condoville,Welcome to Udita the Condoville,,,,,,,,,,,,Gated Community,Kolkata,Kolkata,,,,"Survey Park, Santoshpur, Kolkata, West Bengal",,700075,,"22.489042,88.38916",,0,,,,,,,,,,,,,,,,,,,,,,,,,,,,,,,Udita-the-Condoville-Kolkata,,,,,,,,,https://www.magicbricks.com/udita-the-condoville-santoshpur-kolkata-pdpid-4d4235323833383539
32,Swagat Skyline,Welcome to Swagat Skyline,,,,,,,,,,,,Gated Community,Kolkata,Kolkata,,,,"Narayanpur Rd, Narayanpur, Gopalpur I, Kolkata, West Bengal",,700052,,"22.64405,88.46151",,200,,,,,,,,,,,,,,,,,,,,,,,,,,,,,,,Swagat-Skyline-Kolkata,,,,,,,,,https://www.magicbricks.com/swagat-skyline-narayanpur-kolkata-pdpid-4d4235323132303231
33,Ideal Enclave Phase II,Welcome to Ideal Enclave Phase II,,,,,,,,,,,,Gated Community,Kolkata,Kolkata,,,,"35/6,, Natunpara, Gopalpur Gram, Kolkata, West Bengal 700136",,700136,,"22.61351,88.43037",,235,,,,,,,,,,,,,,,,,,,,,,,,,,,,,,,Ideal-Enclave-Phase-II-Kolkata,,,,,,,,,https://www.magicbricks.com/ideal-enclave-phase-ii-rajarhat-kolkata-pdpid-4d4235303931303535
34,Magnolia Oxygen,Welcome to Magnolia Oxygen,,,,,,,,,,,,Gated Community,Kolkata,Kolkata,,,,"Kolaberia, kamrbari, Shibtola, Rajarhat main road, Kolkata -700135",,700136,,"22.5643,88.46401",,368,,,,,,,,,,,,,,,,,,,,,,,,,,,,,,,Magnolia-Oxygen-Kolkata,,,,,,,,,https://www.magicbricks.com/magnolia-oxygen-rajarhat-kolkata-pdpid-4d4235303735303031
35,Om Residency,Welcome to Om Residency,,,,,,,,,,,,Gated Community,Kolkata,Kolkata,,,,"36 Kassipore Main Road, Kolkata-700002",,700002,,"22.62944,88.37127",,149,,,,,,,,,,,,,,,,,,,,,,,,,,,,,,,Om-Residency-Kolkata,,,,,,,,,https://www.magicbricks.com/om-residency-kashipur-kolkata-pdpid-4d4235303831383536
36,Siddha Pine Woods,Welcome to Siddha Pine Woods,,,,,,,,,,,,Gated Community,Kolkata,Kolkata,,,,"Rajarhat Main Road, Bablatala,Gopalpur Gram, Kolkata-700052",,700001,,"22.635445,88.45893",,312,,,,,,,,,,,,,,,,,,,,,,,,,,,,,,,Siddha-Pine-Woods-Kolkata,,,,,,,,,https://www.magicbricks.com/siddha-pine-woods-rajarhat-main-road-kolkata-pdpid-4d4235303138313035
37,Sanjeeva Gardens,Welcome to Sanjeeva Gardens,,,,,,,,,,,,Gated Community,Kolkata,Kolkata,,,,"New town, action aria 1, opposite side of aquatics , Kolkata -700102",,700136,,"22.567888,88.46092",,160,,,,,,,,,,,,,,,,,,,,,,,,,,,,,,,Sanjeeva-Gardens-Kolkata,,,,,,,,,https://www.magicbricks.com/sanjeeva-gardens-rajarhat-kolkata-pdpid-4d4235303030303330
38,Majhergaon,Welcome to Majhergaon,,,,,,,,,,,,Gated Community,Kolkata,Kolkata,,,,"Badu Road, Jessore Road , Madhyamgran Crossing , Kolkata -700124",,700129,,"22.694118,88.48371",,730,,,,,,,,,,,,,,,,,,,,,,,,,,,,,,,Majhergaon-Kolkata,,,,,,,,,https://www.magicbricks.com/majhergaon-madhyam-gram-kolkata-pdpid-4d4235303831393031
39,Ananda,Welcome to Ananda,,,,,,,,,,,,Gated Community,Kolkata,Kolkata,,,,"Nagarbazar, 8, mall road, Kolkata -700101",,700028,,"22.62563,88.4207",,260,,,,,,,,,,,,,,,,,,,,,,,,,,,,,,,Ananda-Kolkata,,,,,,,,,https://www.magicbricks.com/ananda-nager-bazar-kolkata-pdpid-4d4235303735343330
40,Uttara Housing Complex Dwitiya,Welcome to Uttara Housing Complex Dwitiya,,,,,,,,,,,,Gated Community,Kolkata,Kolkata,,,,Kolkata,,700001,,"22.62417,88.4518",,0,,,,,,,,,,,,,,,,,,,,,,,,,,,,,,,Uttara-Housing-Complex-Dwitiya-Kolkata,,,,,,,,,https://www.magicbricks.com/uttara-housing-complex-dwitiya-city-centre-new-town-kolkata-pdpid-4d4235323131353737
41,Eden City Maheshtala,Welcome to Eden City Maheshtala,,,,,,,,,,,,Gated Community,Kolkata,Kolkata,,,,"Maheshtala, Kolkata",,700137,,"22.511135,88.24616",,2336,,,,,,,,,,,,,,,,,,,,,,,,,,,,,,,Eden-City-Maheshtala-Kolkata,,,,,,,,,https://www.magicbricks.com/eden-city-maheshtala-maheshtala-kolkata-pdpid-4d4235303232353436
42,Orchard 126,Welcome to Orchard 126,,,,,,,,,,,,Gated Community,Kolkata,Kolkata,,,,"126 F, BT Road, Agarpara, Kolkata-700109",,700109,,"22.690825,88.37659",,161,,,,,,,,,,,,,,,,,,,,,,,,,,,,,,,Orchard-126-Kolkata,,,,,,,,,https://www.magicbricks.com/orchard-126-agarpara-kolkata-pdpid-4d4235303931303539
43,Avidipta,Welcome to Avidipta,,,,,,,,,,,,Gated Community,Kolkata,Kolkata,,,,"401, Borokhol, Mukundapur, Em bypass, Kolkata-700099.",,700001,,"22.49195,88.40806",,1068,,,,,,,,,,,,,,,,,,,,,,,,,,,,,,,Avidipta-Kolkata,,,,,,,,,https://www.magicbricks.com/avidipta-e-m-bypass-kolkata-pdpid-4d4235303330353430
44,Aster Green,Welcome to Aster Green,,,,,,,,,,,,Gated Community,Kolkata,Kolkata,,,,"Rajarhat Road, Atghara, Fultala, Rajarhat, Kolkata-700136",,700136,,"22.625933,88.44387",,120,,,,,,,,,,,,,,,,,,,,,,,,,,,,,,,Aster-Green-Kolkata,,,,,,,,,https://www.magicbricks.com/aster-green-rajarhat-kolkata-pdpid-4d4235303332393430
45,Diamond City West,Welcome to Diamond City West,,,,,,,,,,,,Gated Community,Kolkata,Kolkata,,,,"18, Ho Chi Minh Sarani Behala Kolkata 61",,700060,,"22.50211,88.31834",,1000,,,,,,,,,,,,,,,,,,,,,,,,,,,,,,,Diamond-City-West-Kolkata,,,,,,,,,https://www.magicbricks.com/diamond-city-west-ho-chi-minh-sarani-behala-kolkata-pdpid-4d4235303234363434
46,Shapoorji Houshing Complex,Welcome to Shapoorji Houshing Complex,,,,,,,,,,,,Gated Community,Kolkata,Kolkata,,,,"Rajarhat new town, action aria 3, Kolkata -700135",,700135,,"22.566456,88.508865",,2000,,,,,,,,,,,,,,,,,,,,,,,,,,,,,,,Shapoorji-Houshing-Complex-Kolkata,,,,,,,,,https://www.magicbricks.com/shapoorji-houshing-complex-action-area-3-kolkata-pdpid-4d4235303334363536
47,Meena Paradise,Welcome to Meena Paradise,,,,,,,,,,,,Gated Community,Kolkata,Kolkata,,,,"Rajarhat 91c Root, Kaikhali, Kolkata -700136",,743290,,"22.636204,88.44942",,60,,,,,,,,,,,,,,,,,,,,,,,,,,,,,,,Meena-Paradise-Kolkata,,,,,,,,,https://www.magicbricks.com/meena-paradise-kaikhali-kolkata-pdpid-4d4235303933333037
48,Sonartori Housing Complex,Welcome to Sonartori Housing Complex,,,,,,,,,,,,Gated Community,Kolkata,Kolkata,,,,"New Town Action area 2, hidcomore bhawan, Kolkata -700156",,700156,,"22.573391,88.468",,104,,,,,,,,,,,,,,,,,,,,,,,,,,,,,,,Sonartori-Housing-Complex-Kolkata,,,,,,,,,https://www.magicbricks.com/sonartori-housing-complex-new-town-kolkata-pdpid-4d4235303738393532
49,Godrej Prakriti,Welcome to Godrej Prakriti,,,,,,,,,,,,Gated Community,Kolkata,Kolkata,,,,"BT Rd, Math Bagan, Sodepur, Khardaha, West Bengal",,700002,,"22.62358,88.378845",,2800,,,,,,,,,,,,,,,,,,,,,,,,,,,,,,,Godrej-Prakriti-Kolkata,,,,,,,,,https://www.magicbricks.com/godrej-prakriti-bt-road-kolkata-pdpid-4d4235303230333832
50,Teen Kanya,Welcome to Teen Kanya,,,,,,,,,,,,Gated Community,Kolkata,Kolkata,,,,"Action area 2B, new town, rajarhat, Kolkata -700135",,700156,,"22.58289,88.455536",,380,,,,,,,,,,,,,,,,,,,,,,,,,,,,,,,Teen-Kanya-Kolkata,,,,,,,,,https://www.magicbricks.com/teen-kanya-new-town-kolkata-pdpid-4d4235303235373530
51,Sunrise Symphony,Welcome to Sunrise Symphony,,,,,,,,,,,,Gated Community,Kolkata,Kolkata,,,,"Action Area 2B, Nawabpur, Rajarhat, Kolkata-700156",,700136,,"22.58289,88.455536",,400,,,,,,,,,,,,,,,,,,,,,,,,,,,,,,,Sunrise-Symphony-Kolkata,,,,,,,,,https://www.magicbricks.com/sunrise-symphony-rajarhat-kolkata-pdpid-4d4235303030313634
52,Greenfield City,Welcome to Greenfield City,,,,,,,,,,,,Gated Community,Kolkata,Kolkata,,,,"Jote Sibrampur, Holding No. - E3-398 , New Ward No. - 14 (New), Kolkata 700141",,700141,,"22.50211,88.31834",,4066,,,,,,,,,,,,,,,,,,,,,,,,,,,,,,,Greenfield-City-Kolkata,,,,,,,,,https://www.magicbricks.com/greenfield-city-behala-chowrasta-kolkata-pdpid-4d4235303031313335
53,Merlin Crest,Welcome to Merlin Crest,,,,,,,,,,,,Gated Community,Kolkata,Kolkata,,,,Diamond harbour road behala kolkata-700042,,700104,,"22.53887,88.32738",,82,,,,,,,,,,,,,,,,,,,,,,,,,,,,,,,Merlin-Crest-Kolkata,,,,,,,,,https://www.magicbricks.com/merlin-crest-diamond-harbour-road-kolkata-pdpid-4d4235303331303738
54,Dakshini Phase II,Welcome to Dakshini Phase II,,,,,,,,,,,,Gated Community,Kolkata,Kolkata,,,,"D87/1,B.P.Township,Kolkata-700094",,700084,,"22.464357,88.380196",,110,,,,,,,,,,,,,,,,,,,,,,,,,,,,,,,Dakshini-Phase-II-Kolkata,,,,,,,,,https://www.magicbricks.com/dakshini-phase-ii-garia-kolkata-pdpid-4d4235303736363037
55,Meena Residency,Welcome to Meena Residency,,,,,,,,,,,,Gated Community,Kolkata,Kolkata,,,,V.I.P. Road,,700136,,"22.62345,88.43448",,275,,,,,,,,,,,,,,,,,,,,,,,,,,,,,,,Meena-Residency-Kolkata,,,,,,,,,https://www.magicbricks.com/meena-residency-teghoria-kolkata-pdpid-4d4235303232313434
56,SP RESIDENCY,Welcome to SP RESIDENCY,,,,,,,,,,,,Gated Community,Kolkata,Kolkata,,,,"Kabi nabin nagar. , birati station road, Kolkata -700049",,700051,,"22.66587,88.42872",,75,,,,,,,,,,,,,,,,,,,,,,,,,,,,,,,SP-RESIDENCY-Kolkata,,,,,,,,,https://www.magicbricks.com/sp-residency-birati-kolkata-pdpid-4d4235303338333439
57,Dashdrone,Welcome to Dashdrone,,,,,,,,,,,,Gated Community,Kolkata,Kolkata,,,,"Dasdrone,Rajarhat,Kolkata-700136",,700136,,"22.629572,88.448135",,48,,,,,,,,,,,,,,,,,,,,,,,,,,,,,,,Dashdrone-Kolkata,,,,,,,,,https://www.magicbricks.com/dashdrone-rajarhat-kolkata-pdpid-4d4235303333313734
58,New Town Metro Plaza,Welcome to New Town Metro Plaza,,,,,,,,,,,,Gated Community,Kolkata,Kolkata,,,,"1405, 1406 Rajarhat main road, kolkata-700136",,700001,,"22.625467,88.44329",,72,,,,,,,,,,,,,,,,,,,,,,,,,,,,,,,New-Town-Metro-Plaza-Kolkata,,,,,,,,,https://www.magicbricks.com/new-town-metro-plaza-rajarhat-main-road-kolkata-pdpid-4d4235303833383232
59,Ambey Niketan,Welcome to Ambey Niketan,,,,,,,,,,,,Gated Community,Kolkata,Kolkata,,,,"Dashadrone More, Rajarhat Main Road, Kolkata -700136",,700136,,"22.629202,88.45045",,40,,,,,,,,,,,,,,,,,,,,,,,,,,,,,,,Ambey-Niketan-Kolkata,,,,,,,,,https://www.magicbricks.com/ambey-niketan-rajarhat-kolkata-pdpid-4d4235303237373738
60,NBCC Vibgyor,Welcome to NBCC Vibgyor,,,,,,,,,,,,Gated Community,Kolkata,Kolkata,,,,"175, Street Number 175, CE Block, Action Area 1, Rajarhat Newtown, Kolkata- 700156",,700156,,"22.58198,88.455536",,798,,,,,,,,,,,,,,,,,,,,,,,,,,,,,,,NBCC-Vibgyor-Kolkata,,,,,,,,,https://www.magicbricks.com/nbcc-vibgyor-action-area-1-kolkata-pdpid-4d4235303231383235
61,Shree AC Market,Welcome to Shree AC Market,,,,,,,,,,,,Gated Community,Kolkata,Kolkata,,,,Kolkata,,711101,,"22.574278,88.328255",,50,,,,,,,,,,,,,,,,,,,,,,,,,,,,,,,Shree-AC-Market-Kolkata,,,,,,,,,https://www.magicbricks.com/shree-ac-market-howrah-kolkata-pdpid-4d4235313331363331
62,Solaris Bonhooghly,Welcome to Solaris Bonhooghly,,,,,,,,,,,,Gated Community,Kolkata,Kolkata,,,,"Bonhooghly, Kolkata North",,700002,,"22.499401,88.31729",,522,,,,,,,,,,,,,,,,,,,,,,,,,,,,,,,Solaris-Bonhooghly-Kolkata,,,,,,,,,https://www.magicbricks.com/solaris-bonhooghly-bt-road-kolkata-pdpid-4d4235313030313737
63,Merlin Residency,Welcome to Merlin Residency,,,,,,,,,,,,Gated Community,Kolkata,Kolkata,,,,"Prince Anwar Shah Rd., Kolkata South",,700045,,"22.5044,88.34928",,36,,,,,,,,,,,,,,,,,,,,,,,,,,,,,,,Merlin-Residency-Kolkata,,,,,,,,,https://www.magicbricks.com/merlin-residency-prince-anwar-shah-road-kolkata-pdpid-4d4235303230343438
64,Tara Regency,Welcome to Tara Regency,,,,,,,,,,,,Gated Community,Kolkata,Kolkata,,,,"Raja S.C.Mullik Road,Kolkata -700084",,700084,,"22.469593,88.37761",,52,,,,,,,,,,,,,,,,,,,,,,,,,,,,,,,Tara-Regency-Kolkata,,,,,,,,,https://www.magicbricks.com/tara-regency-garia-kolkata-pdpid-4d4235303335303635
65,Purba GD Block,Welcome to Purba GD Block,,,,,,,,,,,,Gated Community,Kolkata,Kolkata,,,,"1582/2, Narkelbagan Main Road, Gd Block, Kolkata-700107",,700107,,"22.511686,88.397675",,146,,,,,,,,,,,,,,,,,,,,,,,,,,,,,,,Purba-GD-Block-Kolkata,,,,,,,,,https://www.magicbricks.com/purba-gd-block-east-kolkata-township-kolkata-pdpid-4d4235303831323231
66,Panchvati Complex,Welcome to Panchvati Complex,,,,,,,,,,,,Gated Community,Kolkata,Kolkata,,,,"Kaikhali, VIP Road, Kolkata-700059",,743290,,"22.628414,88.43435",,190,,,,,,,,,,,,,,,,,,,,,,,,,,,,,,,Panchvati-Complex-Kolkata,,,,,,,,,https://www.magicbricks.com/panchvati-complex-kaikhali-kolkata-pdpid-4d4235303334323537
67,Tirath Project,Welcome to Tirath Project,,,,,,,,,,,,Gated Community,Kolkata,Kolkata,,,,"Kalipark, Bablatola, United Club, Kolkata-700136",,700136,,"22.61351,88.43037",,139,,,,,,,,,,,,,,,,,,,,,,,,,,,,,,,Tirath-Project-Kolkata,,,,,,,,,https://www.magicbricks.com/tirath-project-rajarhat-kolkata-pdpid-4d4235303335313038
68,Abanti Apartment,Welcome to Abanti Apartment,,,,,,,,,,,,Gated Community,Kolkata,Kolkata,,,,Kolkata,,700001,,"22.46256,88.39072",,0,,,,,,,,,,,,,,,,,,,,,,,,,,,,,,,Abanti-Apartment-Kolkata,,,,,,,,,https://www.magicbricks.com/abanti-apartment-garia-kolkata-pdpid-4d4235303330333731
69,Sabuj Swapno,Welcome to Sabuj Swapno,,,,,,,,,,,,Gated Community,Kolkata,Kolkata,,,,Kolkata,,700001,,"22.846966,88.35444",,0,,,,,,,,,,,,,,,,,,,,,,,,,,,,,,,Sabuj-Swapno-Kolkata,,,,,,,,,https://www.magicbricks.com/sabuj-swapno-chandannagar-kolkata-pdpid-4d4235303737343132
70,DTC Southern Heights,Welcome to DTC Southern Heights,,,,,,,,,,,,Gated Community,Kolkata,Kolkata,,,,"Dimoand harbour road, Near Jim joka, Kolkata 700060",,700104,,"22.45256,88.30327",,2500,,,,,,,,,,,,,,,,,,,,,,,,,,,,,,,DTC-Southern-Heights-Kolkata,,,,,,,,,https://www.magicbricks.com/dtc-southern-heights-joka-kolkata-pdpid-4d4235303830333632
71,Mayfair Bloom,Welcome to Mayfair Bloom,,,,,,,,,,,,Gated Community,Kolkata,Kolkata,,,,155 DR B.C ROY ROAD JAGADDAL KOLKATA 151,,700149,,"22.423347,88.39441",,42,,,,,,,,,,,,,,,,,,,,,,,,,,,,,,,Mayfair-Bloom-Kolkata,,,,,,,,,https://www.magicbricks.com/mayfair-bloom-rajpur-market-kolkata-pdpid-4d4235303230343937
72,Siddha Town,Welcome to Siddha Town,,,,,,,,,,,,Gated Community,Kolkata,Kolkata,,,,"Madhyamgram, Kolkata North",,700129,,"22.67097,88.44321",,111,,,,,,,,,,,,,,,,,,,,,,,,,,,,,,,Siddha-Town-Kolkata,,,,,,,,,https://www.magicbricks.com/siddha-town-madhyam-gram-kolkata-pdpid-4d4235303138333230
73,Larica Township,Welcome to Larica Township,,,,,,,,,,,,Gated Community,Kolkata,Kolkata,,,,"Barasat, Kolkata",,700124,,"22.76353,88.41982",,2300,,,,,,,,,,,,,,,,,,,,,,,,,,,,,,,Larica-Township-Kolkata,,,,,,,,,https://www.magicbricks.com/larica-township-barasat-kolkata-pdpid-4d4235303238353931
74,Parnasree Green,Welcome to Parnasree Green,,,,,,,,,,,,Gated Community,Kolkata,Kolkata,,,,Upendra nath banerjee road Parnasree behala Kolkata 60,,700034,,"22.507572,88.29948",,310,,,,,,,,,,,,,,,,,,,,,,,,,,,,,,,Parnasree-Green-Kolkata,,,,,,,,,https://www.magicbricks.com/parnasree-green-behala-kolkata-pdpid-4d4235303030323534
75,Anupama,Welcome to Anupama,,,,,,,,,,,,Gated Community,Kolkata,Kolkata,,,,"anupama, beside of haldiram food court, kaikhali, kolkata-700052",,700052,,"22.62601,88.43513",,1423,,,,,,,,,,,,,,,,,,,,,,,,,,,,,,,Anupama-Kolkata,,,,,,,,,https://www.magicbricks.com/anupama-vip-road-kolkata-pdpid-4d4235303239323130
76,Magnolia Magnet,Welcome to Magnolia Magnet,,,,,,,,,,,,Gated Community,Kolkata,Kolkata,,,,"Rajarhat, Kolkata East",,700136,,"22.5643,88.46401",,36,,,,,,,,,,,,,,,,,,,,,,,,,,,,,,,Magnolia-Magnet-Kolkata,,,,,,,,,https://www.magicbricks.com/magnolia-magnet-rajarhat-kolkata-pdpid-4d4235313030383631
77,Merlin Maximus,Welcome to Merlin Maximus,,,,,,,,,,,,Gated Community,Kolkata,Kolkata,,,,"Sodepur, Kolkata",,700110,,"22.703754,88.37869",,474,,,,,,,,,,,,,,,,,,,,,,,,,,,,,,,Merlin-Maximus-Kolkata,,,,,,,,,https://www.magicbricks.com/merlin-maximus-sodepur-kolkata-pdpid-4d4235303834353631
78,Genexx Valley,Welcome to Genexx Valley,,,,,,,,,,,,Gated Community,Kolkata,Kolkata,,,,Diamond harbour road behala kolkata-700104,,700104,,"22.52953,88.32642",,1875,,,,,,,,,,,,,,,,,,,,,,,,,,,,,,,Genexx-Valley-Kolkata,,,,,,,,,https://www.magicbricks.com/genexx-valley-joka-kolkata-pdpid-4d4235303234343831
79,City High,Welcome to City High,,,,,,,,,,,,Gated Community,Kolkata,Kolkata,,,,"85 P.A.Shah Road,Kolkata-700033",,700033,,"22.502792,88.34905",,0,,,,,,,,,,,,,,,,,,,,,,,,,,,,,,,City-High-Kolkata,,,,,,,,,https://www.magicbricks.com/city-high-tollygunge-kolkata-pdpid-4d4235303736323633
80,Siddha Happy Ville,Welcome to Siddha Happy Ville,,,,,,,,,,,,Gated Community,Kolkata,Kolkata,,,,"Rajarhat main road, rajarhat chowmatha, Kolkata -700135",,700136,,"22.6224,88.44037",,1510,,,,,,,,,,,,,,,,,,,,,,,,,,,,,,,Siddha-Happy-Ville-Kolkata,,,,,,,,,https://www.magicbricks.com/siddha-happy-ville-rajarhat-kolkata-pdpid-4d4235303836333536
81,Emami City,Welcome to Emami City,,,,,,,,,,,,Gated Community,Kolkata,Kolkata,,,,"Jessore Road, Kolkata North",,700080,,"22.60798,88.39179",,1200,,,,,,,,,,,,,,,,,,,,,,,,,,,,,,,Emami-City-Kolkata,,,,,,,,,https://www.magicbricks.com/emami-city-jessore-road-kolkata-pdpid-4d4235303232343634
82,Pratima,Welcome to Pratima,,,,,,,,,,,,Gated Community,Kolkata,Kolkata,,,,Garia near Milan park park KOLKATA-84,,700084,,"22.469896,88.38128",,40,,,,,,,,,,,,,,,,,,,,,,,,,,,,,,,Pratima-Kolkata,,,,,,,,,https://www.magicbricks.com/pratima-garia-kolkata-pdpid-4d4235303833363430
83,Bengal Peerless Avidipta,Welcome to Bengal Peerless Avidipta,,,,,,,,,,,,Gated Community,Kolkata,Kolkata,,,,"EM Bypass, West Bengal, Kolkata",,700001,,"22.49322,88.39969",,1068,,,,,,,,,,,,,,,,,,,,,,,,,,,,,,,Bengal-Peerless-Avidipta-Kolkata,,,,,,,,,https://www.magicbricks.com/bengal-peerless-avidipta-e-m-bypass-kolkata-pdpid-4d4235323838323439
84,Sapphire Garden,Welcome to Sapphire Garden,,,,,,,,,,,,Gated Community,Kolkata,Kolkata,,,,"Kajal Para, Rajarhat, Kolkata-700135",,700136,,"22.5643,88.46401",,108,,,,,,,,,,,,,,,,,,,,,,,,,,,,,,,Sapphire-Garden-Kolkata,,,,,,,,,https://www.magicbricks.com/sapphire-garden-rajarhat-kolkata-pdpid-4d4235303235323836
85,Dream Palazzo,Welcome to Dream Palazzo,,,,,,,,,,,,Gated Community,Kolkata,Kolkata,,,,"Rajarhat 91 c root, Kolkata -700135",,700136,,"22.631645,88.44712",,192,,,,,,,,,,,,,,,,,,,,,,,,,,,,,,,Dream-Palazzo-Kolkata,,,,,,,,,https://www.magicbricks.com/dream-palazzo-rajarhat-kolkata-pdpid-4d4235303235333731
86,Sankalpa IV,Welcome to Sankalpa IV,,,,,,,,,,,,Gated Community,Kolkata,Kolkata,,,,"Premises No. 25 MAR Plot No. CB/1, CB/2 of New Town, Kolkata P.S.-Newtown, Kolkata â€“ 700 156",,700136,,"22.57895,88.466194",,108,,,,,,,,,,,,,,,,,,,,,,,,,,,,,,,Sankalpa-IV-Kolkata,,,,,,,,,https://www.magicbricks.com/sankalpa-iv-rajarhat-kolkata-pdpid-4d4235303339393731
87,Rameswara Waterview,Welcome to Rameswara Waterview,,,,,,,,,,,,Gated Community,Kolkata,Kolkata,,,,"Rajarhat Marin Road, Bishnapur Gram, Kolkata -700135",,700059,,"22.60802,88.49045",,312,,,,,,,,,,,,,,,,,,,,,,,,,,,,,,,Rameswara-Waterview-Kolkata,,,,,,,,,https://www.magicbricks.com/rameswara-waterview-rajarhat-chowmatha-kolkata-pdpid-4d4235303030343134
88,ISHA GREENS,Welcome to ISHA GREENS,,,,,,,,,,,,Gated Community,Kolkata,Kolkata,,,,79 Raja Ram Mohan Roy Road Muchipara Kolkata 41,,700008,,"22.487095,88.3332",,41,,,,,,,,,,,,,,,,,,,,,,,,,,,,,,,ISHA-GREENS-Kolkata,,,,,,,,,https://www.magicbricks.com/isha-greens-raja-rammohan-roy-road-kolkata-pdpid-4d4235303234373037
89,Upohar The Condoville,Welcome to Upohar The Condoville,,,,,,,,,,,,Gated Community,Kolkata,Kolkata,,,,"2052, Chakgaria, Panchasayar, Kolkata-700094",,700001,,"22.46112,88.38845",,1272,,,,,,,,,,,,,,,,,,,,,,,,,,,,,,,Upohar-The-Condoville-Kolkata,,,,,,,,,https://www.magicbricks.com/upohar-the-condoville-e-m-bypass-kolkata-pdpid-4d4235303335343631
90,Purbachal Housing Complex Cluster 4,Welcome to Purbachal Housing Complex Cluster 4,,,,,,,,,,,,Gated Community,Kolkata,Kolkata,,,,"Cluster4, Purbachal, Kolkata-700097",,700091,,"22.571873,88.40556",,360,,,,,,,,,,,,,,,,,,,,,,,,,,,,,,,Purbachal-Housing-Complex-Cluster-4-Kolkata,,,,,,,,,https://www.magicbricks.com/purbachal-housing-complex-cluster-4-salt-lake-city-kolkata-pdpid-4d4235303830353232
91,Rail Vihar,Welcome to Rail Vihar,,,,,,,,,,,,Gated Community,Kolkata,Kolkata,,,,Kolkata,,700001,,"22.583185,88.455536",,0,,,,,,,,,,,,,,,,,,,,,,,,,,,,,,,Rail-Vihar-Kolkata,,,,,,,,,https://www.magicbricks.com/rail-vihar-new-town-kolkata-pdpid-4d4235303737333632
92,Purti Flowers,Welcome to Purti Flowers,,,,,,,,,,,,Gated Community,Kolkata,Kolkata,,,,"Maheshtala, Kolkata South",,700137,,"22.50704,88.25664",,512,,,,,,,,,,,,,,,,,,,,,,,,,,,,,,,Purti-Flowers-Kolkata,,,,,,,,,https://www.magicbricks.com/purti-flowers-maheshtala-kolkata-pdpid-4d4235303235333733
93,TATA Avenida,Welcome to TATA Avenida,,,,,,,,,,,,Gated Community,Kolkata,Kolkata,,,,"New Town, Kolkata",,700156,,"22.58289,88.455536",,728,,,,,,,,,,,,,,,,,,,,,,,,,,,,,,,TATA-Avenida-Kolkata,,,,,,,,,https://www.magicbricks.com/tata-avenida-new-town-kolkata-pdpid-4d4235313139363137
94,Fortune Township,Welcome to Fortune Township,,,,,,,,,,,,Gated Community,Kolkata,Kolkata,,,,"Fortune Township, NH35, Kazipara, Barasat, Kolkata, West Bengal 700124",,700124,,"22.72118,88.48157",,650,,,,,,,,,,,,,,,,,,,,,,,,,,,,,,,Fortune-Township-Kolkata,,,,,,,,,https://www.magicbricks.com/fortune-township-barasat-kolkata-pdpid-4d4235303232333137
95,Purba Abasan,Welcome to Purba Abasan,,,,,,,,,,,,Gated Community,Kolkata,Kolkata,,,,"2, Rajdanga Main Road, Sector G, East Kolkata Twp, Kolkata, West Bengal",,700042,,"22.510956,88.39819",,0,,,,,,,,,,,,,,,,,,,,,,,,,,,,,,,Purba-Abasan-Kolkata,,,,,,,,,https://www.magicbricks.com/purba-abasan-kasba-kolkata-pdpid-4d4235323836333239
96,Green Valley Phase II,Welcome to Green Valley Phase II,,,,,,,,,,,,Gated Community,Kolkata,Kolkata,,,,"green valley, kaikhali, chiriamore , Kolkata -700136",,743290,,"22.63536,88.43857",,75,,,,,,,,,,,,,,,,,,,,,,,,,,,,,,,Green-Valley-Phase-II-Kolkata,,,,,,,,,https://www.magicbricks.com/green-valley-phase-ii-kaikhali-kolkata-pdpid-4d4235303234353535
97,Meena Ganga,Welcome to Meena Ganga,,,,,,,,,,,,Gated Community,Kolkata,Kolkata,,,,"Krisnapur, Mission Bazar, Kolkata 700102",,700102,,"22.586302,88.43702",,88,,,,,,,,,,,,,,,,,,,,,,,,,,,,,,,Meena-Ganga-Kolkata,,,,,,,,,https://www.magicbricks.com/meena-ganga-keshtopur-kolkata-pdpid-4d4235303232313431
98,Victoria Greens,Welcome to Victoria Greens,,,,,,,,,,,,Gated Community,Kolkata,Kolkata,,,,"Garia Main Road ,Mahamayatala ,Kolkata-700084",,700084,,"22.457945,88.38278",,300,,,,,,,,,,,,,,,,,,,,,,,,,,,,,,,Victoria-Greens-Kolkata,,,,,,,,,https://www.magicbricks.com/victoria-greens-garia-kolkata-pdpid-4d4235303335323239
99,Adya Highrise,Welcome to Adya Highrise,,,,,,,,,,,,Gated Community,Kolkata,Kolkata,,,,Kolkata,,700001,,"22.483137,88.328636",,0,,,,,,,,,,,,,,,,,,,,,,,,,,,,,,,Adya-Highrise-Kolkata,,,,,,,,,https://www.magicbricks.com/adya-highrise-tollygunge-kolkata-pdpid-4d4235303237383630
100,Amrita Garden,Welcome to Amrita Garden,,,,,,,,,,,,Gated Community,Kolkata,Kolkata,,,,"148, N.S.C. Haraharitala, Netaji Subhash Chandra Bose Rd, Harinavi, Kolkata, West Bengal",,700148,,"22.411922,88.417564",,100,,,,,,,,,,,,,,,,,,,,,,,,,,,,,,,Amrita-Garden-Kolkata,,,,,,,,,https://www.magicbricks.com/amrita-garden-harinavi-kolkata-pdpid-4d4235323038363533
101,Arihant Garden,Welcome to Arihant Garden,,,,,,,,,,,,Gated Community,Kolkata,Kolkata,,,,"Rajarhat chowmatha, rajarhat main road, kolkata -700135",,700136,,"22.622448,88.49325",,70,,,,,,,,,,,,,,,,,,,,,,,,,,,,,,,Arihant-Garden-Kolkata,,,,,,,,,https://www.magicbricks.com/arihant-garden-rajarhat-kolkata-pdpid-4d4235303233363630
102,Prasad Exotica,Welcome to Prasad Exotica,,,,,,,,,,,,Gated Community,Kolkata,Kolkata,,,,"EM Bypass, Kolkata, West Bengal, India.",,700001,,"22.5732,88.4002",,500,,,,,,,,,,,,,,,,,,,,,,,,,,,,,,,Prasad-Exotica-Kolkata,,,,,,,,,https://www.magicbricks.com/prasad-exotica-e-m-bypass-kolkata-pdpid-4d4235303335393033
103,Meena Srishti,Welcome to Meena Srishti,,,,,,,,,,,,Gated Community,Kolkata,Kolkata,,,,"Rajarhat 91C Root, Narayanpur, Kolkata -700136.",,700136,,"22.639084,88.45626",,35,,,,,,,,,,,,,,,,,,,,,,,,,,,,,,,Meena-Srishti-Kolkata,,,,,,,,,https://www.magicbricks.com/meena-srishti-rajarhat-kolkata-pdpid-4d4235303730383735
104,Purtia Aqua 3,Welcome to Purtia Aqua 3,,,,,,,,,,,,Gated Community,Kolkata,Kolkata,,,,Kolkata,,700136,,"22.62916,88.44645",,34,,,,,,,,,,,,,,,,,,,,,,,,,,,,,,,Purtia-Aqua-3-Kolkata,,,,,,,,,https://www.magicbricks.com/purtia-aqua-3-rajarhat-kolkata-pdpid-4d4235313837313930
105,Siddha Galaxia Phase I,Welcome to Siddha Galaxia Phase I,,,,,,,,,,,,Gated Community,Kolkata,Kolkata,,,,"Raigachi, rajarhat, Kolkata - 700135",,700136,,"22.61351,88.43037",,347,,,,,,,,,,,,,,,,,,,,,,,,,,,,,,,Siddha-Galaxia-Phase-I-Kolkata,,,,,,,,,https://www.magicbricks.com/siddha-galaxia-phase-i-rajarhat-kolkata-pdpid-4d4235303734313934
106,Viswanath Enclave,Welcome to Viswanath Enclave,,,,,,,,,,,,Gated Community,Kolkata,Kolkata,,,,"Mahatma Gandhi Rd, Haridevpur, Paschim Putiary, Kolkata, West Bengal",,700078,,"22.46241,88.33085",,0,,,,,,,,,,,,,,,,,,,,,,,,,,,,,,,Viswanath-Enclave-Kolkata,,,,,,,,,https://www.magicbricks.com/viswanath-enclave-kabardanga-kolkata-pdpid-4d4235323131363637
107,Rajat Flora,Welcome to Rajat Flora,,,,,,,,,,,,Gated Community,Kolkata,Kolkata,,,,10/3N.S Road Near Dabur Factory Kolkata 103,,700103,,"22.432081,88.40282",,84,,,,,,,,,,,,,,,,,,,,,,,,,,,,,,,Rajat-Flora-Kolkata,,,,,,,,,https://www.magicbricks.com/rajat-flora-narendrapur-kolkata-pdpid-4d4235303139313934
108,Heritage Srijan Park,Welcome to Heritage Srijan Park,,,,,,,,,,,,Gated Community,Kolkata,Kolkata,,,,"72A , Tiljala Road, Kolkata-700014",,700001,,"22.542265,88.37206",,80,,,,,,,,,,,,,,,,,,,,,,,,,,,,,,,Heritage-Srijan-Park-Kolkata,,,,,,,,,https://www.magicbricks.com/heritage-srijan-park-e-m-bypass-kolkata-pdpid-4d4235303335363531
109,Ideal Niketan,Welcome to Ideal Niketan,,,,,,,,,,,,Gated Community,Kolkata,Kolkata,,,,"E M Bypass, Kolkata East",,700001,,"22.58497,88.39915",,133,,,,,,,,,,,,,,,,,,,,,,,,,,,,,,,Ideal-Niketan-Kolkata,,,,,,,,,https://www.magicbricks.com/ideal-niketan-e-m-bypass-kolkata-pdpid-4d4235303235333638
110,Ganapati Residency,Welcome to Ganapati Residency,,,,,,,,,,,,Gated Community,Kolkata,Kolkata,,,,"Rajarhat 91c root, Opposite of Siddha Town, Kolkata -700135",,700136,,"22.640442,88.472046",,54,,,,,,,,,,,,,,,,,,,,,,,,,,,,,,,Ganapati-Residency-Kolkata,,,,,,,,,https://www.magicbricks.com/ganapati-residency-rajarhat-kolkata-pdpid-4d4235303737373138
111,Netaji Metro,Welcome to Netaji Metro,,,,,,,,,,,,Gated Community,Kolkata,Kolkata,,,,"Netaji Nagar, Kolkata, West Bengal",,700047,,"22.481777,88.36356",,0,,,,,,,,,,,,,,,,,,,,,,,,,,,,,,,Netaji-Metro-Kolkata,,,,,,,,,https://www.magicbricks.com/netaji-metro-netaji-nagar-kolkata-pdpid-4d4235323836333233
112,Devlok,Welcome to Devlok,,,,,,,,,,,,Gated Community,Kolkata,Kolkata,,,,"Bansdroni, Nsc Bose Road, Kolakta-700041",,700070,,"22.474297,88.3621",,57,,,,,,,,,,,,,,,,,,,,,,,,,,,,,,,Devlok-Kolkata,,,,,,,,,https://www.magicbricks.com/devlok-bansdroni-kolkata-pdpid-4d4235303230343834
113,East Enclave,Welcome to East Enclave,,,,,,,,,,,,Gated Community,Kolkata,Kolkata,,,,"New Town, Kolkata.",,700156,,"22.581608,88.446205",,576,,,,,,,,,,,,,,,,,,,,,,,,,,,,,,,East-Enclave-Kolkata,,,,,,,,,https://www.magicbricks.com/east-enclave-new-town-kolkata-pdpid-4d4235303838303639
114,Suraj Apartment,Welcome to Suraj Apartment,,,,,,,,,,,,Gated Community,Kolkata,Kolkata,,,,"New Town, Kolkata.",,700156,,"22.580727,88.45173",,0,,,,,,,,,,,,,,,,,,,,,,,,,,,,,,,Suraj-Apartment-Kolkata,,,,,,,,,https://www.magicbricks.com/suraj-apartment-new-town-kolkata-pdpid-4d4235313230323835
115,Meena Green,Welcome to Meena Green,,,,,,,,,,,,Gated Community,Kolkata,Kolkata,,,,"Kaikhali, Kolkata",,700052,,"22.62601,88.43513",,140,,,,,,,,,,,,,,,,,,,,,,,,,,,,,,,Meena-Green-Kolkata,,,,,,,,,https://www.magicbricks.com/meena-green-vip-road-kolkata-pdpid-4d4235303234343934
116,Siddha Eden Lakeville,Welcome to Siddha Eden Lakeville,,,,,,,,,,,,Gated Community,Kolkata,Kolkata,,,,"Lake View Park Road, Bonhooghly C Block, Bonhooghly Government Colony, Baranagar, West Bengal 700108",,700002,,"22.646694,88.3806",,1054,,,,,,,,,,,,,,,,,,,,,,,,,,,,,,,Siddha-Eden-Lakeville-Kolkata,,,,,,,,,https://www.magicbricks.com/siddha-eden-lakeville-bt-road-kolkata-pdpid-4d4235303734313932
117,Purti Utsav,Welcome to Purti Utsav,,,,,,,,,,,,Gated Community,Kolkata,Kolkata,,,,Rajarhat Chowmatha Kolkata,,700136,,"22.625011,88.48915",,112,,,,,,,,,,,,,,,,,,,,,,,,,,,,,,,Purti-Utsav-Kolkata,,,,,,,,,https://www.magicbricks.com/purti-utsav-rajarhat-kolkata-pdpid-4d4235303030353636
118,Green Land Park,Welcome to Green Land Park,,,,,,,,,,,,Gated Community,Kolkata,Kolkata,,,,Kolkata,,700001,,"22.446436,88.39663",,0,,,,,,,,,,,,,,,,,,,,,,,,,,,,,,,Green-Land-Park-Kolkata,,,,,,,,,https://www.magicbricks.com/green-land-park-kamalgazi-kolkata-pdpid-4d4235323039363339
119,JUBILEE RESIDENCY,Welcome to JUBILEE RESIDENCY,,,,,,,,,,,,Gated Community,Kolkata,Kolkata,,,,Kolkata,,700001,,"22.61857,88.41617",,0,,,,,,,,,,,,,,,,,,,,,,,,,,,,,,,JUBILEE-RESIDENCY-Kolkata,,,,,,,,,https://www.magicbricks.com/jubilee-residency-narendrapur-kolkata-pdpid-4d4235303234373639
120,Gitanjali Park Project,Welcome to Gitanjali Park Project,,,,,,,,,,,,Gated Community,Kolkata,Kolkata,,,,Gitanjali Park,,700001,,"22.50263,88.39443",,12,,,,,,,,,,,,,,,,,,,,,,,,,,,,,,,Gitanjali-Park-Project-Kolkata,,,,,,,,,https://www.magicbricks.com/gitanjali-park-project-em-bypass-south-east-kolkata-pdpid-4d4235303237393136
121,Siddha Waterfront,Welcome to Siddha Waterfront,,,,,,,,,,,,Gated Community,Kolkata,Kolkata,,,,"Choudhury More Old Calcutta Road, Regards Ramakrishna Mission, Kolkata -700118",,700116,,"22.4657,88.34358",,1068,,,,,,,,,,,,,,,,,,,,,,,,,,,,,,,Siddha-Waterfront-Kolkata,,,,,,,,,https://www.magicbricks.com/siddha-waterfront-khardah-kolkata-pdpid-4d4235303332353036
122,Rare Earth,Welcome to Rare Earth,,,,,,,,,,,,Gated Community,Kolkata,Kolkata,,,,"93 & 65/1, Narkeldanga Main Road, Opposite Lake Disctrict",,700011,,"22.578766,88.38261",,90,,,,,,,,,,,,,,,,,,,,,,,,,,,,,,,Rare-Earth-Kolkata,,,,,,,,,https://www.magicbricks.com/rare-earth-narkel-danga-kolkata-pdpid-4d4235313835393435
123,Lokenath Tower,Welcome to Lokenath Tower,,,,,,,,,,,,Gated Community,Kolkata,Kolkata,,,,"Narayanpur, Rajarhat 91c root, Kolkata -700136",,700136,,"22.63835,88.45349",,35,,,,,,,,,,,,,,,,,,,,,,,,,,,,,,,Lokenath-Tower-Kolkata,,,,,,,,,https://www.magicbricks.com/lokenath-tower-rajarhat-kolkata-pdpid-4d4235303834323034
124,Ashabari Housing Apartment,Welcome to Ashabari Housing Apartment,,,,,,,,,,,,Gated Community,Kolkata,Kolkata,,,,"19/B ,Garia main road, Baishnob ghata ,kolkata-94",,700094,,"22.47531,88.38842",,300,,,,,,,,,,,,,,,,,,,,,,,,,,,,,,,Ashabari-Housing-Apartment-Kolkata,,,,,,,,,https://www.magicbricks.com/ashabari-housing-apartment-patuli-kolkata-pdpid-4d4235303332393133
125,Meera Apartment,Welcome to Meera Apartment,,,,,,,,,,,,Gated Community,Kolkata,Kolkata,,,,"B 1 , Kaikhali. Sardar Para, Kolkata-700052",,743290,,"22.59121,88.39329",,25,,,,,,,,,,,,,,,,,,,,,,,,,,,,,,,Meera-Apartment-Kolkata,,,,,,,,,https://www.magicbricks.com/meera-apartment-kaikhali-kolkata-pdpid-4d4235303138383939
126,Lake Towers,Welcome to Lake Towers,,,,,,,,,,,,Gated Community,Kolkata,Kolkata,,,,Kolkata,,700029,,"22.512997,88.34929",,0,,,,,,,,,,,,,,,,,,,,,,,,,,,,,,,Lake-Towers-Kolkata,,,,,,,,,https://www.magicbricks.com/lake-towers-southern-avenue-kolkata-pdpid-4d4235303332313835
127,Unitech Uniworld City,Welcome to Unitech Uniworld City,,,,,,,,,,,,Gated Community,Kolkata,Kolkata,,,,Kolkata,,700156,,"22.5618,88.49397",,840,,,,,,,,,,,,,,,,,,,,,,,,,,,,,,,Unitech-Uniworld-City-Kolkata,,,,,,,,,https://www.magicbricks.com/unitech-uniworld-city-new-town-kolkata-pdpid-4d4235313233303335
128,Siddha Galaxia Phase 2,Welcome to Siddha Galaxia Phase 2,,,,,,,,,,,,Gated Community,Kolkata,Kolkata,,,,"Rajarhat, Kolkata",,700136,,"22.632252,88.46961",,903,,,,,,,,,,,,,,,,,,,,,,,,,,,,,,,Siddha-Galaxia-Phase-2-Kolkata,,,,,,,,,https://www.magicbricks.com/siddha-galaxia-phase-2-rajarhat-kolkata-pdpid-4d4235303735303039
129,Eden Richmond Park,Welcome to Eden Richmond Park,,,,,,,,,,,,Gated Community,Kolkata,Kolkata,,,,"Kodalla Malancha Mahi Nagar, Rajpur, Sonarpur, Kolkata-700146",,700103,,"22.47109,88.35607",,218,,,,,,,,,,,,,,,,,,,,,,,,,,,,,,,Eden-Richmond-Park-Kolkata,,,,,,,,,https://www.magicbricks.com/eden-richmond-park-narendrapur-kolkata-pdpid-4d4235303733353337
130,Ganga Jamuna and Bhagirathi,Welcome to Ganga Jamuna and Bhagirathi,,,,,,,,,,,,Gated Community,Kolkata,Kolkata,,,,"Nilgaungr Road, Panihayi, Kolkata-700114",,700110,,"22.69761,88.39375",,110,,,,,,,,,,,,,,,,,,,,,,,,,,,,,,,Ganga-Jamuna-and-Bhagirathi-Kolkata,,,,,,,,,https://www.magicbricks.com/ganga-jamuna-and-bhagirathi-sodepur-kolkata-pdpid-4d4235303138383530
131,Eternis,Welcome to Eternis,,,,,,,,,,,,Gated Community,Kolkata,Kolkata,,,,"Jessore Road, Kolkata North",,700080,,"22.62988,88.42124",,850,,,,,,,,,,,,,,,,,,,,,,,,,,,,,,,Eternis-Kolkata,,,,,,,,,https://www.magicbricks.com/eternis-jessore-road-kolkata-pdpid-4d4235303932323936
132,Dream Apartments,Welcome to Dream Apartments,,,,,,,,,,,,Gated Community,Kolkata,Kolkata,,,,Kolkata,,700136,,"22.6224,88.44037",,70,,,,,,,,,,,,,,,,,,,,,,,,,,,,,,,Dream-Apartments-Kolkata,,,,,,,,,https://www.magicbricks.com/dream-apartments-rajarhat-kolkata-pdpid-4d4235303030383534
133,South City,Welcome to South City,,,,,,,,,,,,Gated Community,Kolkata,Kolkata,,,,"Prince Anwar Shah Road, Kolkata, West bengal",,700045,,"22.502176,88.356476",,1700,,,,,,,,,,,,,,,,,,,,,,,,,,,,,,,South-City-Kolkata,,,,,,,,,https://www.magicbricks.com/south-city-prince-anwar-shah-road-kolkata-pdpid-4d4235303232343637
134,Elita Garden Vista,Welcome to Elita Garden Vista,,,,,,,,,,,,Gated Community,Kolkata,Kolkata,,,,"New town, Kolkata",,700156,,"22.591331,88.48214",,726,,,,,,,,,,,,,,,,,,,,,,,,,,,,,,,Elita-Garden-Vista-Kolkata,,,,,,,,,https://www.magicbricks.com/elita-garden-vista-new-town-kolkata-pdpid-4d4235303030373934
135,Eden Tolly Signature Plus,Welcome to Eden Tolly Signature Plus,,,,,,,,,,,,Gated Community,Kolkata,Kolkata,,,,"344, Mahatma Gandhi road, Tollygaunge, Kolkata -700041",,700033,,"22.49783,88.34833",,68,,,,,,,,,,,,,,,,,,,,,,,,,,,,,,,Eden-Tolly-Signature-Plus-Kolkata,,,,,,,,,https://www.magicbricks.com/eden-tolly-signature-plus-tollygunge-kolkata-pdpid-4d4235303031303133
136,Sunrise Point,Welcome to Sunrise Point,,,,,,,,,,,,Gated Community,Kolkata,Kolkata,,,,"New Town Action Area 2C,Near Akankha More,Kolkata-700157",,700136,,"22.622158,88.46765",,418,,,,,,,,,,,,,,,,,,,,,,,,,,,,,,,Sunrise-Point-Kolkata,,,,,,,,,https://www.magicbricks.com/sunrise-point-rajarhat-kolkata-pdpid-4d4235303137343930
137,Nataraj,Welcome to Nataraj,,,,,,,,,,,,Gated Community,Kolkata,Kolkata,,,,"1/2 Lords Sinha Road, Kolkata-700071",,700071,,"22.545073,88.3488",,52,,,,,,,,,,,,,,,,,,,,,,,,,,,,,,,Nataraj-Kolkata,,,,,,,,,https://www.magicbricks.com/nataraj-lord-sinha-road-kolkata-pdpid-4d4235303830313836
138,DLF New Town Heights,Welcome to DLF New Town Heights,,,,,,,,,,,,Gated Community,Kolkata,Kolkata,,,,"Rajarhat, new town, opposite side of sulhibristi, Kolkata -700135",,700136,,"22.565899,88.514725",,874,,,,,,,,,,,,,,,,,,,,,,,,,,,,,,,DLF-New-Town-Heights-Kolkata,,,,,,,,,https://www.magicbricks.com/dlf-new-town-heights-rajarhat-kolkata-pdpid-4d4235303334313631
139,Utalika,Welcome to Utalika,,,,,,,,,,,,Gated Community,Kolkata,Kolkata,,,,"Mukundapur, Kolkata",,700099,,"22.493345,88.41142",,554,,,,,,,,,,,,,,,,,,,,,,,,,,,,,,,Utalika-Kolkata,,,,,,,,,https://www.magicbricks.com/utalika-mukundapur-kolkata-pdpid-4d4235303932333937
140,Ayantika Co Operative Housing Society,Welcome to Ayantika Co Operative Housing Society,,,,,,,,,,,,Gated Community,Kolkata,Kolkata,,,,"New town, opposite of eco park, action aria 1, Kolkata -700157",,700156,,"22.594955,88.473236",,56,,,,,,,,,,,,,,,,,,,,,,,,,,,,,,,Ayantika-Co-Operative-Housing-Society-Kolkata,,,,,,,,,https://www.magicbricks.com/ayantika-co-operative-housing-society-new-town-kolkata-pdpid-4d4235303834373931
141,Modello Highs,Welcome to Modello Highs,,,,,,,,,,,,Gated Community,Kolkata,Kolkata,,,,"110, kumarkhali narndrapur, embypass extension, kolkata-700103",,700001,,"22.452951,88.394485",,171,,,,,,,,,,,,,,,,,,,,,,,,,,,,,,,Modello-Highs-Kolkata,,,,,,,,,https://www.magicbricks.com/modello-highs-e-m-bypass-kolkata-pdpid-4d4235303335383038
142,Urban Lotus,Welcome to Urban Lotus,,,,,,,,,,,,Gated Community,Kolkata,Kolkata,,,,"1185,MADHURDHA, KALIKAPUR, KOLKATA-700107",,700107,,"22.501692,88.40655",,7,,,,,,,,,,,,,,,,,,,,,,,,,,,,,,,Urban-Lotus-Kolkata,,,,,,,,,https://www.magicbricks.com/urban-lotus-madurdaha-kolkata-pdpid-4d4235303332363334
143,Club Town Gardens,Welcome to Club Town Gardens,,,,,,,,,,,,Gated Community,Kolkata,Kolkata,,,,"1/A, Dakshineswar road, M.M Feder road, Roth tola more, Kolkata",,700002,,"22.665468,88.372116",,483,,,,,,,,,,,,,,,,,,,,,,,,,,,,,,,Club-Town-Gardens-Kolkata,,,,,,,,,https://www.magicbricks.com/club-town-gardens-bt-road-kolkata-pdpid-4d4235303235333738
144,Sunny Fort,Welcome to Sunny Fort,,,,,,,,,,,,Gated Community,Kolkata,Kolkata,,,,Newtown Action area 2 Kolkata 135,,700156,,"22.58289,88.455536",,274,,,,,,,,,,,,,,,,,,,,,,,,,,,,,,,Sunny-Fort-Kolkata,,,,,,,,,https://www.magicbricks.com/sunny-fort-new-town-kolkata-pdpid-4d4235303031363334
145,Ambey Green,Welcome to Ambey Green,,,,,,,,,,,,Gated Community,Kolkata,Kolkata,,,,"New Town, Kolkata",,700156,,"22.588993,88.47385",,36,,,,,,,,,,,,,,,,,,,,,,,,,,,,,,,Ambey-Green-Kolkata,,,,,,,,,https://www.magicbricks.com/ambey-green-new-town-kolkata-pdpid-4d4235313137333531
146,Ujjwala Complex,Welcome to Ujjwala Complex,,,,,,,,,,,,Gated Community,Kolkata,Kolkata,,,,"Rajarhat Newtown, Beside CC 2, Kolkata-700157",,700156,,"22.58289,88.455536",,235,,,,,,,,,,,,,,,,,,,,,,,,,,,,,,,Ujjwala-Complex-Kolkata,,,,,,,,,https://www.magicbricks.com/ujjwala-complex-new-town-kolkata-pdpid-4d4235303739353635
147,Ruchira Residency,Welcome to Ruchira Residency,,,,,,,,,,,,Gated Community,Kolkata,Kolkata,,,,"369,Kalitala Road, North Purbachal,Haltu,Kolkata-700078",,700001,,"22.506742,88.39996",,80,,,,,,,,,,,,,,,,,,,,,,,,,,,,,,,Ruchira-Residency-Kolkata,,,,,,,,,https://www.magicbricks.com/ruchira-residency-e-m-bypass-kolkata-pdpid-4d4235303335393739
148,Mani Kala,Welcome to Mani Kala,,,,,,,,,,,,Gated Community,Kolkata,Kolkata,,,,"Maniktala road, opposite of Bengal Chemical",,700054,,"22.57835,88.39385",,112,,,,,,,,,,,,,,,,,,,,,,,,,,,,,,,Mani-Kala-Kolkata,,,,,,,,,https://www.magicbricks.com/mani-kala-kankurgachi-kolkata-pdpid-4d4235303234393639
149,PS Ixora,Welcome to PS Ixora,,,,,,,,,,,,Gated Community,Kolkata,Kolkata,,,,Action area 2 Newtown Kolkata,,700136,,"22.589607,88.45635",,184,,,,,,,,,,,,,,,,,,,,,,,,,,,,,,,PS-Ixora-Kolkata,,,,,,,,,https://www.magicbricks.com/ps-ixora-rajarhat-kolkata-pdpid-4d4235303334333632
150,BCT Sonar Sansar,Welcome to BCT Sonar Sansar,,,,,,,,,,,,Gated Community,Kolkata,Kolkata,,,,"Sonarpur, Kolkata.",,700150,,"22.436487,88.423195",,161,,,,,,,,,,,,,,,,,,,,,,,,,,,,,,,BCT-Sonar-Sansar-Kolkata,,,,,,,,,https://www.magicbricks.com/bct-sonar-sansar-sonarpur-kolkata-pdpid-4d4235303233333832
151,Merlin Sapphire,Welcome to Merlin Sapphire,,,,,,,,,,,,Gated Community,Kolkata,Kolkata,,,,"147, Upen Banerjee Road, Parnasree , Kolkata-700060",,700034,,"22.511581,88.301735",,90,,,,,,,,,,,,,,,,,,,,,,,,,,,,,,,Merlin-Sapphire-Kolkata,,,,,,,,,https://www.magicbricks.com/merlin-sapphire-behala-kolkata-pdpid-4d4235303336353238
152,DEESHARI COMFORT,Welcome to DEESHARI COMFORT,,,,,,,,,,,,Gated Community,Kolkata,Kolkata,,,,Kolkata,,700001,,"22.47249,88.39943",,0,,,,,,,,,,,,,,,,,,,,,,,,,,,,,,,DEESHARI-COMFORT-Kolkata,,,,,,,,,https://www.magicbricks.com/deeshari-comfort-garia-kolkata-pdpid-4d4235303234373535
153,Magnolia Prestige,Welcome to Magnolia Prestige,,,,,,,,,,,,Gated Community,Kolkata,Kolkata,,,,"Rajarhat bishnapur, near 91c bus stand, kolkatav-700135",,700136,,"22.631645,88.44712",,200,,,,,,,,,,,,,,,,,,,,,,,,,,,,,,,Magnolia-Prestige-Kolkata,,,,,,,,,https://www.magicbricks.com/magnolia-prestige-rajarhat-kolkata-pdpid-4d4235303230373632
154,Nandi Enclave,Welcome to Nandi Enclave,,,,,,,,,,,,Gated Community,Kolkata,Kolkata,,,,"Nandi Enclave, near Derozio Memorial College, Beside: Hundai Service Center, Rajarhat, Kolkata",,700136,,"22.6224,88.44037",,8,,,,,,,,,,,,,,,,,,,,,,,,,,,,,,,Nandi-Enclave-Kolkata,,,,,,,,,https://www.magicbricks.com/nandi-enclave-rajarhat-kolkata-pdpid-4d4235313930363235
155,Kendriya Vihar Phase 2,Welcome to Kendriya Vihar Phase 2,,,,,,,,,,,,Gated Community,Kolkata,Kolkata,,,,"Brlghoria express way, close to durganadar bridge Kolkata",,700077,,"22.654434,88.424194",,582,,,,,,,,,,,,,,,,,,,,,,,,,,,,,,,Kendriya-Vihar-Phase-2-Kolkata,,,,,,,,,https://www.magicbricks.com/kendriya-vihar-phase-2-belgharia-expressway-kolkata-pdpid-4d4235303738383131
156,Calcutta Riverside,Welcome to Calcutta Riverside,,,,,,,,,,,,Gated Community,Kolkata,Kolkata,,,,"Maheshtala, Kolkata.",,700137,,"22.512978,88.21631",,0,,,,,,,,,,,,,,,,,,,,,,,,,,,,,,,Calcutta-Riverside-Kolkata,,,,,,,,,https://www.magicbricks.com/calcutta-riverside-maheshtala-kolkata-pdpid-4d4235303235313933
157,Manikaran,Welcome to Manikaran,,,,,,,,,,,,Gated Community,Kolkata,Kolkata,,,,"39, Embypass road, kolkata -700055",,700001,,"22.56324,88.40737",,380,,,,,,,,,,,,,,,,,,,,,,,,,,,,,,,Manikaran-Kolkata,,,,,,,,,https://www.magicbricks.com/manikaran-e-m-bypass-kolkata-pdpid-4d4235303235313534
158,Greenfield Ambition,Welcome to Greenfield Ambition,,,,,,,,,,,,Gated Community,Kolkata,Kolkata,,,,"Rajarhat,near City Centre 2, Rajarhat New Town Express Way, Rajarhat New Town, Kolkata-700059",,700156,,"22.58289,88.455536",,344,,,,,,,,,,,,,,,,,,,,,,,,,,,,,,,Greenfield-Ambition-Kolkata,,,,,,,,,https://www.magicbricks.com/greenfield-ambition-new-town-kolkata-pdpid-4d4235303234383330
159,Hiland Greens,Welcome to Hiland Greens,,,,,,,,,,,,Gated Community,Kolkata,Kolkata,,,,"Maheshtala, Kolkata South",,700137,,"22.50704,88.25664",,5344,,,,,,,,,,,,,,,,,,,,,,,,,,,,,,,Hiland-Greens-Kolkata,,,,,,,,,https://www.magicbricks.com/hiland-greens-maheshtala-kolkata-pdpid-4d4235303238383035
160,Sisirkunja,Welcome to Sisirkunja,,,,,,,,,,,,Gated Community,Kolkata,Kolkata,,,,"Madhyamgram,Jessore road,Sisirkunja bus Stop,Kolkata-700124",,700129,,"22.57768,88.409676",,816,,,,,,,,,,,,,,,,,,,,,,,,,,,,,,,Sisirkunja-Kolkata,,,,,,,,,https://www.magicbricks.com/sisirkunja-madhyam-gram-kolkata-pdpid-4d4235303430313039