administrator,editor,author,contributor,subscriber,customer,shop_manager,captain,super-captain,brand-acquisition,revisor,locality-acquisition,captain-acqusition
Administrator,Editor,Author,Contributor,Subscriber,Customer,Shop manager,captain,Super Captain,Brand Acquisition Team,Revisor,Locality Acquisition Team,Captain Acquisition Team
switch_themes,delete_others_pages,delete_posts,edit_posts,read,read,assign_product_terms,edit_dashboard,assign_product_terms,create_sites,read,create_posts,create_users
edit_themes,delete_others_posts,delete_published_posts,read,level_0,,assign_shop_coupon_terms,read,delete_posts,level_0,read_private_posts,edit_others_posts,delete_users
activate_plugins,delete_pages,edit_posts,level_1,,,assign_shop_order_terms,,edit_dashboard,manage_network,read_private_pages,edit_posts,edit_dashboard
edit_plugins,delete_posts,edit_published_posts,level_0,,,delete_others_products,,edit_posts,manage_network_options,edit_posts,edit_private_posts,edit_users
edit_users,delete_private_pages,level_0,delete_posts,,,delete_others_shop_coupons,,edit_product,manage_sites,delete_posts,edit_published_posts,level_0
edit_files,delete_private_posts,level_1,,,,delete_others_shop_orders,,edit_product_terms,read,edit_others_posts,level_0,list_users
manage_options,delete_published_pages,level_2,,,,delete_private_products,,edit_products,,edit_pages,manage_categories,manage_network
moderate_comments,delete_published_posts,publish_posts,,,,delete_private_shop_coupons,,publish_posts,,delete_pages,publish_posts,manage_network_users
manage_categories,edit_others_pages,read,,,,delete_private_shop_orders,,read,,edit_others_pages,read,promote_users
manage_links,edit_others_posts,tablepress_access_about_screen,,,,delete_product,,,,level_3,read_private_posts,read
upload_files,edit_pages,tablepress_access_options_screen,,,,delete_product_terms,,,,level_2,upload_files,remove_users
import,edit_posts,tablepress_add_tables,,,,delete_products,,,,level_1,,upgrade_network
unfiltered_html,edit_private_pages,tablepress_copy_tables,,,,delete_published_products,,,,level_0,,user_meta_admin
edit_posts,edit_private_posts,tablepress_delete_tables,,,,delete_published_shop_coupons,,,,delete_localitys,,
edit_others_posts,edit_published_pages,tablepress_edit_tables,,,,delete_published_shop_orders,,,,,,
edit_published_posts,edit_published_posts,tablepress_export_tables,,,,delete_shop_coupon,,,,,,
publish_posts,level_0,tablepress_import_tables,,,,delete_shop_coupon_terms,,,,,,
edit_pages,level_1,tablepress_list_tables,,,,delete_shop_coupons,,,,,,
read,level_2,upload_files,,,,delete_shop_order,,,,,,
level_10,level_3,view_admin_dashboard,,,,delete_shop_order_terms,,,,,,
level_9,level_4,,,,,delete_shop_orders,,,,,,
level_8,level_5,,,,,edit_dashboard,,,,,,
level_7,level_6,,,,,edit_others_products,,,,,,
level_6,level_7,,,,,edit_others_shop_coupons,,,,,,
level_5,mailpoet_access_plugin_admin,,,,,edit_others_shop_orders,,,,,,
level_4,mailpoet_manage_emails,,,,,edit_private_products,,,,,,
level_3,manage_categories,,,,,edit_private_shop_coupons,,,,,,
level_2,manage_links,,,,,edit_private_shop_orders,,,,,,
level_1,moderate_comments,,,,,edit_product,,,,,,
level_0,publish_pages,,,,,edit_product_terms,,,,,,
edit_others_pages,publish_posts,,,,,edit_products,,,,,,
edit_published_pages,read,,,,,edit_published_products,,,,,,
publish_pages,read_private_pages,,,,,edit_published_shop_coupons,,,,,,
delete_pages,read_private_posts,,,,,edit_published_shop_orders,,,,,,
delete_others_pages,tablepress_access_about_screen,,,,,edit_shop_coupon,,,,,,
delete_published_pages,tablepress_access_options_screen,,,,,edit_shop_coupon_terms,,,,,,
delete_posts,tablepress_add_tables,,,,,edit_shop_coupons,,,,,,
delete_others_posts,tablepress_copy_tables,,,,,edit_shop_order,,,,,,
delete_published_posts,tablepress_delete_tables,,,,,edit_shop_order_terms,,,,,,
delete_private_posts,tablepress_edit_tables,,,,,edit_shop_orders,,,,,,
edit_private_posts,tablepress_export_tables,,,,,export,,,,,,
read_private_posts,tablepress_import_tables,,,,,import,,,,,,
delete_private_pages,tablepress_list_tables,,,,,level_0,,,,,,
edit_private_pages,unfiltered_html,,,,,level_1,,,,,,
read_private_pages,upload_files,,,,,level_2,,,,,,
delete_users,view_admin_dashboard,,,,,level_3,,,,,,
create_users,,,,,,level_4,,,,,,
unfiltered_upload,,,,,,level_5,,,,,,
edit_dashboard,,,,,,level_6,,,,,,
update_plugins,,,,,,level_7,,,,,,
delete_plugins,,,,,,level_8,,,,,,
install_plugins,,,,,,level_9,,,,,,
update_themes,,,,,,manage_product_terms,,,,,,
install_themes,,,,,,manage_shop_coupon_terms,,,,,,
update_core,,,,,,manage_shop_order_terms,,,,,,
list_users,,,,,,manage_woocommerce,,,,,,
remove_users,,,,,,publish_products,,,,,,
promote_users,,,,,,publish_shop_coupons,,,,,,
edit_theme_options,,,,,,publish_shop_orders,,,,,,
delete_themes,,,,,,read_private_products,,,,,,
export,,,,,,read_private_shop_coupons,,,,,,
manage_woocommerce,,,,,,read_private_shop_orders,,,,,,
view_woocommerce_reports,,,,,,read_product,,,,,,
edit_product,,,,,,read_shop_coupon,,,,,,
read_product,,,,,,read_shop_order,,,,,,
delete_product,,,,,,upload_files,,,,,,
edit_products,,,,,,view_admin_dashboard,,,,,,
edit_others_products,,,,,,view_woocommerce_reports,,,,,,
publish_products,,,,,,,,,,,,
read_private_products,,,,,,,,,,,,
delete_products,,,,,,,,,,,,
delete_private_products,,,,,,,,,,,,
delete_published_products,,,,,,,,,,,,
delete_others_products,,,,,,,,,,,,
edit_private_products,,,,,,,,,,,,
edit_published_products,,,,,,,,,,,,
manage_product_terms,,,,,,,,,,,,
edit_product_terms,,,,,,,,,,,,
delete_product_terms,,,,,,,,,,,,
assign_product_terms,,,,,,,,,,,,
edit_shop_order,,,,,,,,,,,,
read_shop_order,,,,,,,,,,,,
delete_shop_order,,,,,,,,,,,,
edit_shop_orders,,,,,,,,,,,,
edit_others_shop_orders,,,,,,,,,,,,
publish_shop_orders,,,,,,,,,,,,
read_private_shop_orders,,,,,,,,,,,,
delete_shop_orders,,,,,,,,,,,,
delete_private_shop_orders,,,,,,,,,,,,
delete_published_shop_orders,,,,,,,,,,,,
delete_others_shop_orders,,,,,,,,,,,,
edit_private_shop_orders,,,,,,,,,,,,
edit_published_shop_orders,,,,,,,,,,,,
manage_shop_order_terms,,,,,,,,,,,,
edit_shop_order_terms,,,,,,,,,,,,
delete_shop_order_terms,,,,,,,,,,,,
assign_shop_order_terms,,,,,,,,,,,,
edit_shop_coupon,,,,,,,,,,,,
read_shop_coupon,,,,,,,,,,,,
delete_shop_coupon,,,,,,,,,,,,
edit_shop_coupons,,,,,,,,,,,,
edit_others_shop_coupons,,,,,,,,,,,,
publish_shop_coupons,,,,,,,,,,,,
read_private_shop_coupons,,,,,,,,,,,,
delete_shop_coupons,,,,,,,,,,,,
delete_private_shop_coupons,,,,,,,,,,,,
delete_published_shop_coupons,,,,,,,,,,,,
delete_others_shop_coupons,,,,,,,,,,,,
edit_private_shop_coupons,,,,,,,,,,,,
edit_published_shop_coupons,,,,,,,,,,,,
manage_shop_coupon_terms,,,,,,,,,,,,
edit_shop_coupon_terms,,,,,,,,,,,,
delete_shop_coupon_terms,,,,,,,,,,,,
assign_shop_coupon_terms,,,,,,,,,,,,
mailpoet_access_plugin_admin,,,,,,,,,,,,
mailpoet_manage_settings,,,,,,,,,,,,
mailpoet_manage_features,,,,,,,,,,,,
mailpoet_manage_emails,,,,,,,,,,,,
mailpoet_manage_subscribers,,,,,,,,,,,,
mailpoet_manage_forms,,,,,,,,,,,,
mailpoet_manage_segments,,,,,,,,,,,,
user_meta_admin,,,,,,,,,,,,
tablepress_edit_tables,,,,,,,,,,,,
tablepress_delete_tables,,,,,,,,,,,,
tablepress_list_tables,,,,,,,,,,,,
tablepress_add_tables,,,,,,,,,,,,
tablepress_copy_tables,,,,,,,,,,,,
tablepress_import_tables,,,,,,,,,,,,
tablepress_export_tables,,,,,,,,,,,,
tablepress_access_options_screen,,,,,,,,,,,,
tablepress_access_about_screen,,,,,,,,,,,,
tablepress_edit_options,,,,,,,,,,,,
create_posts,,,,,,,,,,,,
create_sites,,,,,,,,,,,,
manage_network,,,,,,,,,,,,
manage_network_options,,,,,,,,,,,,
manage_sites,,,,,,,,,,,,
manage_network_users,,,,,,,,,,,,
wf2fa_activate_2fa_self,,,,,,,,,,,,
view_admin_dashboard,,,,,,,,,,,,
