ID,Title,Content,Excerpt,Date,Post Type,Permalink,URL,Title,Caption,Description,Alt Text,Featured,URL,Locality  Category,Geography,geo_locality,_last_editor_used_jetpack,_wp_old_date,locality_address_syntax,locality_address,_locality_address,locality_pincode,_locality_pincode,locality_lat_long,_locality_lat_long,locality_number_of_units,_locality_number_of_units,locality_banner_pic,_locality_banner_pic,locality_square_pic,_locality_square_pic,locality_marquee,_locality_marquee,_yoast_wpseo_primary_locality_category,_yoast_wpseo_metadesc,_yoast_wpseo_content_score,_yoast_wpseo_estimated-reading-time-minutes,locality_description,_locality_description,_rvy_has_revisions,locality_payment_type_mycred_balance,_locality_payment_type_mycred_balance,locality_payment_type_prepaid_razorpay,_locality_payment_type_prepaid_razorpay,locality_payment_type_cod,_locality_payment_type_cod,locality_payment_type,_locality_payment_type,_wp_old_slug,_rvy_base_post_id,Status,Author ID,Author Username,Author Email,Author First Name,Author Last Name,Slug,Format,Template,Parent,Parent Slug,Order,Comment Status,Ping Status,Post Modified Date,Reference url
1,Unitech Habitat,Welcome to Unitech Habitat,,,,,,,,,,,,Gated Community,Greater Noida,Greater Noida,,,,"Plot 17, Ahinsa Khand 1, Indirapuram, Ghaziabad, Uttar Pradesh",,201310,,"28.484293,77.54445",,902,,,,,,,,,,,,,,,,,,,,,,,,,,,,,,,,,,,,,,,,https://www.magicbricks.com/unitech-habitat-pi-2-greater-noida-pdpid-4d4235303834333530
2,ABA Corp Cherry County,Welcome to ABA Corp Cherry County,,,,,,,,,,,,Gated Community,Greater Noida,Greater Noida,,,,"Khasra No. 918 , 941 , 944 , Raj Nagar Extention , Ghaziabad - 201017",,201306,,"28.601898,77.447426",,1750,,,,,,,,,,,,,,,,,,,,,,,,,,,,,,,,,,,,,,,,https://www.magicbricks.com/aba-corp-cherry-county-greater-noida-west-greater-noida-pdpid-4d4235303733333631
3,Jaypee Star Court,Welcome to Jaypee Star Court,,,,,,,,,,,,Gated Community,Greater Noida,Greater Noida,,,,"Pandav Nagar, Ghaziabad, Uttar Pradesh",,201306,,"28.472502,77.52226",,495,,,,,,,,,,,,,,,,,,,,,,,,,,,,,,,,,,,,,,,,https://www.magicbricks.com/jaypee-star-court-surajpur-greater-noida-pdpid-4d4235303130313434
4,Gaur City,Welcome to Gaur City,,,,,,,,,,,,Gated Community,Greater Noida,Greater Noida,,,,"Khasra No. 965, 1116 ,1123, Raj Nagar Extension, Ghaziabad -201017",,201306,,"28.605959,77.44451",,2076,,,,,,,,,,,,,,,,,,,,,,,,,,,,,,,,,,,,,,,,https://www.magicbricks.com/gaur-city-greater-noida-west-greater-noida-pdpid-4d4235303731303637
5,Jaypee Sea Court,Welcome to Jaypee Sea Court,,,,,,,,,,,,Gated Community,Greater Noida,Greater Noida,,,,"Plot No. 1125/1-3 National Highway 58, Raj Nagar Ext Rd, Ghaziabad, Uttar Pradesh",,201310,,"28.469269,77.51837",,0,,,,,,,,,,,,,,,,,,,,,,,,,,,,,,,,,,,,,,,,https://www.magicbricks.com/jaypee-sea-court-pari-chowk-greater-noida-pdpid-4d4235313234323635
6,Eldeco Green Medows,Welcome to Eldeco Green Medows,,,,,,,,,,,,Gated Community,Greater Noida,Greater Noida,,,,"Plot 10/1, Block A, Vaibhav Khand, Indirapuram, Ghaziabad, Uttar Pradesh",,201310,,"28.473734,77.54132",,376,,,,,,,,,,,,,,,,,,,,,,,,,,,,,,,,,,,,,,,,https://www.magicbricks.com/eldeco-green-medows-sector-pi-greater-noida-pdpid-4d4235303232353132
7,Stellar Jeevan,Welcome to Stellar Jeevan,,,,,,,,,,,,Gated Community,Greater Noida,Greater Noida,,,,"Ghaziabad, Uttar Pradesh",,201306,,"28.605959,77.44451",,2010,,,,,,,,,,,,,,,,,,,,,,,,,,,,,,,,,,,,,,,,https://www.magicbricks.com/stellar-jeevan-greater-noida-west-greater-noida-pdpid-4d4235303137323834
8,ATS Green Paradiso,Welcome to ATS Green Paradiso,,,,,,,,,,,,Gated Community,Greater Noida,Greater Noida,,,,"Ghaziabad, Uttar Pradesh",,201310,,"28.43295,77.51784",,1031,,,,,,,,,,,,,,,,,,,,,,,,,,,,,,,,,,,,,,,,https://www.magicbricks.com/ats-green-paradiso-chi-4-greater-noida-pdpid-4d4235303239343135
9,Supertech Czar Suites,Welcome to Supertech Czar Suites,,,,,,,,,,,,Gated Community,Greater Noida,Greater Noida,,,,"Sector-5 Vasundhara, Ghaziabad.",,201310,,"28.458586,77.56091",,850,,,,,,,,,,,,,,,,,,,,,,,,,,,,,,,,,,,,,,,,https://www.magicbricks.com/supertech-czar-suites-omicron-1-greater-noida-pdpid-4d4235303131363838
10,Gaur Saundaryam Phase 2,Welcome to Gaur Saundaryam Phase 2,,,,,,,,,,,,Gated Community,Greater Noida,Greater Noida,,,,"VVIP Addresses Cricket Ground, P block, Raj Nagar Extension,",,201306,,"28.60467,77.4349",,0,,,,,,,,,,,,,,,,,,,,,,,,,,,,,,,,,,,,,,,,https://www.magicbricks.com/gaur-saundaryam-phase-2-greater-noida-west-greater-noida-pdpid-4d4235313239383335
11,Paramount Golf Foreste,Welcome to Paramount Golf Foreste,,,,,,,,,,,,Gated Community,Greater Noida,Greater Noida,,,,"Gateway Towers, Sector 4, Vaishali, Ghaziabad, Uttar Pradesh",,201306,,"28.507687,77.53231",,0,,,,,,,,,,,,,,,,,,,,,,,,,,,,,,,,,,,,,,,,https://www.magicbricks.com/paramount-golf-foreste-zeta-greater-noida-pdpid-4d4235313638393439
12,Gaur Saundaryam,Welcome to Gaur Saundaryam,,,,,,,,,,,,Gated Community,Greater Noida,Greater Noida,,,,"Kinauni Village, Indirapuram, Ghaziabad, Uttar Pradesh",,201306,,"28.604692,77.4349",,2068,,,,,,,,,,,,,,,,,,,,,,,,,,,,,,,,,,,,,,,,https://www.magicbricks.com/gaur-saundaryam-greater-noida-west-greater-noida-pdpid-4d4235303232323135
13,Jaypee Greens Crescent Court,Welcome to Jaypee Greens Crescent Court,,,,,,,,,,,,Gated Community,Greater Noida,Greater Noida,,,,"Khasra No. 2047 & 2054 , Tilla Mode , Bhopura , Ghaziabad -201102",,201310,,"28.462587,77.52173",,250,,,,,,,,,,,,,,,,,,,,,,,,,,,,,,,,,,,,,,,,https://www.magicbricks.com/jaypee-greens-crescent-court-pari-chowk-greater-noida-pdpid-4d4235303130313436
14,AVJ Heights,Welcome to AVJ Heights,,,,,,,,,,,,Gated Community,Greater Noida,Greater Noida,,,,"GH-06, NH 24, Crossings Republik, Ghaziabad, Uttar Pradesh",,201310,,"28.498756,77.51968",,700,,,,,,,,,,,,,,,,,,,,,,,,,,,,,,,,,,,,,,,,https://www.magicbricks.com/avj-heights-zeta-1-greater-noida-pdpid-4d4235303239323234
15,Purvanchal Royal City,Welcome to Purvanchal Royal City,,,,,,,,,,,,Gated Community,Greater Noida,Greater Noida,,,,"Raj Nagar Extension, Ghaziabad, Uttar Pradesh",,201310,,"28.430195,77.506134",,1372,,,,,,,,,,,,,,,,,,,,,,,,,,,,,,,,,,,,,,,,https://www.magicbricks.com/purvanchal-royal-city-chi-5-greater-noida-pdpid-4d4235303238353639
16,Himalaya Pride,Welcome to Himalaya Pride,,,,,,,,,,,,Gated Community,Greater Noida,Greater Noida,,,,"Plot No. GH - 09 , Vaibhav Khand , Indirapuram ,Near Shipra Mall , Ghaziabad -201014",,201306,,"28.605959,77.44451",,762,,,,,,,,,,,,,,,,,,,,,,,,,,,,,,,,,,,,,,,,https://www.magicbricks.com/himalaya-pride-greater-noida-west-greater-noida-pdpid-4d4235303030383937
17,Eros Sampoornam I,Welcome to Eros Sampoornam I,,,,,,,,,,,,Gated Community,Greater Noida,Greater Noida,,,,"Pandav Nagar, Ghaziabad, Uttar Pradesh",,201306,,"28.59067,77.45786",,258,,,,,,,,,,,,,,,,,,,,,,,,,,,,,,,,,,,,,,,,https://www.magicbricks.com/eros-sampoornam-i-greater-noida-west-greater-noida-pdpid-4d4235303232343131
18,Nirala Greenshire,Welcome to Nirala Greenshire,,,,,,,,,,,,Gated Community,Greater Noida,Greater Noida,,,,"Vaishali Extension, Sector 9, Vaishali, Ghaziabad, Uttar Pradesh",,201306,,"28.605959,77.44451",,1948,,,,,,,,,,,,,,,,,,,,,,,,,,,,,,,,,,,,,,,,https://www.magicbricks.com/nirala-greenshire-greater-noida-west-greater-noida-pdpid-4d4235303430393931
19,Mahagun Mywoods Phase 2,Welcome to Mahagun Mywoods Phase 2,,,,,,,,,,,,Gated Community,Greater Noida,Greater Noida,,,,"Amrapali, Kala Patthar, Indirapuram, Ghaziabad, Uttar Pradesh",,201310,,"28.534607,77.409035",,600,,,,,,,,,,,,,,,,,,,,,,,,,,,,,,,,,,,,,,,,https://www.magicbricks.com/mahagun-mywoods-phase-2-c-16-greater-noida-pdpid-4d4235313730353639
20,SKA Greenarch,Welcome to SKA Greenarch,,,,,,,,,,,,Gated Community,Greater Noida,Greater Noida,,,,"1139/1, MIG House Sector 3, Vasundhara, Indirapuram, Ghaziabad, Uttar Pradesh",,201306,,"28.605959,77.44451",,983,,,,,,,,,,,,,,,,,,,,,,,,,,,,,,,,,,,,,,,,https://www.magicbricks.com/ska-greenarch-greater-noida-west-greater-noida-pdpid-4d4235303732313039
21,Supertech Eco Village,Welcome to Supertech Eco Village,,,,,,,,,,,,Gated Community,Greater Noida,Greater Noida,,,,"108 Katori Mill Loni Road Beside zonal Office Saviour Park, Mohan Nagar, Ghaziabad, Uttar Pradesh",,201306,,"28.605959,77.44451",,2200,,,,,,,,,,,,,,,,,,,,,,,,,,,,,,,,,,,,,,,,https://www.magicbricks.com/supertech-eco-village-greater-noida-west-greater-noida-pdpid-4d4235303338383837
22,Jaypee Greens Moon Court,Welcome to Jaypee Greens Moon Court,,,,,,,,,,,,Gated Community,Greater Noida,Greater Noida,,,,"Prakash Vir Shastri Rd, Raj Nagar Extension, Ghaziabad, Uttar Pradesh",,201310,,"28.535894,77.39201",,275,,,,,,,,,,,,,,,,,,,,,,,,,,,,,,,,,,,,,,,,https://www.magicbricks.com/jaypee-greens-moon-court-pari-chowk-greater-noida-pdpid-4d4235303130313237
23,Eldeco Mystic Greens,Welcome to Eldeco Mystic Greens,,,,,,,,,,,,Gated Community,Greater Noida,Greater Noida,,,,"Punjab National Bank Rd, Block B, Sector 3, Vaishali, Ghaziabad, Uttar Pradesh",,201310,,"28.459162,77.56282",,380,,,,,,,,,,,,,,,,,,,,,,,,,,,,,,,,,,,,,,,,https://www.magicbricks.com/eldeco-mystic-greens-omicron-greater-noida-pdpid-4d4235303232353136
24,Eros Sampoornam Phase II,Welcome to Eros Sampoornam Phase II,,,,,,,,,,,,Gated Community,Greater Noida,Greater Noida,,,,"Windsor and Nova Society, Ashoka Road, Shipra Sun city, Near Post Office, Ghaziabad, Pin-201014",,201301,,"28.58143,77.45282",,1500,,,,,,,,,,,,,,,,,,,,,,,,,,,,,,,,,,,,,,,,https://www.magicbricks.com/eros-sampoornam-phase-ii-sector-2-greater-noida-pdpid-4d4235313732373433
25,Gaur Atulyam,Welcome to Gaur Atulyam,,,,,,,,,,,,Gated Community,Greater Noida,Greater Noida,,,,"Biharipur Village, Crossings Republik, Ghaziabad, Uttar Pradesh",,201310,,"28.462563,77.562706",,1464,,,,,,,,,,,,,,,,,,,,,,,,,,,,,,,,,,,,,,,,https://www.magicbricks.com/gaur-atulyam-omicron-1-greater-noida-pdpid-4d4235303238383535
26,AWHO Gurjinder Vihar,Welcome to AWHO Gurjinder Vihar,,,,,,,,,,,,Gated Community,Greater Noida,Greater Noida,,,,"H-704, Society - Delhi99, Loni Bhopura Rd, Ghaziabad, Uttar Pradesh",,201310,,"28.2734,77.3106",,0,,,,,,,,,,,,,,,,,,,,,,,,,,,,,,,,,,,,,,,,https://www.magicbricks.com/awho-gurjinder-vihar-chi-2-greater-noida-pdpid-4d4235313130393535
27,Omaxe Palm Court,Welcome to Omaxe Palm Court,,,,,,,,,,,,Gated Community,Greater Noida,Greater Noida,,,,"Vaibhav Khand, Indirapuram, Ghaziabad, Uttar Pradesh",,201310,,"28.47827,77.56169",,0,,,,,,,,,,,,,,,,,,,,,,,,,,,,,,,,,,,,,,,,https://www.magicbricks.com/omaxe-palm-court-sector-mu-greater-noida-pdpid-4d4235323739303539
28,Stellar Icon,Welcome to Stellar Icon,,,,,,,,,,,,Gated Community,Greater Noida,Greater Noida,,,,"Khasra No. 1052 & 1059 , NH -58 , Raj Nagar Extension , Ghaziabad -201003",,201310,,"28.587189,77.31651",,252,,,,,,,,,,,,,,,,,,,,,,,,,,,,,,,,,,,,,,,,https://www.magicbricks.com/stellar-icon-chi-3-greater-noida-pdpid-4d4235303732343834
29,Express Park view I,Welcome to Express Park view I,,,,,,,,,,,,Gated Community,Greater Noida,Greater Noida,,,,"Indirapuram,Ghaziabad, Uttar Pradesh",,203201,,"28.433464,77.50601",,666,,,,,,,,,,,,,,,,,,,,,,,,,,,,,,,,,,,,,,,,https://www.magicbricks.com/express-park-view-i-yamuna-expressway-greater-noida-pdpid-4d4235303335353836
30,Parsvnath Panorama,Welcome to Parsvnath Panorama,,,,,,,,,,,,Gated Community,Greater Noida,Greater Noida,,,,"Abhay Khand 1, Krishna Colony, Abhay Khand, Indirapuram, Ghaziabad, Uttar Pradesh",,201310,,"28.45888,77.52271",,250,,,,,,,,,,,,,,,,,,,,,,,,,,,,,,,,,,,,,,,,https://www.magicbricks.com/parsvnath-panorama-swarnnagari-greater-noida-pdpid-4d4235303139373137
31,Migsun Ultimo,Welcome to Migsun Ultimo,,,,,,,,,,,,Gated Community,Greater Noida,Greater Noida,,,,"Sector 15, Vasundhara, Ghaziabad, Uttar Pradesh",,201310,,"28.477343,77.55293",,975,,,,,,,,,,,,,,,,,,,,,,,,,,,,,,,,,,,,,,,,https://www.magicbricks.com/migsun-ultimo-omicron-3-greater-noida-pdpid-4d4235303731333237
32,Paramount Emotions Phase 2,Welcome to Paramount Emotions Phase 2,,,,,,,,,,,,Gated Community,Greater Noida,Greater Noida,,,,"Rail Vihar, Niti Khand 3, Manoj Vihar, Indirapuram, Ghaziabad, Uttar Pradesh",,201306,,"28.56611,77.44061",,850,,,,,,,,,,,,,,,,,,,,,,,,,,,,,,,,,,,,,,,,https://www.magicbricks.com/paramount-emotions-phase-2-sector-1-greater-noida-pdpid-4d4235313639333035
33,Gaursons Gaur City 5th Avenue,Welcome to Gaursons Gaur City 5th Avenue,,,,,,,,,,,,Gated Community,Greater Noida,Greater Noida,,,,"Pocket D, Sector 17, Vasundhara, Ghaziabad, Uttar Pradesh",,201301,,"28.61424,77.42776",,1350,,,,,,,,,,,,,,,,,,,,,,,,,,,,,,,,,,,,,,,,https://www.magicbricks.com/gaursons-gaur-city-5th-avenue-sector-4-greater-noida-pdpid-4d4235323839313739
34,Supertech Up Country,Welcome to Supertech Up Country,,,,,,,,,,,,Gated Community,Greater Noida,Greater Noida,,,,"Block A, DLF Ankur Vihar, Ghaziabad, Delhi",,203201,,"28.432194,77.50804",,2000,,,,,,,,,,,,,,,,,,,,,,,,,,,,,,,,,,,,,,,,https://www.magicbricks.com/supertech-up-country-yamuna-expressway-greater-noida-pdpid-4d4235303137353434
35,Wegmans Signature Tower,Welcome to Wegmans Signature Tower,,,,,,,,,,,,Gated Community,Greater Noida,Greater Noida,,,,"A, 106, B Block Parsvnath Paradise, Mohan Nagar, Ghaziabad, Uttar Pradesh",,201306,,"28.4912,77.49063",,0,,,,,,,,,,,,,,,,,,,,,,,,,,,,,,,,,,,,,,,,https://www.magicbricks.com/wegmans-signature-tower-knowledge-park-3-greater-noida-pdpid-4d4235323738393439
36,Arihant Ambar,Welcome to Arihant Ambar,,,,,,,,,,,,Gated Community,Greater Noida,Greater Noida,,,,"National Highway 24, Avantika Extension, Mehrauli, Ghaziabad, Uttar Pradesh",,201306,,"28.605959,77.44451",,643,,,,,,,,,,,,,,,,,,,,,,,,,,,,,,,,,,,,,,,,https://www.magicbricks.com/arihant-ambar-greater-noida-west-greater-noida-pdpid-4d4235303730313337
37,Hawelia Valencia Homes,Welcome to Hawelia Valencia Homes,,,,,,,,,,,,Gated Community,Greater Noida,Greater Noida,,,,"Behind Angle Mall,, Antriksh Green Apt Rd, Bhuapur Village, Kaushambi, Ghaziabad, Uttar Pradesh",,201306,,"28.56611,77.44061",,870,,,,,,,,,,,,,,,,,,,,,,,,,,,,,,,,,,,,,,,,https://www.magicbricks.com/hawelia-valencia-homes-sector-1-greater-noida-pdpid-4d4235303231393134
38,Raksha Addela,Welcome to Raksha Addela,,,,,,,,,,,,Gated Community,Greater Noida,Greater Noida,,,,"Sai Enclave, Niti Khand, Ghaziabad, Utter Pradesh",,201306,,"28.621923,77.42102",,950,,,,,,,,,,,,,,,,,,,,,,,,,,,,,,,,,,,,,,,,https://www.magicbricks.com/raksha-addela-greater-noida-west-greater-noida-pdpid-4d4235303930383133
39,AWHO Township,Welcome to AWHO Township,,,,,,,,,,,,Gated Community,Greater Noida,Greater Noida,,,,"NH-91, Ghaziabad",,201310,,"28.447073,77.50737",,2822,,,,,,,,,,,,,,,,,,,,,,,,,,,,,,,,,,,,,,,,https://www.magicbricks.com/awho-township-pari-chowk-greater-noida-pdpid-4d4235303131333432
40,Ajnara Le Garden,Welcome to Ajnara Le Garden,,,,,,,,,,,,Gated Community,Greater Noida,Greater Noida,,,,"Middle Cir, Vaibhav Khand, Indirapuram, Ghaziabad, Uttar Pradesh",,201306,,"28.605959,77.44451",,1000,,,,,,,,,,,,,,,,,,,,,,,,,,,,,,,,,,,,,,,,https://www.magicbricks.com/ajnara-le-garden-greater-noida-west-greater-noida-pdpid-4d4235303430303331
41,Supertech Eco Village 3,Welcome to Supertech Eco Village 3,,,,,,,,,,,,Gated Community,Greater Noida,Greater Noida,,,,"Crossings Republik, Ghaziabad, Uttar Pradesh",,201305,,"28.616346,77.36222",,3248,,,,,,,,,,,,,,,,,,,,,,,,,,,,,,,,,,,,,,,,https://www.magicbricks.com/supertech-eco-village-3-noida-extension-greater-noida-pdpid-4d4235303137353338
42,Paramount Pine and Oak Studios,Welcome to Paramount Pine and Oak Studios,,,,,,,,,,,,Gated Community,Greater Noida,Greater Noida,,,,"Judges Enclave, Ahinsa Khand 2, Indirapuram, Ghaziabad, Uttar Pradesh",,201310,,"28.502897,77.526215",,0,,,,,,,,,,,,,,,,,,,,,,,,,,,,,,,,,,,,,,,,https://www.magicbricks.com/paramount-pine-and-oak-studios-zeta-1-greater-noida-pdpid-4d4235323934353435
43,Ajnara Homes Phase II,Welcome to Ajnara Homes Phase II,,,,,,,,,,,,Gated Community,Greater Noida,Greater Noida,,,,"Sector 4, Sector 4C, Vasundhara, Ghaziabad, Uttar Pradesh",,201306,,"28.608273,77.4464",,0,,,,,,,,,,,,,,,,,,,,,,,,,,,,,,,,,,,,,,,,https://www.magicbricks.com/ajnara-homes-phase-ii-greater-noida-west-greater-noida-pdpid-4d4235313239373931
44,Wegmans Trustone City,Welcome to Wegmans Trustone City,,,,,,,,,,,,Gated Community,Greater Noida,Greater Noida,,,,"GH-7, Biharipur Village, Crossings Republik, Ghaziabad, Uttar Pradesh",,201009,,"28.400923,77.51969",,0,,,,,,,,,,,,,,,,,,,,,,,,,,,,,,,,,,,,,,,,https://www.magicbricks.com/wegmans-trustone-city-tech-zone-greater-noida-pdpid-4d4235313639333637
45,Unitech Heights,Welcome to Unitech Heights,,,,,,,,,,,,Gated Community,Greater Noida,Greater Noida,,,,"Crossings Republik, Ghaziabad, Uttar Pradesh",,201310,,"28.441652,77.51856",,378,,,,,,,,,,,,,,,,,,,,,,,,,,,,,,,,,,,,,,,,https://www.magicbricks.com/unitech-heights-chi-3-greater-noida-pdpid-4d4235313030303035
46,Gaursons Gaur City 1st Avenue,Welcome to Gaursons Gaur City 1st Avenue,,,,,,,,,,,,Gated Community,Greater Noida,Greater Noida,,,,"Raj Nagar Extension, Ghaziabad, Uttar Pradesh .",,201301,,"28.61216,77.42552",,1500,,,,,,,,,,,,,,,,,,,,,,,,,,,,,,,,,,,,,,,,https://www.magicbricks.com/gaursons-gaur-city-1st-avenue-sector-4-greater-noida-pdpid-4d4235323839353137
47,Ska Green Mansion,Welcome to Ska Green Mansion,,,,,,,,,,,,Gated Community,Greater Noida,Greater Noida,,,,"Vaibhav Khand, Indirapuram, Ghaziabad, Uttar Pradesh",,201306,,"28.561653,77.484245",,230,,,,,,,,,,,,,,,,,,,,,,,,,,,,,,,,,,,,,,,,https://www.magicbricks.com/ska-green-mansion-greater-noida-west-greater-noida-pdpid-4d4235303733303930
48,Shivalik Homes,Welcome to Shivalik Homes,,,,,,,,,,,,Gated Community,Greater Noida,Greater Noida,,,,"Wave Springwood Enclave, Wave City, Ghaziabad, Utter Pradesh",,201306,,"28.510048,77.519424",,417,,,,,,,,,,,,,,,,,,,,,,,,,,,,,,,,,,,,,,,,https://www.magicbricks.com/shivalik-homes-surajpur-greater-noida-pdpid-4d4235303232393132
49,Oasis Venetia Heights,Welcome to Oasis Venetia Heights,,,,,,,,,,,,Gated Community,Greater Noida,Greater Noida,,,,"Plot No-299, Supertech Estate, Sector-9, Vaishali, Ghaziabad-201010",,201306,,"28.514513,77.52203",,510,,,,,,,,,,,,,,,,,,,,,,,,,,,,,,,,,,,,,,,,https://www.magicbricks.com/oasis-venetia-heights-greater-noida-west-greater-noida-pdpid-4d4235303431333638
50,Omaxe NRI City Township,Welcome to Omaxe NRI City Township,,,,,,,,,,,,Gated Community,Greater Noida,Greater Noida,,,,"Dundahera, Ghaziabad, Uttar Pradesh",,201310,,"28.460083,77.50837",,190,,,,,,,,,,,,,,,,,,,,,,,,,,,,,,,,,,,,,,,,https://www.magicbricks.com/omaxe-nri-city-township-pari-chowk-greater-noida-pdpid-4d4235303030353933
51,Panchsheel Greens Mart,Welcome to Panchsheel Greens Mart,,,,,,,,,,,,Gated Community,Greater Noida,Greater Noida,,,,"Vaibhav Khand, Indirapuram, Ghaziabad, Uttar Pradesh 201014",,201310,,"28.60995,77.44736",,0,,,,,,,,,,,,,,,,,,,,,,,,,,,,,,,,,,,,,,,,https://www.magicbricks.com/panchsheel-greens-mart-sector-16-greater-noida-pdpid-4d4235323739393035
52,Gaur Yamuna City,Welcome to Gaur Yamuna City,,,,,,,,,,,,Gated Community,Greater Noida,Greater Noida,,,,"Meadows Vista, Raj Nagar Extension, Near Reliable Institute Ghaziabad, Pin - 201017",,203201,,"28.432194,77.50804",,2500,,,,,,,,,,,,,,,,,,,,,,,,,,,,,,,,,,,,,,,,https://www.magicbricks.com/gaur-yamuna-city-yamuna-expressway-greater-noida-pdpid-4d4235303232323038
53,Ashiana Orchids,Welcome to Ashiana Orchids,,,,,,,,,,,,Gated Community,Greater Noida,Greater Noida,,,,"Vasundhara,Ghaziabad,Uttar Pradesh",,201308,,"28.49161,77.50628",,168,,,,,,,,,,,,,,,,,,,,,,,,,,,,,,,,,,,,,,,,https://www.magicbricks.com/ashiana-orchids-gamma-2-greater-noida-pdpid-4d4235303732343732
54,Trident Embassy Reso,Welcome to Trident Embassy Reso,,,,,,,,,,,,Gated Community,Greater Noida,Greater Noida,,,,"Vaibhav Khand, Indirapuram, Ghaziabad, Pin-201012",,201306,,"28.605959,77.44451",,576,,,,,,,,,,,,,,,,,,,,,,,,,,,,,,,,,,,,,,,,https://www.magicbricks.com/trident-embassy-reso-greater-noida-west-greater-noida-pdpid-4d4235323332373831
55,Exotica Dreamville Arcade,Welcome to Exotica Dreamville Arcade,,,,,,,,,,,,Gated Community,Greater Noida,Greater Noida,,,,"NH -24 , Opposite Columbia Asia Hospital , Ghaziabad -201001",,201306,,"28.615204,77.42137",,1704,,,,,,,,,,,,,,,,,,,,,,,,,,,,,,,,,,,,,,,,https://www.magicbricks.com/exotica-dreamville-arcade-greater-noida-west-greater-noida-pdpid-4d4235303836353935
56,Victoryone Amara,Welcome to Victoryone Amara,,,,,,,,,,,,Gated Community,Greater Noida,Greater Noida,,,,"Crossings Republik, Ghaziabad, Uttar Pradesh",,201306,,"28.61085,77.45688",,830,,,,,,,,,,,,,,,,,,,,,,,,,,,,,,,,,,,,,,,,https://www.magicbricks.com/victoryone-amara-greater-noida-west-greater-noida-pdpid-4d4235303730313039
57,Gaur City 2 White Orchid,Welcome to Gaur City 2 White Orchid,,,,,,,,,,,,Gated Community,Greater Noida,Greater Noida,,,,"Pinnacle Tower, GH 7, Vijaya Laxmi Pandit Marg, Judges Enclave, Ahinsa Khand 2, Indirapuram, Ghaziabad, Uttar Pradesh",,201306,,"28.617825,77.42427",,464,,,,,,,,,,,,,,,,,,,,,,,,,,,,,,,,,,,,,,,,https://www.magicbricks.com/gaur-city-2-white-orchid-greater-noida-west-greater-noida-pdpid-4d4235303733313733
58,Celestial Palace,Welcome to Celestial Palace,,,,,,,,,,,,Gated Community,Greater Noida,Greater Noida,,,,"Plot No 981, 982, Noor Nagar, Raj Nagar Extension, Ghaziabad, Uttar Pradesh",,201306,,"28.476896,77.53477",,140,,,,,,,,,,,,,,,,,,,,,,,,,,,,,,,,,,,,,,,,https://www.magicbricks.com/celestial-palace-greater-noida-west-greater-noida-pdpid-4d4235303330383032
59,Omkar The Royal Nests,Welcome to Omkar The Royal Nests,,,,,,,,,,,,Gated Community,Greater Noida,Greater Noida,,,,"New Panchwati, Block I, A-Block, Govindpuram, Ghaziabad, Uttar Pradesh",,201009,,"28.400923,77.51969",,997,,,,,,,,,,,,,,,,,,,,,,,,,,,,,,,,,,,,,,,,https://www.magicbricks.com/omkar-the-royal-nests-tech-zone-greater-noida-pdpid-4d4235313639353439
60,Aba Cherry County,Welcome to Aba Cherry County,,,,,,,,,,,,Gated Community,Greater Noida,Greater Noida,,,,"Vivekanand Nagar, Nehru Nagar III, Nehru Nagar, Ghaziabad, Uttar Pradesh",,201009,,"28.400923,77.51969",,1750,,,,,,,,,,,,,,,,,,,,,,,,,,,,,,,,,,,,,,,,https://www.magicbricks.com/aba-cherry-county-tech-zone-greater-noida-pdpid-4d4235313639333033
61,Gaur City 1st Avenue,Welcome to Gaur City 1st Avenue,,,,,,,,,,,,Gated Community,Greater Noida,Greater Noida,,,,"Khasra No. 687/1 & 2 , Main G T Road , Near Peer Masjid , Ghaziabad -201007",,201306,,"28.605959,77.44451",,1670,,,,,,,,,,,,,,,,,,,,,,,,,,,,,,,,,,,,,,,,https://www.magicbricks.com/gaur-city-1st-avenue-greater-noida-west-greater-noida-pdpid-4d4235303731313436
62,Designarch eHomes,Welcome to Designarch eHomes,,,,,,,,,,,,Gated Community,Greater Noida,Greater Noida,,,,"Indirapuram, Ghaziabad.",,201306,,"28.510328,77.52171",,504,,,,,,,,,,,,,,,,,,,,,,,,,,,,,,,,,,,,,,,,https://www.magicbricks.com/designarch-ehomes-surajpur-greater-noida-pdpid-4d4235303235303733
63,Vrinda City,Welcome to Vrinda City,,,,,,,,,,,,Gated Community,Greater Noida,Greater Noida,,,,"Sector 3, Vaishali, Ghaziabad, Uttar Pradesh",,201310,,"28.439053,77.5239",,364,,,,,,,,,,,,,,,,,,,,,,,,,,,,,,,,,,,,,,,,https://www.magicbricks.com/vrinda-city-phi-4-greater-noida-pdpid-4d4235303732333237
64,Paramount Golf Foreste Pine Tower,Welcome to Paramount Golf Foreste Pine Tower,,,,,,,,,,,,Gated Community,Greater Noida,Greater Noida,,,,"Dharam Marg, Sector 3, Vaishali, Ghaziabad, Uttar Pradesh",,201306,,"28.507687,77.53231",,312,,,,,,,,,,,,,,,,,,,,,,,,,,,,,,,,,,,,,,,,https://www.magicbricks.com/paramount-golf-foreste-pine-tower-zeta-greater-noida-pdpid-4d4235313639343935
65,Ajnara Le Garden Phase II,Welcome to Ajnara Le Garden Phase II,,,,,,,,,,,,Gated Community,Greater Noida,Greater Noida,,,,"Orange County market near Aditya mall Indirapuram, Ghaziabad, Uttar Pradesh",,201310,,"28.577868,77.48322",,2450,,,,,,,,,,,,,,,,,,,,,,,,,,,,,,,,,,,,,,,,https://www.magicbricks.com/ajnara-le-garden-phase-ii-sector-16-greater-noida-pdpid-4d4235323631313031
66,NSG Black Cat Enclave,Welcome to NSG Black Cat Enclave,,,,,,,,,,,,Gated Community,Greater Noida,Greater Noida,,,,"Executive Floors, Wave City, NH 24,, Bamheta, Ghaziabad, Uttar Pradesh",,201310,,"28.44228,77.5111",,351,,,,,,,,,,,,,,,,,,,,,,,,,,,,,,,,,,,,,,,,https://www.magicbricks.com/nsg-black-cat-enclave-chi-2-greater-noida-pdpid-4d4235313630353039
67,Technocity Apartments,Welcome to Technocity Apartments,,,,,,,,,,,,Gated Community,Greater Noida,Greater Noida,,,,"Vaibhav Khand, Indirapuram, Ghaziabad, Uttar Pradesh",,201310,,"28.432095,77.50677",,0,,,,,,,,,,,,,,,,,,,,,,,,,,,,,,,,,,,,,,,,https://www.magicbricks.com/technocity-apartments-chi-5-greater-noida-pdpid-4d4235323531383833
68,Omaxe Nri Villas,Welcome to Omaxe Nri Villas,,,,,,,,,,,,Gated Community,Greater Noida,Greater Noida,,,,"Vaibhav Khand, Indirapuram, Ghaziabad, Uttar Pradesh",,201310,,"28.461197,77.51117",,0,,,,,,,,,,,,,,,,,,,,,,,,,,,,,,,,,,,,,,,,https://www.magicbricks.com/omaxe-nri-villas-omega-2-greater-noida-pdpid-4d4235313638393639
69,Unitech Horizon,Welcome to Unitech Horizon,,,,,,,,,,,,Gated Community,Greater Noida,Greater Noida,,,,"Shop.No.29,Kingswood Avenue, Crossings Republik, Ghaziabad, Uttar Pradesh",,201310,,"28.475273,77.545975",,1254,,,,,,,,,,,,,,,,,,,,,,,,,,,,,,,,,,,,,,,,https://www.magicbricks.com/unitech-horizon-pi-2-greater-noida-pdpid-4d4235303836333632
70,The Grand Forte,Welcome to The Grand Forte,,,,,,,,,,,,Gated Community,Greater Noida,Greater Noida,,,,"Dharam Marg, Block C, Sector 3, Vaishali, Ghaziabad, Uttar Pradesh",,201310,,"28.451487,77.559715",,180,,,,,,,,,,,,,,,,,,,,,,,,,,,,,,,,,,,,,,,,https://www.magicbricks.com/the-grand-forte-sigma-4-greater-noida-pdpid-4d4235303130353739
71,Panchsheel Hynish,Welcome to Panchsheel Hynish,,,,,,,,,,,,Gated Community,Greater Noida,Greater Noida,,,,"Niti Khand II, Indirapuram, Ghaziabad, Utter Pradesh",,201306,,"28.605959,77.44451",,1314,,,,,,,,,,,,,,,,,,,,,,,,,,,,,,,,,,,,,,,,https://www.magicbricks.com/panchsheel-hynish-greater-noida-west-greater-noida-pdpid-4d4235303030353639
72,Jal Vayu Vihar,Welcome to Jal Vayu Vihar,,,,,,,,,,,,Gated Community,Greater Noida,Greater Noida,,,,"1/1, Vaibhav Khand, Indirapuram, , Ghaziabad-201010",,201310,,"28.446918,77.51749",,0,,,,,,,,,,,,,,,,,,,,,,,,,,,,,,,,,,,,,,,,https://www.magicbricks.com/jal-vayu-vihar-phi-2-greater-noida-pdpid-4d4235313638393133
73,Nirala Aspire Phase 2,Welcome to Nirala Aspire Phase 2,,,,,,,,,,,,Gated Community,Greater Noida,Greater Noida,,,,"Gaur Heights Vaishali, Yashoda Marg, Sector 4, Vaishali, Ghaziabad, Uttar Pradesh",,201310,,"28.45358,77.55622",,0,,,,,,,,,,,,,,,,,,,,,,,,,,,,,,,,,,,,,,,,https://www.magicbricks.com/nirala-aspire-phase-2-c-16-greater-noida-pdpid-4d4235313730313937
74,AIG Park Avenue,Welcome to AIG Park Avenue,,,,,,,,,,,,Gated Community,Greater Noida,Greater Noida,,,,"Opp:Govindpuram, Hapur Rd, Ghaziabad, Uttar Pradesh",,201301,,"28.613815,77.42627",,796,,,,,,,,,,,,,,,,,,,,,,,,,,,,,,,,,,,,,,,,https://www.magicbricks.com/aig-park-avenue-sector-4-greater-noida-pdpid-4d4235303039383435
75,Imperia Residency,Welcome to Imperia Residency,,,,,,,,,,,,Gated Community,Greater Noida,Greater Noida,,,,"Vrindavan Heights, Vrindavan Garden, Near Lohiya Park, Sahibabad, Ghaziabad, Pin-201005",,201307,,"28.55733,77.47103",,500,,,,,,,,,,,,,,,,,,,,,,,,,,,,,,,,,,,,,,,,https://www.magicbricks.com/imperia-residency-knowledge-park-5-greater-noida-pdpid-4d4235303130373435
76,Purvanchal Heights,Welcome to Purvanchal Heights,,,,,,,,,,,,Gated Community,Greater Noida,Greater Noida,,,,"Swarm Ganga, Sec - 6 Vasundhara Ghaziabad U. P.Pin -201012",,201310,,"28.502438,77.5192",,336,,,,,,,,,,,,,,,,,,,,,,,,,,,,,,,,,,,,,,,,https://www.magicbricks.com/purvanchal-heights-zeta-1-greater-noida-pdpid-4d4235303239373535
77,6th Avenue,Welcome to 6th Avenue,,,,,,,,,,,,Gated Community,Greater Noida,Greater Noida,,,,"Ahinsa Khand 1, Indirapuram, Ghaziabad, Uttar Pradesh",,201306,,"28.562597,77.39961",,1020,,,,,,,,,,,,,,,,,,,,,,,,,,,,,,,,,,,,,,,,https://www.magicbricks.com/6th-avenue-greater-noida-west-greater-noida-pdpid-4d4235303732383138
78,ATS Dolce,Welcome to ATS Dolce,,,,,,,,,,,,Gated Community,Greater Noida,Greater Noida,,,,"Kinauni Village, Indirapuram, Ghaziabad, Uttar Pradesh",,201310,,"28.496754,77.52229",,1188,,,,,,,,,,,,,,,,,,,,,,,,,,,,,,,,,,,,,,,,https://www.magicbricks.com/ats-dolce-zeta-1-greater-noida-pdpid-4d4235303239313731
79,Nimbus Express Park View I,Welcome to Nimbus Express Park View I,,,,,,,,,,,,Gated Community,Greater Noida,Greater Noida,,,,"Dharam Marg, Sector 4, Vaishali, Ghaziabad, Uttar Pradesh",,201310,,"28.43379,77.506",,666,,,,,,,,,,,,,,,,,,,,,,,,,,,,,,,,,,,,,,,,https://www.magicbricks.com/nimbus-express-park-view-i-chi-5-greater-noida-pdpid-4d4235303834333532
80,Stellar MI Citi Homes,Welcome to Stellar MI Citi Homes,,,,,,,,,,,,Gated Community,Greater Noida,Greater Noida,,,,"Block 2, Plot no-6, Express Garden Apartment, Vaibhav Khand, Indirapuram, Ghaziabad, Uttar Pradesh",,201310,,"28.477224,77.55106",,660,,,,,,,,,,,,,,,,,,,,,,,,,,,,,,,,,,,,,,,,https://www.magicbricks.com/stellar-mi-citi-homes-omicron-3-greater-noida-pdpid-4d4235303131353930
81,Nimbus Express Park View II,Welcome to Nimbus Express Park View II,,,,,,,,,,,,Gated Community,Greater Noida,Greater Noida,,,,"Jaipuria Sunrise Greens, Vaibhav Khand, Indirapuram, Ghaziabad, Pin Code - 201014",,201310,,"28.432095,77.50677",,1320,,,,,,,,,,,,,,,,,,,,,,,,,,,,,,,,,,,,,,,,https://www.magicbricks.com/nimbus-express-park-view-ii-chi-5-greater-noida-pdpid-4d4235303834333533
82,Supertech Czar Villas,Welcome to Supertech Czar Villas,,,,,,,,,,,,Gated Community,Greater Noida,Greater Noida,,,,"Tilla Mode, Farukh Nagar Road, Indraprastha Yojna, Ghaziabad, Uttar Pradesh",,201310,,"28.473679,77.506256",,1000,,,,,,,,,,,,,,,,,,,,,,,,,,,,,,,,,,,,,,,,https://www.magicbricks.com/supertech-czar-villas-omicron-greater-noida-pdpid-4d4235303238343437
83,Edana,Welcome to Edana,,,,,,,,,,,,Gated Community,Greater Noida,Greater Noida,,,,"Raj Nagar Extension, Ghaziabad.",,201308,,"28.473469,77.50537",,162,,,,,,,,,,,,,,,,,,,,,,,,,,,,,,,,,,,,,,,,https://www.magicbricks.com/edana-alpha-1-greater-noida-pdpid-4d4235303832343734
84,Radicon Vedantam Emporio,Welcome to Radicon Vedantam Emporio,,,,,,,,,,,,Gated Community,Greater Noida,Greater Noida,,,,"Kanchan Junga Apartment, Kaushambi, Ghaziabad, Pin-201010",,201310,,"28.61444,77.42256",,0,,,,,,,,,,,,,,,,,,,,,,,,,,,,,,,,,,,,,,,,https://www.magicbricks.com/radicon-vedantam-emporio-sector-16-greater-noida-pdpid-4d4235323739313137
85,Gaur City II 10TH Avenue,Welcome to Gaur City II 10TH Avenue,,,,,,,,,,,,Gated Community,Greater Noida,Greater Noida,,,,"NH -24 , Aditya World City , Ghaziabad -201001 Near Asia Columbia Hospital",,201305,,"28.617567,77.426765",,1008,,,,,,,,,,,,,,,,,,,,,,,,,,,,,,,,,,,,,,,,https://www.magicbricks.com/gaur-city-ii-10th-avenue-noida-extension-greater-noida-pdpid-4d4235303238333536
86,Gandharva Apartment,Welcome to Gandharva Apartment,,,,,,,,,,,,Gated Community,Greater Noida,Greater Noida,,,,"Sector 10 , Siddharth Vihar , Indirapuram Extension , Ghaziabad -201001",,201310,,"28.452644,77.51282",,136,,,,,,,,,,,,,,,,,,,,,,,,,,,,,,,,,,,,,,,,https://www.magicbricks.com/gandharva-apartment-omega-1-greater-noida-pdpid-4d4235313639383137
87,Vidhi Homes,Welcome to Vidhi Homes,,,,,,,,,,,,Gated Community,Greater Noida,Greater Noida,,,,"Nyay Khand I, Indirapuram, Ghaziabad, Uttar Pradesh",,201306,,"28.61838,77.43975",,15,,,,,,,,,,,,,,,,,,,,,,,,,,,,,,,,,,,,,,,,https://www.magicbricks.com/vidhi-homes-greater-noida-west-greater-noida-pdpid-4d4235303930343531
88,Ace Platinum,Welcome to Ace Platinum,,,,,,,,,,,,Gated Community,Greater Noida,Greater Noida,,,,"Ahinsa Khand 1, Indirapuram, Ghaziabad, Uttar Pradesh",,201310,,"28.499374,77.51894",,1268,,,,,,,,,,,,,,,,,,,,,,,,,,,,,,,,,,,,,,,,https://www.magicbricks.com/ace-platinum-zeta-1-greater-noida-pdpid-4d4235303730323532
89,Omaxe Palm Greens Phase II,Welcome to Omaxe Palm Greens Phase II,,,,,,,,,,,,Gated Community,Greater Noida,Greater Noida,,,,"Charms Solitare, Kinauni Village, Indirapuram, Ghaziabad, Uttar Pradesh",,201310,,"28.480371,77.56183",,220,,,,,,,,,,,,,,,,,,,,,,,,,,,,,,,,,,,,,,,,https://www.magicbricks.com/omaxe-palm-greens-phase-ii-sector-mu-greater-noida-pdpid-4d4235313639343133
90,Awho Township Phase 1 2 and 3,Welcome to Awho Township Phase 1 2 and 3,,,,,,,,,,,,Gated Community,Greater Noida,Greater Noida,,,,"Plot No. 24 , NH- 58 , Raj Nagar Extension Crossing, Ghaziabad -201016",,201310,,"28.44221,77.51032",,3000,,,,,,,,,,,,,,,,,,,,,,,,,,,,,,,,,,,,,,,,https://www.magicbricks.com/awho-township-phase-1-2-and-3-chi-2-greater-noida-pdpid-4d4235313730393439
91,Eros Sampoornam Phase 1,Welcome to Eros Sampoornam Phase 1,,,,,,,,,,,,Gated Community,Greater Noida,Greater Noida,,,,"Gardenia Glamour II, Maharaja Agarsain Marg, Sector 3, Vasundhara, Ghaziabad, Uttar Pradesh",,201301,,"28.579782,77.44993",,258,,,,,,,,,,,,,,,,,,,,,,,,,,,,,,,,,,,,,,,,https://www.magicbricks.com/eros-sampoornam-phase-1-sector-2-greater-noida-pdpid-4d4235323839313835
92,DAH Greentech NX Avenue,Welcome to DAH Greentech NX Avenue,,,,,,,,,,,,Gated Community,Greater Noida,Greater Noida,,,,"Kailash Puram, Krishna Garden Colony, Sadarpur, Ghaziabad, Uttar Pradesh",,201009,,"28.602684,77.44582",,288,,,,,,,,,,,,,,,,,,,,,,,,,,,,,,,,,,,,,,,,https://www.magicbricks.com/dah-greentech-nx-avenue-techzone-4-greater-noida-pdpid-4d4235323838393939
93,Samridhi Grand Avenue Iconic Towers,Welcome to Samridhi Grand Avenue Iconic Towers,,,,,,,,,,,,Gated Community,Greater Noida,Greater Noida,,,,"Mahagun Mascot Apartments, Crossings Republik, Ghaziabad, Uttar Pradesh.",,201009,,"28.595078,77.456024",,941,,,,,,,,,,,,,,,,,,,,,,,,,,,,,,,,,,,,,,,,https://www.magicbricks.com/samridhi-grand-avenue-iconic-towers-techzone-4-greater-noida-pdpid-4d4235313139363535
94,Gaur 16Park View,Welcome to Gaur 16Park View,,,,,,,,,,,,Gated Community,Greater Noida,Greater Noida,,,,"Goyal Market, Asha Pushp Vihar, Sector 14, Vaishali, Ghaziabad, Uttar Pradesh",,203201,,"28.432194,77.50804",,3106,,,,,,,,,,,,,,,,,,,,,,,,,,,,,,,,,,,,,,,,https://www.magicbricks.com/gaur-16park-view-yamuna-expressway-greater-noida-pdpid-4d4235313639323431
95,Nirala Estate Phase 2,Welcome to Nirala Estate Phase 2,,,,,,,,,,,,Gated Community,Greater Noida,Greater Noida,,,,"Nyay Khand I, Indirapuram, Ghaziabad, Uttar Pradesh",,201009,,"28.400923,77.51969",,544,,,,,,,,,,,,,,,,,,,,,,,,,,,,,,,,,,,,,,,,https://www.magicbricks.com/nirala-estate-phase-2-tech-zone-greater-noida-pdpid-4d4235313639333239
96,Uppal Casa Wood Stock,Welcome to Uppal Casa Wood Stock,,,,,,,,,,,,Gated Community,Greater Noida,Greater Noida,,,,"Ghaziabad, Uttar Pradesh",,201310,,"28.45358,77.55622",,420,,,,,,,,,,,,,,,,,,,,,,,,,,,,,,,,,,,,,,,,https://www.magicbricks.com/uppal-casa-wood-stock-c-16-greater-noida-pdpid-4d4235313639303139
97,Gaur City 2 Sanskriti Vihar,Welcome to Gaur City 2 Sanskriti Vihar,,,,,,,,,,,,Gated Community,Greater Noida,Greater Noida,,,,"Raj Nagar Extension, Ghaziabad, Uttar Pradesh",,201310,,"28.45358,77.55622",,1008,,,,,,,,,,,,,,,,,,,,,,,,,,,,,,,,,,,,,,,,https://www.magicbricks.com/gaur-city-2-sanskriti-vihar-c-16-greater-noida-pdpid-4d4235313639393535
98,Himsagar Apartment,Welcome to Himsagar Apartment,,,,,,,,,,,,Gated Community,Greater Noida,Greater Noida,,,,"GH-18, Shahpur, Bamheta,, National Highway 24, Pandav Nagar, Ghaziabad, Uttar Pradesh",,201310,,"28.44436,77.51443",,0,,,,,,,,,,,,,,,,,,,,,,,,,,,,,,,,,,,,,,,,https://www.magicbricks.com/himsagar-apartment-phi-2-greater-noida-pdpid-4d4235323233343337
99,Wall Rock Aishwaryam,Welcome to Wall Rock Aishwaryam,,,,,,,,,,,,Gated Community,Greater Noida,Greater Noida,,,,"assotech, Windsor St, Gate no.3, Indirapuram, Ghaziabad,",,201310,,"28.45358,77.55622",,470,,,,,,,,,,,,,,,,,,,,,,,,,,,,,,,,,,,,,,,,https://www.magicbricks.com/wall-rock-aishwaryam-c-16-greater-noida-pdpid-4d4235313639393433
100,Gail Society,Welcome to Gail Society,,,,,,,,,,,,Gated Community,Greater Noida,Greater Noida,,,,"Asha Pushp Apartment, Opposite Mahaluxmi Tower, Kaushambi, Ghaziabad, Pin-201012",,201308,,"28.473734,77.54132",,65,,,,,,,,,,,,,,,,,,,,,,,,,,,,,,,,,,,,,,,,https://www.magicbricks.com/gail-society-pi-1-&-2-greater-noida-pdpid-4d4235323733383635
101,Devika Gold Homz Phase 2,Welcome to Devika Gold Homz Phase 2,,,,,,,,,,,,Gated Community,Greater Noida,Greater Noida,,,,"B 1307, KM Residency, Raj Nagar Extension, Ghaziabad, Uttar Pradesh",,201306,,"28.56611,77.44061",,0,,,,,,,,,,,,,,,,,,,,,,,,,,,,,,,,,,,,,,,,https://www.magicbricks.com/devika-gold-homz-phase-2-sector-1-greater-noida-pdpid-4d4235313639333533
102,gaur City 2 16th Avenue,Welcome to gaur City 2 16th Avenue,,,,,,,,,,,,Gated Community,Greater Noida,Greater Noida,,,,"Khasra No. 322 & 324 , Raj Nagar Extension , Ghaziabad - 201003",,201310,,"28.617775,77.42215",,2076,,,,,,,,,,,,,,,,,,,,,,,,,,,,,,,,,,,,,,,,https://www.magicbricks.com/gaur-city-2-16th-avenue-sector-16-greater-noida-pdpid-4d4235323234343433
103,Paramount Golfforeste Premium Apartments,Welcome to Paramount Golfforeste Premium Apartments,,,,,,,,,,,,Gated Community,Greater Noida,Greater Noida,,,,"Raj Nagar Extension, Ghaziabad, Uttar Pradesh",,201306,,"28.507687,77.53231",,252,,,,,,,,,,,,,,,,,,,,,,,,,,,,,,,,,,,,,,,,https://www.magicbricks.com/paramount-golfforeste-premium-apartments-zeta-greater-noida-pdpid-4d4235313838383030
104,NRI Residency,Welcome to NRI Residency,,,,,,,,,,,,Gated Community,Greater Noida,Greater Noida,,,,"Arihant Ambience, Crossings Republik, Ghaziabad, Uttar Pradesh",,201310,,"28.465591,77.511406",,936,,,,,,,,,,,,,,,,,,,,,,,,,,,,,,,,,,,,,,,,https://www.magicbricks.com/nri-residency-pari-chowk-greater-noida-pdpid-4d4235303235363137
105,Panchsheel Pinnacle Green,Welcome to Panchsheel Pinnacle Green,,,,,,,,,,,,Gated Community,Greater Noida,Greater Noida,,,,"Crossings Republik, Ghaziabad, Uttar Pradesh",,201310,,"28.6113,77.4454",,448,,,,,,,,,,,,,,,,,,,,,,,,,,,,,,,,,,,,,,,,https://www.magicbricks.com/panchsheel-pinnacle-green-sector-16-greater-noida-pdpid-4d4235323234333635