id,Title,Content,Pincode
259,"My Home Jewel","Hello beautiful people of My Home Jewel!",
261,"Lodha Casa Paradiso","Hello beautiful people of Lodha Casa Paradiso",
262,"Machli Bazaar","Machli Bazaar is a posh residential colony in Warangal city.",
264,"chintal colony, warangal","chintal warangal",
267,"REC residency, Warangal","REC redency",
