ID,Title,Content,Excerpt,Date,Post Type,Permalink,URL,Title,Caption,Description,Alt Text,Featured,URL,Locality  Category,Geography,geo_locality,_last_editor_used_jetpack,_wp_old_date,locality_address_syntax,locality_address,_locality_address,locality_pincode,_locality_pincode,locality_lat_long,_locality_lat_long,locality_number_of_units,_locality_number_of_units,locality_banner_pic,_locality_banner_pic,locality_square_pic,_locality_square_pic,locality_marquee,_locality_marquee,_yoast_wpseo_primary_locality_category,_yoast_wpseo_metadesc,_yoast_wpseo_content_score,_yoast_wpseo_estimated-reading-time-minutes,locality_description,_locality_description,_rvy_has_revisions,locality_payment_type_mycred_balance,_locality_payment_type_mycred_balance,locality_payment_type_prepaid_razorpay,_locality_payment_type_prepaid_razorpay,locality_payment_type_cod,_locality_payment_type_cod,locality_payment_type,_locality_payment_type,_wp_old_slug,_rvy_base_post_id,Status,Author ID,Author Username,Author Email,Author First Name,Author Last Name,Slug,Format,Template,Parent,Parent Slug,Order,Comment Status,Ping Status,Post Modified Date,Reference url
1,Iris Exotica,Welcome to Iris Exotica,,,,,,,,,,,,Gated Community,Ahmedabad,Ahmedabad,,,,"Near Rivera Harmony, Satellite , Ahmedabad .",,380015,,"23.006132,72.503075",,93,,,,,,,,,,,,,,,,,,,,,,,,,,,,,,,,,,,,,,,,https://www.magicbricks.com/iris-exotica-satellite-ahmedabad-pdpid-4d4235303836323838
2,Satyamev Elysium,Welcome to Satyamev Elysium,,,,,,,,,,,,Gated Community,Ahmedabad,Ahmedabad,,,,"NR. SHUKAN PALACE BUNGLOWS ,OPP. UGATI LAKE VIEW, SCIENCE CITY ROAD",,380060,,"23.07902,72.5027",,78,,,,,,,,,,,,,,,,,,,,,,,,,,,,,,,,,,,,,,,,https://www.magicbricks.com/satyamev-elysium-science-city-ahmedabad-pdpid-4d4235303833393034
3,Silver Harmony,Welcome to Silver Harmony,,,,,,,,,,,,Gated Community,Ahmedabad,Ahmedabad,,,,"Gota, Ahmedabad, Gujarat",,382481,,"23.101799,72.54254",,326,,,,,,,,,,,,,,,,,,,,,,,,,,,,,,,,,,,,,,,,https://www.magicbricks.com/silver-harmony-gota-ahmedabad-pdpid-4d4235303430313830
4,Casa Vyoma,Welcome to Casa Vyoma,,,,,,,,,,,,Gated Community,Ahmedabad,Ahmedabad,,,,"261, Sarkari Vasahat Road, Opp Auda Garden, Vastrapur, Ahmedabad, Gujarat",,380015,,"23.034523,72.53064",,0,,,,,,,,,,,,,,,,,,,,,,,,,,,,,,,,,,,,,,,,https://www.magicbricks.com/casa-vyoma-vastrapur-ahmedabad-pdpid-4d4235303137363238
5,Aaryan Gloria,Welcome to Aaryan Gloria,,,,,,,,,,,,Gated Community,Ahmedabad,Ahmedabad,,,,"NEAR SHIVAM BUNGLOW 2 ,OPP AMRAMANJARI BUNGLOW SOUTH BOPAL,Ahmedabad",,380058,,"23.021873,72.47218",,656,,,,,,,,,,,,,,,,,,,,,,,,,,,,,,,,,,,,,,,,https://www.magicbricks.com/aaryan-gloria-south-bopal-ahmedabad-pdpid-4d4235303330343135
6,orchid harmony,Welcome to orchid harmony,,,,,,,,,,,,Gated Community,Ahmedabad,Ahmedabad,,,,"Near santipura cross road, S.P. Ring road., Ahmedabad, Gujarat",,382470,,"22.994678,72.46755",,384,,,,,,,,,,,,,,,,,,,,,,,,,,,,,,,,,,,,,,,,https://www.magicbricks.com/orchid-harmony-sardar-patel-ring-road-ahmedabad-pdpid-4d4235303239303534
7,Krishna Heights,Welcome to Krishna Heights,,,,,,,,,,,,Gated Community,Ahmedabad,Ahmedabad,,,,"Gota, Ahmedabad, Gujarat",,382481,,"23.11296,72.54583",,200,,,,,,,,,,,,,,,,,,,,,,,,,,,,,,,,,,,,,,,,https://www.magicbricks.com/krishna-heights-gota-ahmedabad-pdpid-4d4235303835383737
8,Adani Shantigram,Welcome to Adani Shantigram,,,,,,,,,,,,Gated Community,Ahmedabad,Ahmedabad,,,,"Nr. Vaishnodevi Circle, Sarkhej - Gandhinagar Hwy, Shantigram, Gujarat",,380054,,"23.159746,72.54251",,250,,,,,,,,,,,,,,,,,,,,,,,,,,,,,,,,,,,,,,,,https://www.magicbricks.com/adani-shantigram-sg-highway-ahmedabad-pdpid-4d4235313037383231
9,Rajvansh,Welcome to Rajvansh,,,,,,,,,,,,Gated Community,Ahmedabad,Ahmedabad,,,,0,,380054,,"23.038609,72.513664",,0,,,,,,,,,,,,,,,,,,,,,,,,,,,,,,,,,,,,,,,,https://www.magicbricks.com/rajvansh-bodakdev-ahmedabad-pdpid-4d4235313033353839
10,Gala Marvella,Welcome to Gala Marvella,,,,,,,,,,,,Gated Community,Ahmedabad,Ahmedabad,,,,"Besides Gala Luxuria, South Bopal, Bopal, Ahmedabad, Gujarat",,380058,,"23.017221,72.468666",,130,,,,,,,,,,,,,,,,,,,,,,,,,,,,,,,,,,,,,,,,https://www.magicbricks.com/gala-marvella-south-bopal-ahmedabad-pdpid-4d4235303839373435
11,Iscon Platinum,Welcome to Iscon Platinum,,,,,,,,,,,,Gated Community,Ahmedabad,Ahmedabad,,,,"Sardar Patel Ring Road, Near, Bopal Circle, Bopal, Ahmedabad, Gujarat",,380058,,"23.029106,72.465385",,1036,,,,,,,,,,,,,,,,,,,,,,,,,,,,,,,,,,,,,,,,https://www.magicbricks.com/iscon-platinum-bopal-ahmedabad-pdpid-4d4235303432323330
12,Ratna Paradise,Welcome to Ratna Paradise,,,,,,,,,,,,Gated Community,Ahmedabad,Ahmedabad,,,,"B/s. Auda Garden, Near Vaishnodevi Circle, S.P.Ring Road, Ahmadabad.",,380001,,"23.136028,72.55208",,66,,,,,,,,,,,,,,,,,,,,,,,,,,,,,,,,,,,,,,,,https://www.magicbricks.com/ratna-paradise-vaishno-devi-ahmedabad-pdpid-4d4235303338323930
13,Sky city Floris,Welcome to Sky city Floris,,,,,,,,,,,,Gated Community,Ahmedabad,Ahmedabad,,,,"near 07 club road, off. sp ring road, shela, Ahmedabad, Gujarat",,380058,,"23.005047,72.46265",,192,,,,,,,,,,,,,,,,,,,,,,,,,,,,,,,,,,,,,,,,https://www.magicbricks.com/sky-city-floris-shela-ahmedabad-pdpid-4d4235303935353639
14,Riviera Blues,Welcome to Riviera Blues,,,,,,,,,,,,Gated Community,Ahmedabad,Ahmedabad,,,,"Riviera Blues, Corporate Rd, Prahlad Nagar, Ahmedabad, Gujarat",,380015,,"23.00197,72.50255",,208,,,,,,,,,,,,,,,,,,,,,,,,,,,,,,,,,,,,,,,,https://www.magicbricks.com/riviera-blues-prahlad-nagar-ahmedabad-pdpid-4d4235303738393539
15,Le Jardin,Welcome to Le Jardin,,,,,,,,,,,,Gated Community,Ahmedabad,Ahmedabad,,,,"Law Garden Panchvati Road, Nr Swati Restaurant, Law Garden, Ahmedabad, Gujarat",,380009,,"23.024258,72.55859",,166,,,,,,,,,,,,,,,,,,,,,,,,,,,,,,,,,,,,,,,,https://www.magicbricks.com/le-jardin-law-garden-ahmedabad-pdpid-4d4235303832373739
16,Project Gokuldham,Welcome to Project Gokuldham,,,,,,,,,,,,Gated Community,Ahmedabad,Ahmedabad,,,,"S.P Ring Road, Ahmedabad",,382470,,"23.041119,72.65947",,0,,,,,,,,,,,,,,,,,,,,,,,,,,,,,,,,,,,,,,,,https://www.magicbricks.com/project-gokuldham-sardar-patel-ring-road-ahmedabad-pdpid-4d4235303734373738
17,Stavan Anitra,Welcome to Stavan Anitra,,,,,,,,,,,,Gated Community,Ahmedabad,Ahmedabad,,,,"opp. suvidhya shopping centre, mahalaxmi cross road, paldi, Ahmadabad.",,380001,,"23.013998,72.556816",,44,,,,,,,,,,,,,,,,,,,,,,,,,,,,,,,,,,,,,,,,https://www.magicbricks.com/stavan-anitra-paldi-ahmedabad-pdpid-4d4235303138363134
18,Maruti Celedron,Welcome to Maruti Celedron,,,,,,,,,,,,Gated Community,Ahmedabad,Ahmedabad,,,,"Nr. iscon temple, s.g.highway, Ahmadabad",,380054,,"23.031105,72.50463",,72,,,,,,,,,,,,,,,,,,,,,,,,,,,,,,,,,,,,,,,,https://www.magicbricks.com/maruti-celedron-sg-highway-ahmedabad-pdpid-4d4235303239303734
19,Sai Nirman Rejoice,Welcome to Sai Nirman Rejoice,,,,,,,,,,,,Gated Community,Ahmedabad,Ahmedabad,,,,"Behind Railway Station, Buddhisagar Society, Aabugiri Tenement, Krishnadham Tenement, Chandkheda, Ahmedabad, Gujarat",,380054,,"23.109617,72.54962",,204,,,,,,,,,,,,,,,,,,,,,,,,,,,,,,,,,,,,,,,,https://www.magicbricks.com/sai-nirman-rejoice-sg-highway-ahmedabad-pdpid-4d4235313833383133
20,Swati Chrysantha,Welcome to Swati Chrysantha,,,,,,,,,,,,Gated Community,Ahmedabad,Ahmedabad,,,,"Khadiya, Shela, Gujarat",,380058,,"23.010216,72.45703",,330,,,,,,,,,,,,,,,,,,,,,,,,,,,,,,,,,,,,,,,,https://www.magicbricks.com/swati-chrysantha-shela-ahmedabad-pdpid-4d4235313136393237
21,Paarijat Eclat,Welcome to Paarijat Eclat,,,,,,,,,,,,Gated Community,Ahmedabad,Ahmedabad,,,,"Vikram Nagar, Ambli BRT Road, Next to, Iskcon Cross Rd, Ahmedabad, Gujarat",,380058,,"23.028461,72.50548",,84,,,,,,,,,,,,,,,,,,,,,,,,,,,,,,,,,,,,,,,,https://www.magicbricks.com/paarijat-eclat-ambli-bopal-road-ahmedabad-pdpid-4d4235303338323432
22,Pearl 79,Welcome to Pearl 79,,,,,,,,,,,,Gated Community,Ahmedabad,Ahmedabad,,,,"Near Kaveri Soham and Divyajyot School, Near Shilaj Overbridge, Shilaj, Ahmedabad",,380058,,"23.057873,72.47034",,79,,,,,,,,,,,,,,,,,,,,,,,,,,,,,,,,,,,,,,,,https://www.magicbricks.com/pearl-79-shilaj-ahmedabad-pdpid-4d4235313931303231
23,Adani Shantigram Waterlily,Welcome to Adani Shantigram Waterlily,,,,,,,,,,,,Gated Community,Ahmedabad,Ahmedabad,,,,"SG Highway,Ahmedabad,Gujarat",,380054,,"23.166086,72.53715",,856,,,,,,,,,,,,,,,,,,,,,,,,,,,,,,,,,,,,,,,,https://www.magicbricks.com/adani-shantigram-waterlily-sg-highway-ahmedabad-pdpid-4d4235303234313036
24,Orchid Greenfields,Welcome to Orchid Greenfields,,,,,,,,,,,,Gated Community,Ahmedabad,Ahmedabad,,,,"South Bopal, Ahmedabad",,380058,,"22.994768,72.463715",,640,,,,,,,,,,,,,,,,,,,,,,,,,,,,,,,,,,,,,,,,https://www.magicbricks.com/orchid-greenfields-south-bopal-ahmedabad-pdpid-4d4235303833333837
25,Marigold,Welcome to Marigold,,,,,,,,,,,,Gated Community,Ahmedabad,Ahmedabad,,,,"Near Safal Parisar 1, ,South Bopal, Ahmedabad",,380058,,"23.015884,72.46732",,489,,,,,,,,,,,,,,,,,,,,,,,,,,,,,,,,,,,,,,,,https://www.magicbricks.com/marigold-south-bopal-ahmedabad-pdpid-4d4235303933343231
26,Safal Parisar 2,Welcome to Safal Parisar 2,,,,,,,,,,,,Gated Community,Ahmedabad,Ahmedabad,,,,"next to aarohi royal bungalows, behind bopal 444, south bopal, s.p.ring road, Ahmadabad.",,380058,,"23.016235,72.471306",,570,,,,,,,,,,,,,,,,,,,,,,,,,,,,,,,,,,,,,,,,https://www.magicbricks.com/safal-parisar-2-bopal-ahmedabad-pdpid-4d4235303030333432
27,Copper Stone,Welcome to Copper Stone,,,,,,,,,,,,Gated Community,Ahmedabad,Ahmedabad,,,,"Copper Stone, Next to Shridhar Bungalow, Near Baghban Party Plot, Thaltej Rd, Thaltej, Ahmedabad, Gujarat",,380059,,"23.050825,72.49452",,108,,,,,,,,,,,,,,,,,,,,,,,,,,,,,,,,,,,,,,,,https://www.magicbricks.com/copper-stone-thaltej-ahmedabad-pdpid-4d4235303138343430
28,Aarambh Apartments,Welcome to Aarambh Apartments,,,,,,,,,,,,Gated Community,Ahmedabad,Ahmedabad,,,,"314, Sangrila Arcade, Above Saraswat Bank, A0dnagar Satellite, Ahmedabad, Gujarat",,380058,,"23.02967,72.52696",,110,,,,,,,,,,,,,,,,,,,,,,,,,,,,,,,,,,,,,,,,https://www.magicbricks.com/aarambh-apartments-south-bopal-ahmedabad-pdpid-4d4235313139353235
29,Aarohi Crest,Welcome to Aarohi Crest,,,,,,,,,,,,Gated Community,Ahmedabad,Ahmedabad,,,,"Nr. Arohi Royale, 200 Ft. Ring Road, To Gala Gymkhana Road, South Bopal, Ahmedabad-380058",,380058,,"23.019388,72.469696",,230,,,,,,,,,,,,,,,,,,,,,,,,,,,,,,,,,,,,,,,,https://www.magicbricks.com/aarohi-crest-bopal-ahmedabad-pdpid-4d4235303138303936
30,Panchamrut Green,Welcome to Panchamrut Green,,,,,,,,,,,,Gated Community,Ahmedabad,Ahmedabad,,,,0,,380058,,"23.057873,72.47034",,0,,,,,,,,,,,,,,,,,,,,,,,,,,,,,,,,,,,,,,,,https://www.magicbricks.com/panchamrut-green-shilaj-ahmedabad-pdpid-4d4235313232333635
31,Gala Aura,Welcome to Gala Aura,,,,,,,,,,,,Gated Community,Ahmedabad,Ahmedabad,,,,"Gala Aura, Off Gala Gymkhana Road, Aaryan Gloria, South Bopal, Bopal, Ahmedabad, Gujarat",,380058,,"23.019274,72.4688",,120,,,,,,,,,,,,,,,,,,,,,,,,,,,,,,,,,,,,,,,,https://www.magicbricks.com/gala-aura-bopal-ahmedabad-pdpid-4d4235303237383533
32,Tirupati Aakruti Greenz,Welcome to Tirupati Aakruti Greenz,,,,,,,,,,,,Gated Community,Ahmedabad,Ahmedabad,,,,"B/H Nirma University, Malabar County Road, Chharodi, Ahmedabad, Gujarat",,380054,,"23.122108,72.546486",,432,,,,,,,,,,,,,,,,,,,,,,,,,,,,,,,,,,,,,,,,https://www.magicbricks.com/tirupati-aakruti-greenz-sg-highway-ahmedabad-pdpid-4d4235303233363334
33,Orchid Pride,Welcome to Orchid Pride,,,,,,,,,,,,Gated Community,Ahmedabad,Ahmedabad,,,,"Opposite Binori Solittaire, Opposite Aarohi Homes, Near, Gala Gymkhana Rd, South Bopal, Bopal, Ahmedabad, Gujarat",,380058,,"23.014217,72.47485",,114,,,,,,,,,,,,,,,,,,,,,,,,,,,,,,,,,,,,,,,,https://www.magicbricks.com/orchid-pride-south-bopal-ahmedabad-pdpid-4d4235303937313639
34,Sorrel Apartments,Welcome to Sorrel Apartments,,,,,,,,,,,,Gated Community,Ahmedabad,Ahmedabad,,,,"South Bopal, Ahmedabad.",,382470,,"22.98092,72.47157",,1004,,,,,,,,,,,,,,,,,,,,,,,,,,,,,,,,,,,,,,,,https://www.magicbricks.com/sorrel-apartments-sardar-patel-ring-road-ahmedabad-pdpid-4d4235303732333332
35,Reflections,Welcome to Reflections,,,,,,,,,,,,Gated Community,Ahmedabad,Ahmedabad,,,,"Sardar Patel Ring Rd, Near Vaishnodevi Temple, Ahmedabad, Gujarat",,380001,,"23.13379,72.54909",,468,,,,,,,,,,,,,,,,,,,,,,,,,,,,,,,,,,,,,,,,https://www.magicbricks.com/reflections-vaishno-devi-ahmedabad-pdpid-4d4235303732333939
36,Savvy Swaraj,Welcome to Savvy Swaraj,,,,,,,,,,,,Gated Community,Ahmedabad,Ahmedabad,,,,0,,382481,,"23.102434,72.54356",,0,,,,,,,,,,,,,,,,,,,,,,,,,,,,,,,,,,,,,,,,https://www.magicbricks.com/savvy-swaraj-gota-ahmedabad-pdpid-4d4235313631343939
37,Swati Florence,Welcome to Swati Florence,,,,,,,,,,,,Gated Community,Ahmedabad,Ahmedabad,,,,"Near, Besides SOBO Center, South Bopal, Ahmedabad, Gujarat",,380058,,"23.01672,72.474365",,280,,,,,,,,,,,,,,,,,,,,,,,,,,,,,,,,,,,,,,,,https://www.magicbricks.com/swati-florence-south-bopal-ahmedabad-pdpid-4d4235303836353932
38,Satyadeep Heights,Welcome to Satyadeep Heights,,,,,,,,,,,,Gated Community,Ahmedabad,Ahmedabad,,,,"B/s. Palm Greens, Nr. Prahladnagar-Makarba Crossing, Opp. Torrent Power Station,Prahladnagar Extn.",,380015,,"23.000257,72.50567",,335,,,,,,,,,,,,,,,,,,,,,,,,,,,,,,,,,,,,,,,,https://www.magicbricks.com/satyadeep-heights-prahlad-nagar-extension-ahmedabad-pdpid-4d4235303430303037
39,Godrej Garden City,Welcome to Godrej Garden City,,,,,,,,,,,,Gated Community,Ahmedabad,Ahmedabad,,,,"Village Jagatpur, Godrej Garden City, Behind Nirma University, Off, Sarkhej - Gandhinagar Hwy, New Chamunda Society, Godrej Garden City, Chandkheda",,380054,,"23.11553,72.55591",,13000,,,,,,,,,,,,,,,,,,,,,,,,,,,,,,,,,,,,,,,,https://www.magicbricks.com/godrej-garden-city-sg-highway-ahmedabad-pdpid-4d4235303232313332
40,Poddar Palm Greens,Welcome to Poddar Palm Greens,,,,,,,,,,,,Gated Community,Ahmedabad,Ahmedabad,,,,"Behind divya bhaskar press, new Prahlad Nagar, s.g.highway, Ahmadabad.",,380051,,"22.999784,72.50489",,288,,,,,,,,,,,,,,,,,,,,,,,,,,,,,,,,,,,,,,,,https://www.magicbricks.com/poddar-palm-greens-makarba-ahmedabad-pdpid-4d4235303239393831
41,Regency Plaza Rahul Tower,Welcome to Regency Plaza Rahul Tower,,,,,,,,,,,,Gated Community,Ahmedabad,Ahmedabad,,,,"100 Feet A0d Nagar Rd, Vraj Vihar, Jodhpur Village, Ahmedabad, Gujarat",,380015,,"23.013111,72.517746",,58,,,,,,,,,,,,,,,,,,,,,,,,,,,,,,,,,,,,,,,,https://www.magicbricks.com/regency-plaza-rahul-tower-jodhpur-village-ahmedabad-pdpid-4d4235313939353631
42,Gokulam,Welcome to Gokulam,,,,,,,,,,,,Gated Community,Ahmedabad,Ahmedabad,,,,"Signature-2 Business Park, Sa0d - Sarkhej Rd, Sarkhej Circle, Ahmedabad, Gujarat",,380054,,"22.987583,72.49294",,475,,,,,,,,,,,,,,,,,,,,,,,,,,,,,,,,,,,,,,,,https://www.magicbricks.com/gokulam-sg-highway-ahmedabad-pdpid-4d4235303832353031
43,Gala Eternia,Welcome to Gala Eternia,,,,,,,,,,,,Gated Community,Ahmedabad,Ahmedabad,,,,"Opp. Doordarshan Tower, Drive-in Road, Thaltej, Ahmedabad, Gujarat",,380059,,"23.04915,72.52494",,216,,,,,,,,,,,,,,,,,,,,,,,,,,,,,,,,,,,,,,,,https://www.magicbricks.com/gala-eternia-thaltej-ahmedabad-pdpid-4d4235303739383033
44,Bakeri City,Welcome to Bakeri City,,,,,,,,,,,,Gated Community,Ahmedabad,Ahmedabad,,,,"Kalapi Marg, Bakeri City, Quresh Nagar Society, Vejalpur, Ahmedabad,",,380051,,"23.00782,72.51819",,1420,,,,,,,,,,,,,,,,,,,,,,,,,,,,,,,,,,,,,,,,https://www.magicbricks.com/bakeri-city-vejalpur-ahmedabad-pdpid-4d4235303031313432
45,Sun South Winds,Welcome to Sun South Winds,,,,,,,,,,,,Gated Community,Ahmedabad,Ahmedabad,,,,"Marigold Circle, Safal Parisar Rd, South Bopal, Ahmedabad, Gujarat",,380058,,"23.022038,72.46741",,414,,,,,,,,,,,,,,,,,,,,,,,,,,,,,,,,,,,,,,,,https://www.magicbricks.com/sun-south-winds-south-bopal-ahmedabad-pdpid-4d4235313136343337
46,Shreeya Antilia,Welcome to Shreeya Antilia,,,,,,,,,,,,Gated Community,Ahmedabad,Ahmedabad,,,,"Bodakdev, Ahmedabad.",,380054,,"23.040113,72.50286",,28,,,,,,,,,,,,,,,,,,,,,,,,,,,,,,,,,,,,,,,,https://www.magicbricks.com/shreeya-antilia-bodakdev-ahmedabad-pdpid-4d4235313035353231
47,Altius-II,Welcome to Altius-II,,,,,,,,,,,,Gated Community,Ahmedabad,Ahmedabad,,,,0,,380058,,"23.02652,72.48171",,0,,,,,,,,,,,,,,,,,,,,,,,,,,,,,,,,,,,,,,,,https://www.magicbricks.com/altius-ii-ambli-bopal-road-ahmedabad-pdpid-4d4235303137333938
48,Enigma,Welcome to Enigma,,,,,,,,,,,,Gated Community,Ahmedabad,Ahmedabad,,,,"SG Highway, Ahmedabad.",,380054,,"23.058832,72.5223",,150,,,,,,,,,,,,,,,,,,,,,,,,,,,,,,,,,,,,,,,,https://www.magicbricks.com/enigma-sg-highway-ahmedabad-pdpid-4d4235303337393235
49,Enigma Flat,Welcome to Enigma Flat,,,,,,,,,,,,Gated Community,Ahmedabad,Ahmedabad,,,,"Opp. Eklavya Sports Academy, Thaltej, Ahmedabad, Gujarat",,380059,,"23.058588,72.52259",,0,,,,,,,,,,,,,,,,,,,,,,,,,,,,,,,,,,,,,,,,https://www.magicbricks.com/enigma-flat-thaltej-ahmedabad-pdpid-4d4235323035363933
50,Maple County II,Welcome to Maple County II,,,,,,,,,,,,Gated Community,Ahmedabad,Ahmedabad,,,,"Thaltej, Ahmedabad, Gujarat",,380059,,"23.049053,72.48695",,192,,,,,,,,,,,,,,,,,,,,,,,,,,,,,,,,,,,,,,,,https://www.magicbricks.com/maple-county-ii-thaltej-ahmedabad-pdpid-4d4235303331303737
51,Manipur Green,Welcome to Manipur Green,,,,,,,,,,,,Gated Community,Ahmedabad,Ahmedabad,,,,"Manipur Greens, beside Gram Panchayat Office, Manipur, Gujarat",,380058,,"23.034426,72.42913",,124,,,,,,,,,,,,,,,,,,,,,,,,,,,,,,,,,,,,,,,,https://www.magicbricks.com/manipur-green-manipur-ahmedabad-pdpid-4d4235333138333937
52,Maher Homes,Welcome to Maher Homes,,,,,,,,,,,,Gated Community,Ahmedabad,Ahmedabad,,,,"Opp club 07 sky city road Office, S.P.Ring road, Shela, Ahmedabad",,380058,,"23.009459,72.454926",,448,,,,,,,,,,,,,,,,,,,,,,,,,,,,,,,,,,,,,,,,https://www.magicbricks.com/maher-homes-shela-ahmedabad-pdpid-4d4235303734323639
53,Safal Parishkaar,Welcome to Safal Parishkaar,,,,,,,,,,,,Gated Community,Ahmedabad,Ahmedabad,,,,"Arvind Avenue, Khokhra Circle, Maninagar East, Ahmedabad",,380008,,"22.991676,72.61745",,720,,,,,,,,,,,,,,,,,,,,,,,,,,,,,,,,,,,,,,,,https://www.magicbricks.com/safal-parishkaar-maningar-east-ahmedabad-pdpid-4d4235303831333031
54,Anokhi Dream Rise,Welcome to Anokhi Dream Rise,,,,,,,,,,,,Gated Community,Ahmedabad,Ahmedabad,,,,"Hetarth Party Plot, Dream Rise, Near, Science City Rd, Sola, Ahmedabad, Gujarat",,380060,,"23.07531,72.50973",,0,,,,,,,,,,,,,,,,,,,,,,,,,,,,,,,,,,,,,,,,https://www.magicbricks.com/anokhi-dream-rise-science-city-road-ahmedabad-pdpid-4d4235323932363131
55,Savvy Strata,Welcome to Savvy Strata,,,,,,,,,,,,Gated Community,Ahmedabad,Ahmedabad,,,,"NR. NEW LJ COLLEGE, OFF. S.G. HIGH WAY ,OPP: YMCA CLUB,Ahmedabad",,380054,,"22.98916,72.492",,144,,,,,,,,,,,,,,,,,,,,,,,,,,,,,,,,,,,,,,,,https://www.magicbricks.com/savvy-strata-sg-highway-ahmedabad-pdpid-4d4235303739363232
56,Maitri Shiv Greens,Welcome to Maitri Shiv Greens,,,,,,,,,,,,Gated Community,Ahmedabad,Ahmedabad,,,,Nr madhav plaza motera stadium road motera,,380005,,"23.101646,72.6013",,134,,,,,,,,,,,,,,,,,,,,,,,,,,,,,,,,,,,,,,,,https://www.magicbricks.com/maitri-shiv-greens-motera-ahmedabad-pdpid-4d4235303430303734
57,Deep Tower,Welcome to Deep Tower,,,,,,,,,,,,Gated Community,Ahmedabad,Ahmedabad,,,,0,,380005,,"23.038673,72.514114",,0,,,,,,,,,,,,,,,,,,,,,,,,,,,,,,,,,,,,,,,,https://www.magicbricks.com/deep-tower-bodakdev-ahmedabad-pdpid-4d4235323034393931
58,Chinmay Crystal,Welcome to Chinmay Crystal,,,,,,,,,,,,Gated Community,Ahmedabad,Ahmedabad,,,,"Vastrapur, Ahmedabad.",,380015,,"23.038582,72.525055",,0,,,,,,,,,,,,,,,,,,,,,,,,,,,,,,,,,,,,,,,,https://www.magicbricks.com/chinmay-crystal-vastrapur-ahmedabad-pdpid-4d4235313030323039
59,Orchid Whitefield,Welcome to Orchid Whitefield,,,,,,,,,,,,Gated Community,Ahmedabad,Ahmedabad,,,,"Orchid Whitefield, Makarba, Ahmedabad, Gujarat",,380015,,"22.998304,72.50459",,576,,,,,,,,,,,,,,,,,,,,,,,,,,,,,,,,,,,,,,,,https://www.magicbricks.com/orchid-whitefield-prahlad-nagar-ahmedabad-pdpid-4d4235303237383436
60,Pearl 36,Welcome to Pearl 36,,,,,,,,,,,,Gated Community,Ahmedabad,Ahmedabad,,,,0,,380015,,"23.022165,72.49843",,0,,,,,,,,,,,,,,,,,,,,,,,,,,,,,,,,,,,,,,,,https://www.magicbricks.com/pearl-36-bodakdev-ahmedabad-pdpid-4d4235323035333835
61,Venus Parkland,Welcome to Venus Parkland,,,,,,,,,,,,Gated Community,Ahmedabad,Ahmedabad,,,,"bus stop, Vejalpur Rd, Atri Society, near, Vejalpur, Ahmedabad, Gujarat",,380051,,"23.003672,72.52085",,860,,,,,,,,,,,,,,,,,,,,,,,,,,,,,,,,,,,,,,,,https://www.magicbricks.com/venus-parkland-vejalpur-ahmedabad-pdpid-4d4235303136383134
62,Devnandan Sky,Welcome to Devnandan Sky,,,,,,,,,,,,Gated Community,Ahmedabad,Ahmedabad,,,,"Kavisha Society, Nigam Nagar, Chandkheda, Ahmedabad, Gujarat",,380005,,"23.114237,72.586784",,121,,,,,,,,,,,,,,,,,,,,,,,,,,,,,,,,,,,,,,,,https://www.magicbricks.com/devnandan-sky-chandkheda-ahmedabad-pdpid-4d4235303239393835
63,Shree Balaji Wind Park,Welcome to Shree Balaji Wind Park,,,,,,,,,,,,Gated Community,Ahmedabad,Ahmedabad,,,,"Sardar Patel Ring Road, Vaishnodevi Cir, Ahmedabad, Gujarat",,380001,,"23.134008,72.54727",,249,,,,,,,,,,,,,,,,,,,,,,,,,,,,,,,,,,,,,,,,https://www.magicbricks.com/shree-balaji-wind-park-vaishno-devi-ahmedabad-pdpid-4d4235303432383136
64,Pebble Bay,Welcome to Pebble Bay,,,,,,,,,,,,Gated Community,Ahmedabad,Ahmedabad,,,,"Chandkheda, Ahmedabad.",,380005,,"23.109898,72.584435",,221,,,,,,,,,,,,,,,,,,,,,,,,,,,,,,,,,,,,,,,,https://www.magicbricks.com/pebble-bay-chandkheda-ahmedabad-pdpid-4d4235303231323930
65,Popular Domain,Welcome to Popular Domain,,,,,,,,,,,,Gated Community,Ahmedabad,Ahmedabad,,,,"Opp Hyderabad Biryani House, Near Devashish Business Park, Satellite, S.G. Highway, Ahmadabad.",,380054,,"23.032188,72.51022",,66,,,,,,,,,,,,,,,,,,,,,,,,,,,,,,,,,,,,,,,,https://www.magicbricks.com/popular-domain-sg-highway-ahmedabad-pdpid-4d4235303734343136
66,Orchid Elegance,Welcome to Orchid Elegance,,,,,,,,,,,,Gated Community,Ahmedabad,Ahmedabad,,,,"120, S Bopal Main Rd, Chittavan, South Bopal, Bopal, Ahmedabad, Gujarat",,380058,,"23.017311,72.46939",,432,,,,,,,,,,,,,,,,,,,,,,,,,,,,,,,,,,,,,,,,https://www.magicbricks.com/orchid-elegance-south-bopal-ahmedabad-pdpid-4d4235303339383839
67,Orchid Paradise,Welcome to Orchid Paradise,,,,,,,,,,,,Gated Community,Ahmedabad,Ahmedabad,,,,"NR. AAROHI VILLA, SOUTH BOPAL ,F.P. NO. 160, BL. NO. 489, Village Bopal, Taluka Daskroi",,380058,,"23.017605,72.47043",,288,,,,,,,,,,,,,,,,,,,,,,,,,,,,,,,,,,,,,,,,https://www.magicbricks.com/orchid-paradise-south-bopal-ahmedabad-pdpid-4d4235303236363937
68,Al Burooj,Welcome to Al Burooj,,,,,,,,,,,,Gated Community,Ahmedabad,Ahmedabad,,,,"makarba road, off. s.g. highway, Ahmadabad",,380051,,"22.993168,72.51821",,472,,,,,,,,,,,,,,,,,,,,,,,,,,,,,,,,,,,,,,,,https://www.magicbricks.com/al-burooj-makarba-road-ahmedabad-pdpid-4d4235303339333030
69,31 Ivy,Welcome to 31 Ivy,,,,,,,,,,,,Gated Community,Ahmedabad,Ahmedabad,,,,"Bodakdev, Ahmedabad, Gujarat",,380054,,"23.043028,72.51088",,18,,,,,,,,,,,,,,,,,,,,,,,,,,,,,,,,,,,,,,,,https://www.magicbricks.com/31-ivy-bodakdev-ahmedabad-pdpid-4d4235323035363637
70,Shaligram Lakeview,Welcome to Shaligram Lakeview,,,,,,,,,,,,Gated Community,Ahmedabad,Ahmedabad,,,,"Vaishnodevi Cir, Ahmedabad, Gujarat",,380001,,"23.137062,72.54962",,523,,,,,,,,,,,,,,,,,,,,,,,,,,,,,,,,,,,,,,,,https://www.magicbricks.com/shaligram-lakeview-vaishno-devi-ahmedabad-pdpid-4d4235303139373130
71,Applewood Estate Satyesh Residency,Welcome to Applewood Estate Satyesh Residency,,,,,,,,,,,,Gated Community,Ahmedabad,Ahmedabad,,,,"Shantipura Cross Road, Sarkhej-Sa0d Road",,380058,,"22.988337,72.46284",,1150,,,,,,,,,,,,,,,,,,,,,,,,,,,,,,,,,,,,,,,,https://www.magicbricks.com/applewood-estate-satyesh-residency-bopal-ahmedabad-pdpid-4d4235303732373539
72,Silver Star 1,Welcome to Silver Star 1,,,,,,,,,,,,Gated Community,Ahmedabad,Ahmedabad,,,,0,,380061,,"23.082914,72.546394",,0,,,,,,,,,,,,,,,,,,,,,,,,,,,,,,,,,,,,,,,,https://www.magicbricks.com/silver-star-1-chandlodia-ahmedabad-pdpid-4d4235313834313533
73,Dharti Exotica,Welcome to Dharti Exotica,,,,,,,,,,,,Gated Community,Ahmedabad,Ahmedabad,,,,0,,380005,,"23.112467,72.58168",,133,,,,,,,,,,,,,,,,,,,,,,,,,,,,,,,,,,,,,,,,https://www.magicbricks.com/dharti-exotica-chandkheda-ahmedabad-pdpid-4d4235313534393539
74,Sereno Sparkles,Welcome to Sereno Sparkles,,,,,,,,,,,,Gated Community,Ahmedabad,Ahmedabad,,,,"Ahmedabad, Gujarat",,380001,,"23.048183,72.47623",,77,,,,,,,,,,,,,,,,,,,,,,,,,,,,,,,,,,,,,,,,https://www.magicbricks.com/sereno-sparkles-thol-road-ahmedabad-pdpid-4d4235323036353639
75,INDRAPRASTH 6,Welcome to INDRAPRASTH 6,,,,,,,,,,,,Gated Community,Ahmedabad,Ahmedabad,,,,"Prahlad Nagar, Ahmedabad, Gujarat",,380015,,"23.00893,72.509445",,0,,,,,,,,,,,,,,,,,,,,,,,,,,,,,,,,,,,,,,,,https://www.magicbricks.com/indraprasth-6-satellite-ahmedabad-pdpid-4d4235303234373132
76,Sakshat Bakeri City,Welcome to Sakshat Bakeri City,,,,,,,,,,,,Gated Community,Ahmedabad,Ahmedabad,,,,"Shri0d Nagar, Juhapura, Ahmedabad, Gujarat",,380051,,"22.998482,72.51727",,239,,,,,,,,,,,,,,,,,,,,,,,,,,,,,,,,,,,,,,,,https://www.magicbricks.com/sakshat-bakeri-city-vejalpur-ahmedabad-pdpid-4d4235303738303538
77,Sarjan Tower,Welcome to Sarjan Tower,,,,,,,,,,,,Gated Community,Ahmedabad,Ahmedabad,,,,"Memnagar, Ahmedabad.",,380052,,"23.050482,72.53543",,0,,,,,,,,,,,,,,,,,,,,,,,,,,,,,,,,,,,,,,,,https://www.magicbricks.com/sarjan-tower-memnagar-ahmedabad-pdpid-4d4235313230333933
78,Malabar County II,Welcome to Malabar County II,,,,,,,,,,,,Gated Community,Ahmedabad,Ahmedabad,,,,"Opp. Nirma University Cricket Ground, Nirma University Rd, Ahmedabad, Gujarat",,380054,,"23.128061,72.54885",,442,,,,,,,,,,,,,,,,,,,,,,,,,,,,,,,,,,,,,,,,https://www.magicbricks.com/malabar-county-ii-sg-highway-ahmedabad-pdpid-4d4235303639393738
79,Saujanya II,Welcome to Saujanya II,,,,,,,,,,,,Gated Community,Ahmedabad,Ahmedabad,,,,"Shri Khadubhai Desai Marg, Near Anupam Cinema, Khokhra, Ahmedabad, Gujarat",,380008,,"22.999434,72.616",,602,,,,,,,,,,,,,,,,,,,,,,,,,,,,,,,,,,,,,,,,https://www.magicbricks.com/saujanya-ii-khokhra-ahmedabad-pdpid-4d4235313233393337
80,Sky City,Welcome to Sky City,,,,,,,,,,,,Gated Community,Ahmedabad,Ahmedabad,,,,"Safal Profitaire, Corporate Road, Opp Auda Garden, Prahlad Nagar, Ahmedabad, Gujarat",,380058,,"23.009783,72.50561",,399,,,,,,,,,,,,,,,,,,,,,,,,,,,,,,,,,,,,,,,,https://www.magicbricks.com/sky-city-shela-ahmedabad-pdpid-4d4235313131333339
81,Sun Square,Welcome to Sun Square,,,,,,,,,,,,Gated Community,Ahmedabad,Ahmedabad,,,,"Umashankar Joshi Marg, Vasant Vihar, Gulbai Tekra, Ahmedabad, Gujarat",,380009,,"23.033117,72.55664",,50,,,,,,,,,,,,,,,,,,,,,,,,,,,,,,,,,,,,,,,,https://www.magicbricks.com/sun-square-navrangpura-ahmedabad-pdpid-4d4235303137363234
82,Akshar Villa,Welcome to Akshar Villa,,,,,,,,,,,,Gated Community,Ahmedabad,Ahmedabad,,,,"Near Advait Residency, Beside Shan 3, New Vatva, Ahmedabad.",,382405,,"22.939003,72.61623",,28,,,,,,,,,,,,,,,,,,,,,,,,,,,,,,,,,,,,,,,,https://www.magicbricks.com/akshar-villa-vatva-ahmedabad-pdpid-4d4235303330343830
83,Garden Residency 1,Welcome to Garden Residency 1,,,,,,,,,,,,Gated Community,Ahmedabad,Ahmedabad,,,,"Chittavan, South Bopal, Bopal, Ahmedabad, Gujarat",,380058,,"23.024584,72.46579",,260,,,,,,,,,,,,,,,,,,,,,,,,,,,,,,,,,,,,,,,,https://www.magicbricks.com/garden-residency-1-south-bopal-ahmedabad-pdpid-4d4235303330383339
84,Agora Residency,Welcome to Agora Residency,,,,,,,,,,,,Gated Community,Ahmedabad,Ahmedabad,,,,0,,380058,,"23.119667,72.62539",,0,,,,,,,,,,,,,,,,,,,,,,,,,,,,,,,,,,,,,,,,https://www.magicbricks.com/agora-residency-tapovan-society-ahmedabad-pdpid-4d4235303330353533
85,Sukrut Repose,Welcome to Sukrut Repose,,,,,,,,,,,,Gated Community,Ahmedabad,Ahmedabad,,,,"Ambli, Ahmedabad.",,380058,,"23.025736,72.485275",,24,,,,,,,,,,,,,,,,,,,,,,,,,,,,,,,,,,,,,,,,https://www.magicbricks.com/sukrut-repose-ambli-bopal-road-ahmedabad-pdpid-4d4235303732353535
86,Vrundavan Skyline,Welcome to Vrundavan Skyline,,,,,,,,,,,,Gated Community,Ahmedabad,Ahmedabad,,,,"Opp. Akshardham Heights, Behind Reliance Petrol Pump, S.P Ring Road, Vastral, Ahmedabad",,382418,,"23.005136,72.67147",,252,,,,,,,,,,,,,,,,,,,,,,,,,,,,,,,,,,,,,,,,https://www.magicbricks.com/vrundavan-skyline-vastral-ahmedabad-pdpid-4d4235303839323035
87,Seventh Paradise,Welcome to Seventh Paradise,,,,,,,,,,,,Gated Community,Ahmedabad,Ahmedabad,,,,"Gota, Ahmedabad, Gujarat",,382481,,"23.100931,72.54193",,200,,,,,,,,,,,,,,,,,,,,,,,,,,,,,,,,,,,,,,,,https://www.magicbricks.com/seventh-paradise-gota-ahmedabad-pdpid-4d4235323036353337
88,Sun Sky Park,Welcome to Sun Sky Park,,,,,,,,,,,,Gated Community,Ahmedabad,Ahmedabad,,,,"SARDAR PATEL RING ROAD, BOPAL CIRCLE ,BOPAL",,380058,,"23.029848,72.47765",,252,,,,,,,,,,,,,,,,,,,,,,,,,,,,,,,,,,,,,,,,https://www.magicbricks.com/sun-sky-park-bopal-ahmedabad-pdpid-4d4235303933383033
89,Aaryan Opulence,Welcome to Aaryan Opulence,,,,,,,,,,,,Gated Community,Ahmedabad,Ahmedabad,,,,"BRTS Corridor, Ambli, Ahmedabad, Gujarat",,380058,,"23.028687,72.487595",,80,,,,,,,,,,,,,,,,,,,,,,,,,,,,,,,,,,,,,,,,https://www.magicbricks.com/aaryan-opulence-ambli-ahmedabad-pdpid-4d4235303330343136
90,Binori Mable,Welcome to Binori Mable,,,,,,,,,,,,Gated Community,Ahmedabad,Ahmedabad,,,,"Corporate Rd, Prahlad Nagar, Ahmedabad, Gujarat",,380015,,"23.007196,72.506584",,50,,,,,,,,,,,,,,,,,,,,,,,,,,,,,,,,,,,,,,,,https://www.magicbricks.com/binori-mable-prahlad-nagar-ahmedabad-pdpid-4d4235313031303439
91,Adani Pratham,Welcome to Adani Pratham,,,,,,,,,,,,Gated Community,Ahmedabad,Ahmedabad,,,,"SG Highway,Ahmedabad,Gujarat",,380054,,"23.13123,72.551025",,800,,,,,,,,,,,,,,,,,,,,,,,,,,,,,,,,,,,,,,,,https://www.magicbricks.com/adani-pratham-sg-highway-ahmedabad-pdpid-4d4235303339323934
92,Orchard Godrej Garden City,Welcome to Orchard Godrej Garden City,,,,,,,,,,,,Gated Community,Ahmedabad,Ahmedabad,,,,"Orchard G, Godrej Garden City, Chandkheda",,380054,,"23.115871,72.55413",,0,,,,,,,,,,,,,,,,,,,,,,,,,,,,,,,,,,,,,,,,https://www.magicbricks.com/orchard-godrej-garden-city-sg-highway-ahmedabad-pdpid-4d4235303736383034
93,Vishal Residency,Welcome to Vishal Residency,,,,,,,,,,,,Gated Community,Ahmedabad,Ahmedabad,,,,"Satellite, Ahmedabad.",,380015,,"23.01549,72.511475",,144,,,,,,,,,,,,,,,,,,,,,,,,,,,,,,,,,,,,,,,,https://www.magicbricks.com/vishal-residency-satellite-ahmedabad-pdpid-4d4235303836343137
94,Orchid Mayfair,Welcome to Orchid Mayfair,,,,,,,,,,,,Gated Community,Ahmedabad,Ahmedabad,,,,"Makarba, Ahmedabad, Gujarat",,380015,,"22.998676,72.5032",,33,,,,,,,,,,,,,,,,,,,,,,,,,,,,,,,,,,,,,,,,https://www.magicbricks.com/orchid-mayfair-prahlad-nagar-ahmedabad-pdpid-4d4235303833343338
95,Silver Brook,Welcome to Silver Brook,,,,,,,,,,,,Gated Community,Ahmedabad,Ahmedabad,,,,"Shilaj, Ahmedabad.",,380058,,"23.061243,72.47876",,100,,,,,,,,,,,,,,,,,,,,,,,,,,,,,,,,,,,,,,,,https://www.magicbricks.com/silver-brook-shilaj-ahmedabad-pdpid-4d4235303935363231
96,Satellite Apartment,Welcome to Satellite Apartment,,,,,,,,,,,,Gated Community,Ahmedabad,Ahmedabad,,,,0,,380015,,"23.029482,72.51949",,0,,,,,,,,,,,,,,,,,,,,,,,,,,,,,,,,,,,,,,,,https://www.magicbricks.com/satellite-apartment-satellite-ahmedabad-pdpid-4d4235313535313035
97,Samay Shine,Welcome to Samay Shine,,,,,,,,,,,,Gated Community,Ahmedabad,Ahmedabad,,,,"Ghuma, Ahmedabad",,380058,,"23.02186,72.46415",,64,,,,,,,,,,,,,,,,,,,,,,,,,,,,,,,,,,,,,,,,https://www.magicbricks.com/samay-shine-shela-ahmedabad-pdpid-4d4235313139303337
98,Sankalp Serenity,Welcome to Sankalp Serenity,,,,,,,,,,,,Gated Community,Ahmedabad,Ahmedabad,,,,"Nr. Gandhi Ashram, RTO Circle, Ashram Road, Ahmedabad.",,380059,,"23.045639,72.501945",,60,,,,,,,,,,,,,,,,,,,,,,,,,,,,,,,,,,,,,,,,https://www.magicbricks.com/sankalp-serenity-thaltej-ahmedabad-pdpid-4d4235303138353730
99,Kaveri Sangam,Welcome to Kaveri Sangam,,,,,,,,,,,,Gated Community,Ahmedabad,Ahmedabad,,,,"KAVERI SANGAM, SHILAJ CIRCLE ,SP RING ROAD, SHILAJ",,380058,,"23.051811,72.479385",,224,,,,,,,,,,,,,,,,,,,,,,,,,,,,,,,,,,,,,,,,https://www.magicbricks.com/kaveri-sangam-shilaj-ahmedabad-pdpid-4d4235303730393839
100,Divyapunj Shalom,Welcome to Divyapunj Shalom,,,,,,,,,,,,Gated Community,Ahmedabad,Ahmedabad,,,,"opp. Parmeshwar 3, nr. gokul annexe, b/h. satyamev hospital, Chandkheda, Ahmadabad.",,380005,,"23.119804,72.57424",,120,,,,,,,,,,,,,,,,,,,,,,,,,,,,,,,,,,,,,,,,https://www.magicbricks.com/divyapunj-shalom-chandkheda-ahmedabad-pdpid-4d4235303734373136
101,Sukhsagar Complex,Welcome to Sukhsagar Complex,,,,,,,,,,,,Gated Community,Ahmedabad,Ahmedabad,,,,"Ashram Rd, Shanti Nagar, Usmanpura, Ahmedabad, Gujarat",,380005,,"23.048407,72.57076",,0,,,,,,,,,,,,,,,,,,,,,,,,,,,,,,,,,,,,,,,,https://www.magicbricks.com/sukhsagar-complex-maninagar-west-ahmedabad-pdpid-4d4235313939343139
102,Devnandan Infinity,Welcome to Devnandan Infinity,,,,,,,,,,,,Gated Community,Ahmedabad,Ahmedabad,,,,"Dev0dan Infinity, Behind, D- Mart & Balaji Residency, Parvati Nagar, Motera, Ahmedabad, Gujarat",,380005,,"23.098118,72.59512",,180,,,,,,,,,,,,,,,,,,,,,,,,,,,,,,,,,,,,,,,,https://www.magicbricks.com/devnandan-infinity-motera-ahmedabad-pdpid-4d4235303031303536
103,Savvy Solaris,Welcome to Savvy Solaris,,,,,,,,,,,,Gated Community,Ahmedabad,Ahmedabad,,,,"Gandhi Nagar Rd, Parvati Nagar, Motera, Ahmedabad, Gujarat",,380005,,"23.100586,72.59501",,340,,,,,,,,,,,,,,,,,,,,,,,,,,,,,,,,,,,,,,,,https://www.magicbricks.com/savvy-solaris-motera-ahmedabad-pdpid-4d4235303030323930
104,Dev Paradise,Welcome to Dev Paradise,,,,,,,,,,,,Gated Community,Ahmedabad,Ahmedabad,,,,"Mansarovar Rd, Chandkheda, Ahmedabad, Gujarat",,380005,,"23.118944,72.56797",,100,,,,,,,,,,,,,,,,,,,,,,,,,,,,,,,,,,,,,,,,https://www.magicbricks.com/dev-paradise-chandkheda-ahmedabad-pdpid-4d4235303137393330
105,Orchid Heights,Welcome to Orchid Heights,,,,,,,,,,,,Gated Community,Ahmedabad,Ahmedabad,,,,"Sardar Patel Ring Road, Ahmedabad.",,382470,,"22.995136,72.466576",,272,,,,,,,,,,,,,,,,,,,,,,,,,,,,,,,,,,,,,,,,https://www.magicbricks.com/orchid-heights-sardar-patel-ring-road-ahmedabad-pdpid-4d4235303739343530
106,Dev Apartment,Welcome to Dev Apartment,,,,,,,,,,,,Gated Community,Ahmedabad,Ahmedabad,,,,0,,382470,,"23.040129,72.55458",,0,,,,,,,,,,,,,,,,,,,,,,,,,,,,,,,,,,,,,,,,https://www.magicbricks.com/dev-apartment-navrangpura-ahmedabad-pdpid-4d4235303935323837
107,Indrapasth Gulmohar,Welcome to Indrapasth Gulmohar,,,,,,,,,,,,Gated Community,Ahmedabad,Ahmedabad,,,,"Nr. ITC Narmada, B/H Keshavbaug Party Plot, Vastrapur, Ahmedabad, Gujarat",,380015,,"23.031187,72.530174",,117,,,,,,,,,,,,,,,,,,,,,,,,,,,,,,,,,,,,,,,,https://www.magicbricks.com/indrapasth-gulmohar-vastrapur-ahmedabad-pdpid-4d4235313132353833
108,STANZA,Welcome to STANZA,,,,,,,,,,,,Gated Community,Ahmedabad,Ahmedabad,,,,"STANZA ON F.P. NO. 50/1, SURVEY NO. 318/1, T.P.S. NO. 1(SHELA) ,SHELA",,380058,,"23.01053,72.459206",,316,,,,,,,,,,,,,,,,,,,,,,,,,,,,,,,,,,,,,,,,https://www.magicbricks.com/stanza-shela-ahmedabad-pdpid-4d4235303934363931
109,surel Apartment,Welcome to surel Apartment,,,,,,,,,,,,Gated Community,Ahmedabad,Ahmedabad,,,,"Premchandnagar Road, Satellite, Bodakdev, Ahmedabad, Gujarat",,380054,,"23.032303,72.51263",,200,,,,,,,,,,,,,,,,,,,,,,,,,,,,,,,,,,,,,,,,https://www.magicbricks.com/surel-apartment-bodakdev-ahmedabad-pdpid-4d4235313939373435
110,Indraprasth Drive In,Welcome to Indraprasth Drive In,,,,,,,,,,,,Gated Community,Ahmedabad,Ahmedabad,,,,0,,380054,,"23.047016,72.53016",,700,,,,,,,,,,,,,,,,,,,,,,,,,,,,,,,,,,,,,,,,https://www.magicbricks.com/indraprasth-drive-in-drive-in-road-ahmedabad-pdpid-4d4235303330313634
111,Aastha square,Welcome to Aastha square,,,,,,,,,,,,Gated Community,Ahmedabad,Ahmedabad,,,,"opp. Aastha -64, nr. Surya hope town, B/H. satyamev hospital, Chandkheda, Ahmadabad.",,380005,,"23.119358,72.58029",,126,,,,,,,,,,,,,,,,,,,,,,,,,,,,,,,,,,,,,,,,https://www.magicbricks.com/aastha-square-chandkheda-ahmedabad-pdpid-4d4235303836323331
112,RJ Prime,Welcome to RJ Prime,,,,,,,,,,,,Gated Community,Ahmedabad,Ahmedabad,,,,"Zundal, Ahmedabad",,382421,,"23.134935,72.57903",,89,,,,,,,,,,,,,,,,,,,,,,,,,,,,,,,,,,,,,,,,https://www.magicbricks.com/rj-prime-zundal-ahmedabad-pdpid-4d4235313235383731
113,Green Aura,Welcome to Green Aura,,,,,,,,,,,,Gated Community,Ahmedabad,Ahmedabad,,,,"Behind Styamev Hospital, TP No. 69, Tragad Road, Chandkheda, Ahmedabad, Gujarat",,380005,,"23.120335,72.56847",,150,,,,,,,,,,,,,,,,,,,,,,,,,,,,,,,,,,,,,,,,https://www.magicbricks.com/green-aura-chandkheda-ahmedabad-pdpid-4d4235303237373636
114,Tulsi Villa,Welcome to Tulsi Villa,,,,,,,,,,,,Gated Community,Ahmedabad,Ahmedabad,,,,"Narolgam, Ahmedabad.",,382405,,"22.950264,72.59895",,28,,,,,,,,,,,,,,,,,,,,,,,,,,,,,,,,,,,,,,,,https://www.magicbricks.com/tulsi-villa-narolgam-ahmedabad-pdpid-4d4235303733383232
115,The Meadows,Welcome to The Meadows,,,,,,,,,,,,Gated Community,Ahmedabad,Ahmedabad,,,,"Sanathal, Ahmadabad-Sa0d Road, Sanathal, Ahmedabad",,382210,,"22.980688,72.45803",,315,,,,,,,,,,,,,,,,,,,,,,,,,,,,,,,,,,,,,,,,https://www.magicbricks.com/the-meadows-sanathal-ahmedabad-pdpid-4d4235303733303032
116,Goyal Intercity,Welcome to Goyal Intercity,,,,,,,,,,,,Gated Community,Ahmedabad,Ahmedabad,,,,"Nilmani Society, Thaltej, Ahmedabad, Gujarat",,380052,,"23.048923,72.52649",,0,,,,,,,,,,,,,,,,,,,,,,,,,,,,,,,,,,,,,,,,https://www.magicbricks.com/goyal-intercity-memnagar-ahmedabad-pdpid-4d4235313032353931
117,Maruti Plaza,Welcome to Maruti Plaza,,,,,,,,,,,,Gated Community,Ahmedabad,Ahmedabad,,,,"Nr Alpha Square, Chandkheda-Jundal Road, Chandkheda",,380005,,"23.122656,72.586105",,65,,,,,,,,,,,,,,,,,,,,,,,,,,,,,,,,,,,,,,,,https://www.magicbricks.com/maruti-plaza-chandkheda-ahmedabad-pdpid-4d4235303739353938
118,Vishwanath Sopan,Welcome to Vishwanath Sopan,,,,,,,,,,,,Gated Community,Ahmedabad,Ahmedabad,,,,"Opp Club 07,Sky City Road,Sardar Patel Ring Road, Ahmedabad.",,382470,,"23.028585,72.47699",,196,,,,,,,,,,,,,,,,,,,,,,,,,,,,,,,,,,,,,,,,https://www.magicbricks.com/vishwanath-sopan-sardar-patel-ring-road-ahmedabad-pdpid-4d4235303836353938
119,Himalaya Elanza,Welcome to Himalaya Elanza,,,,,,,,,,,,Gated Community,Ahmedabad,Ahmedabad,,,,"RTO Circle, Ahmedabad.",,380027,,"23.052454,72.52001",,72,,,,,,,,,,,,,,,,,,,,,,,,,,,,,,,,,,,,,,,,https://www.magicbricks.com/himalaya-elanza-rto-circle-ahmedabad-pdpid-4d4235303739343034
120,Om Shanti Bungalows And Row Houses,Welcome to Om Shanti Bungalows And Row Houses,,,,,,,,,,,,Gated Community,Ahmedabad,Ahmedabad,,,,"Nr. Ayodhya Apartment, Opp. Siddhant Row House, New Vatva, Ahmedabad.",,382405,,"22.943619,72.61083",,192,,,,,,,,,,,,,,,,,,,,,,,,,,,,,,,,,,,,,,,,https://www.magicbricks.com/om-shanti-bungalows-and-row-houses-vatva-ahmedabad-pdpid-4d4235303733373039
121,The Meadows,Welcome to The Meadows,,,,,,,,,,,,Gated Community,Ahmedabad,Ahmedabad,,,,0,,380054,,"19.159285,72.84172",,309,,,,,,,,,,,,,,,,,,,,,,,,,,,,,,,,,,,,,,,,https://www.magicbricks.com/the-meadows-sg-highway-ahmedabad-pdpid-4d4235303236303235
122,Madhuram Exotica,Welcome to Madhuram Exotica,,,,,,,,,,,,Gated Community,Ahmedabad,Ahmedabad,,,,"opposite New Baliyadev temple, near Real Aura, Chandkheda, Ahmedabad, Gujarat",,380005,,"23.112467,72.58168",,1,,,,,,,,,,,,,,,,,,,,,,,,,,,,,,,,,,,,,,,,https://www.magicbricks.com/madhuram-exotica-chandkheda-ahmedabad-pdpid-4d4235333138313431
123,Sandalwood,Welcome to Sandalwood,,,,,,,,,,,,Gated Community,Ahmedabad,Ahmedabad,,,,"Sola, Ahmedabad, Gujarat",,380060,,"23.077934,72.51874",,48,,,,,,,,,,,,,,,,,,,,,,,,,,,,,,,,,,,,,,,,https://www.magicbricks.com/sandalwood-science-city-ahmedabad-pdpid-4d4235323036363937
124,Adhisthan Apartments Thaltej,Welcome to Adhisthan Apartments Thaltej,,,,,,,,,,,,Gated Community,Ahmedabad,Ahmedabad,,,,"Railway Station, Thaltej - Shilaj Rd, Opp Ambli Road, Thaltej, Ahmedabad, Gujarat",,380059,,"23.05294,72.49395",,0,,,,,,,,,,,,,,,,,,,,,,,,,,,,,,,,,,,,,,,,https://www.magicbricks.com/adhisthan-apartments-thaltej-thaltej-ahmedabad-pdpid-4d4235323032313935
125,Sanskar Residency,Welcome to Sanskar Residency,,,,,,,,,,,,Gated Community,Ahmedabad,Ahmedabad,,,,"Nr. Shanti Pujya Homes, Opp. Madhav Residency, Chandlodia, Ahmedabad.",,380061,,"23.086456,72.54774",,56,,,,,,,,,,,,,,,,,,,,,,,,,,,,,,,,,,,,,,,,https://www.magicbricks.com/sanskar-residency-chandlodia-ahmedabad-pdpid-4d4235303734343739
126,Savvy Swaraj,Welcome to Savvy Swaraj,,,,,,,,,,,,Gated Community,Ahmedabad,Ahmedabad,,,,"Opp Godrej Garden City, S G Highway, Ahmedabad",,382470,,"23.105356,72.55099",,1020,,,,,,,,,,,,,,,,,,,,,,,,,,,,,,,,,,,,,,,,https://www.magicbricks.com/savvy-swaraj-jagatpur-ahmedabad-pdpid-4d4235303733323636
127,Shompole,Welcome to Shompole,,,,,,,,,,,,Gated Community,Ahmedabad,Ahmedabad,,,,0,,382470,,"23.044767,72.5037",,0,,,,,,,,,,,,,,,,,,,,,,,,,,,,,,,,,,,,,,,,https://www.magicbricks.com/shompole-thaltej-ahmedabad-pdpid-4d4235303832313839
128,Surya Emerald,Welcome to Surya Emerald,,,,,,,,,,,,Gated Community,Ahmedabad,Ahmedabad,,,,"Iskon-Ambli Road, Ahmedabad.",,380058,,"23.027433,72.487045",,104,,,,,,,,,,,,,,,,,,,,,,,,,,,,,,,,,,,,,,,,https://www.magicbricks.com/surya-emerald-iskon-ambli-road-ahmedabad-pdpid-4d4235303932323939
129,Sun South Park,Welcome to Sun South Park,,,,,,,,,,,,Gated Community,Ahmedabad,Ahmedabad,,,,"South Bopal, Ahmedabad.",,380058,,"23.01581,72.47177",,232,,,,,,,,,,,,,,,,,,,,,,,,,,,,,,,,,,,,,,,,https://www.magicbricks.com/sun-south-park-south-bopal-ahmedabad-pdpid-4d4235303835393835
130,Avaneesh Heights,Welcome to Avaneesh Heights,,,,,,,,,,,,Gated Community,Ahmedabad,Ahmedabad,,,,"Shilaj Circle, Near, Sardar Patel Ring Rd, Ahmedabad, Gujarat",,380058,,"23.056015,72.48026",,100,,,,,,,,,,,,,,,,,,,,,,,,,,,,,,,,,,,,,,,,https://www.magicbricks.com/avaneesh-heights-shilaj-ahmedabad-pdpid-4d4235323033333431
131,Shakti 140,Welcome to Shakti 140,,,,,,,,,,,,Gated Community,Ahmedabad,Ahmedabad,,,,"Shakti 140, Opposite Home Town, Near S. G. Mall,, Near Thaltej-Crossroad, Bhaikakanagar, Thaltej, Ahmedabad, Gujarat",,380059,,"23.05005,72.51377",,96,,,,,,,,,,,,,,,,,,,,,,,,,,,,,,,,,,,,,,,,https://www.magicbricks.com/shakti-140-thaltej-ahmedabad-pdpid-4d4235303932313733
132,Scarlet Heights,Welcome to Scarlet Heights,,,,,,,,,,,,Gated Community,Ahmedabad,Ahmedabad,,,,"100 Feet A0d Nagar Rd, opposite Sukirti Park, Satellite, Jodhpur Village, Ahmedabad, Gujarat",,380015,,"23.011967,72.51771",,168,,,,,,,,,,,,,,,,,,,,,,,,,,,,,,,,,,,,,,,,https://www.magicbricks.com/scarlet-heights-satellite-ahmedabad-pdpid-4d4235303737343731
133,Kaveri Pratham,Welcome to Kaveri Pratham,,,,,,,,,,,,Gated Community,Ahmedabad,Ahmedabad,,,,"Kaveri Pratham, Ambli - Shilaj S P Ring Road, Nr.Shilaj Over Bridge, , Shilaj, Ahmedabad",,380058,,"23.046146,72.4774",,165,,,,,,,,,,,,,,,,,,,,,,,,,,,,,,,,,,,,,,,,https://www.magicbricks.com/kaveri-pratham-shilaj-ahmedabad-pdpid-4d4235303836363138
134,Satva Elegance,Welcome to Satva Elegance,,,,,,,,,,,,Gated Community,Ahmedabad,Ahmedabad,,,,"Opp Swastik Palace, Gota- Chandlodia Road, Chandlodia, Ahmedabad",,380061,,"23.083275,72.546776",,131,,,,,,,,,,,,,,,,,,,,,,,,,,,,,,,,,,,,,,,,https://www.magicbricks.com/satva-elegance-chandlodia-ahmedabad-pdpid-4d4235303733393138
135,Swastik Eminence,Welcome to Swastik Eminence,,,,,,,,,,,,Gated Community,Ahmedabad,Ahmedabad,,,,"Shela, Ahmedabad",,380058,,"23.004011,72.45393",,60,,,,,,,,,,,,,,,,,,,,,,,,,,,,,,,,,,,,,,,,https://www.magicbricks.com/swastik-eminence-shela-ahmedabad-pdpid-4d4235313233353131
136,Suvas Oram,Welcome to Suvas Oram,,,,,,,,,,,,Gated Community,Ahmedabad,Ahmedabad,,,,"Gokul Nagar, Adinath Nagar, Odhav, Ahmedabad, Gujarat",,380038,,"23.021332,72.66948",,250,,,,,,,,,,,,,,,,,,,,,,,,,,,,,,,,,,,,,,,,https://www.magicbricks.com/suvas-oram-odhav-ahmedabad-pdpid-4d4235303237383732
137,Aashna Apartment,Welcome to Aashna Apartment,,,,,,,,,,,,Gated Community,Ahmedabad,Ahmedabad,,,,"Opp Behind Shell Petrol Pump,, 100 Feet Rd, Prahlad Nagar, Ahmedabad, Gujarat",,380015,,"23.011904,72.51272",,0,,,,,,,,,,,,,,,,,,,,,,,,,,,,,,,,,,,,,,,,https://www.magicbricks.com/aashna-apartment-satellite-road-ahmedabad-pdpid-4d4235323032313233
138,Arvind Citadel,Welcome to Arvind Citadel,,,,,,,,,,,,Gated Community,Ahmedabad,Ahmedabad,,,,"Plot No-162, Nr. BSNL Office,Off C.G. Road, Navrangpura, Ahmedabad-380009",,380009,,"23.031067,72.557655",,58,,,,,,,,,,,,,,,,,,,,,,,,,,,,,,,,,,,,,,,,https://www.magicbricks.com/arvind-citadel-chimanlal-girdharlal-road-ahmedabad-pdpid-4d4235303331323035
139,Riviera Harmony,Welcome to Riviera Harmony,,,,,,,,,,,,Gated Community,Ahmedabad,Ahmedabad,,,,"Corporate Rd, Prahlad Nagar, Ahmedabad, Gujarat",,380015,,"23.006699,72.5054",,48,,,,,,,,,,,,,,,,,,,,,,,,,,,,,,,,,,,,,,,,https://www.magicbricks.com/riviera-harmony-prahlad-nagar-ahmedabad-pdpid-4d4235303339393739
140,SHARNAM COUNTY,Welcome to SHARNAM COUNTY,,,,,,,,,,,,Gated Community,Ahmedabad,Ahmedabad,,,,"Chittavan, South Bopal, Bopal, Ahmedabad, Gujarat",,380058,,"23.024212,72.46892",,120,,,,,,,,,,,,,,,,,,,,,,,,,,,,,,,,,,,,,,,,https://www.magicbricks.com/sharnam-county-bopal-ahmedabad-pdpid-4d4235303239303536
141,Nirmal Exotica,Welcome to Nirmal Exotica,,,,,,,,,,,,Gated Community,Ahmedabad,Ahmedabad,,,,"Behind Chandkheda Bus-Stand, Beside Hardin Tenament, Chandkheda, Ahmedabad.",,382424,,"23.115803,72.58546",,80,,,,,,,,,,,,,,,,,,,,,,,,,,,,,,,,,,,,,,,,https://www.magicbricks.com/nirmal-exotica-new-c-g-road-ahmedabad-pdpid-4d4235303230313034
142,Orchid Green Field,Welcome to Orchid Green Field,,,,,,,,,,,,Gated Community,Ahmedabad,Ahmedabad,,,,"Applewood Township, S.P Ring Road, Ahmedabad.",,382470,,"22.995544,72.46571",,640,,,,,,,,,,,,,,,,,,,,,,,,,,,,,,,,,,,,,,,,https://www.magicbricks.com/orchid-green-field-sardar-patel-ring-road-ahmedabad-pdpid-4d4235303734333939
143,Aaryan Embassy,Welcome to Aaryan Embassy,,,,,,,,,,,,Gated Community,Ahmedabad,Ahmedabad,,,,"Rajpath Club, Nr Swaminarayan Temple, S. P. Ring Road, kalibari Cross Road, Ambli, Ahmedabad, Gujara",,380058,,"23.03658,72.47829",,136,,,,,,,,,,,,,,,,,,,,,,,,,,,,,,,,,,,,,,,,https://www.magicbricks.com/aaryan-embassy-ambli-ahmedabad-pdpid-4d4235323032303339
144,Satyamev Vista,Welcome to Satyamev Vista,,,,,,,,,,,,Gated Community,Ahmedabad,Ahmedabad,,,,"Satyamev Vista, Gota Cross Road, Sarkhej - Gandhinagar Hwy, Gota, Ahmedabad, Gujarat",,380054,,"23.10035,72.53378",,356,,,,,,,,,,,,,,,,,,,,,,,,,,,,,,,,,,,,,,,,https://www.magicbricks.com/satyamev-vista-sg-highway-ahmedabad-pdpid-4d4235303137323436
145,Belvista,Welcome to Belvista,,,,,,,,,,,,Gated Community,Ahmedabad,Ahmedabad,,,,"Ambli, Ahmedabad, Gujarat",,380058,,"23.030354,72.48555",,54,,,,,,,,,,,,,,,,,,,,,,,,,,,,,,,,,,,,,,,,https://www.magicbricks.com/belvista-iskon-ambli-road-ahmedabad-pdpid-4d4235303931303737
146,Sarovar IV,Welcome to Sarovar IV,,,,,,,,,,,,Gated Community,Ahmedabad,Ahmedabad,,,,"Sardar Patel Ring Rd, Opp RAF camp, Vastral, Ahmedabad, Gujarat",,382418,,"22.997559,72.663414",,0,,,,,,,,,,,,,,,,,,,,,,,,,,,,,,,,,,,,,,,,https://www.magicbricks.com/sarovar-iv-vastral-ahmedabad-pdpid-4d4235333138343437
147,Richmond Grand Phase II,Welcome to Richmond Grand Phase II,,,,,,,,,,,,Gated Community,Ahmedabad,Ahmedabad,,,,"Makarba, Ahmedabad",,380051,,"23.001066,72.50911",,60,,,,,,,,,,,,,,,,,,,,,,,,,,,,,,,,,,,,,,,,https://www.magicbricks.com/richmond-grand-phase-ii-makarba-ahmedabad-pdpid-4d4235313135303737
148,Aagam 99 Residency,Welcome to Aagam 99 Residency,,,,,,,,,,,,Gated Community,Ahmedabad,Ahmedabad,,,,"Sachana town, Nr. Sachana bypass, Sachana-Viramgam state highway, Sachana",,382110,,"23.056042,72.18076",,1254,,,,,,,,,,,,,,,,,,,,,,,,,,,,,,,,,,,,,,,,https://www.magicbricks.com/aagam-99-residency-sanand-ahmedabad-pdpid-4d4235303136393530
149,Elysium Towers,Welcome to Elysium Towers,,,,,,,,,,,,Gated Community,Ahmedabad,Ahmedabad,,,,0,,380001,,"23.138462,72.544395",,2000,,,,,,,,,,,,,,,,,,,,,,,,,,,,,,,,,,,,,,,,https://www.magicbricks.com/elysium-towers-vaishno-devi-ahmedabad-pdpid-4d4235303236323635
150,Riverside Park,Welcome to Riverside Park,,,,,,,,,,,,Gated Community,Ahmedabad,Ahmedabad,,,,"Opp. Lane of APMC Market, shantabag society, Vasna",,382460,,"22.996315,72.53725",,652,,,,,,,,,,,,,,,,,,,,,,,,,,,,,,,,,,,,,,,,https://www.magicbricks.com/riverside-park-vasna-ahmedabad-pdpid-4d4235303239383432
151,Kavisha Urbania,Welcome to Kavisha Urbania,,,,,,,,,,,,Gated Community,Ahmedabad,Ahmedabad,,,,"767, Extention Road, South Bopal, Bopal, Ahmedabad, Gujarat",,380058,,"23.017672,72.4637",,233,,,,,,,,,,,,,,,,,,,,,,,,,,,,,,,,,,,,,,,,https://www.magicbricks.com/kavisha-urbania-south-bopal-ahmedabad-pdpid-4d4235313139393033
152,Aditya Antrix,Welcome to Aditya Antrix,,,,,,,,,,,,Gated Community,Ahmedabad,Ahmedabad,,,,"Near sangath saundarya, visat-gandhinagar highway, new sabarmati, Chandkheda, Ahmadabad.",,382424,,"23.121052,72.60101",,140,,,,,,,,,,,,,,,,,,,,,,,,,,,,,,,,,,,,,,,,https://www.magicbricks.com/aditya-antrix-new-c-g-road-ahmedabad-pdpid-4d4235303739363635
153,Pinecrest Godrej Garden City,Welcome to Pinecrest Godrej Garden City,,,,,,,,,,,,Gated Community,Ahmedabad,Ahmedabad,,,,"Godrej Garden City Rd, New Chamunda Society, Godrej Garden City, Chandkheda",,380054,,"23.115526,72.55535",,264,,,,,,,,,,,,,,,,,,,,,,,,,,,,,,,,,,,,,,,,https://www.magicbricks.com/pinecrest-godrej-garden-city-sg-highway-ahmedabad-pdpid-4d4235303736373839
154,Aman Apartment,Welcome to Aman Apartment,,,,,,,,,,,,Gated Community,Ahmedabad,Ahmedabad,,,,"Near Lal Gebi Circle, Hathijan Mahemdavad Road, Hathijan, Ahmedabad.",,382445,,"22.940702,72.67024",,140,,,,,,,,,,,,,,,,,,,,,,,,,,,,,,,,,,,,,,,,https://www.magicbricks.com/aman-apartment-hathijan-ahmedabad-pdpid-4d4235303734313637
155,Sangath 4,Welcome to Sangath 4,,,,,,,,,,,,Gated Community,Ahmedabad,Ahmedabad,,,,"Sangath 4, Motera, Gandhinagar, Gujrat",,380005,,"23.096258,72.59673",,78,,,,,,,,,,,,,,,,,,,,,,,,,,,,,,,,,,,,,,,,https://www.magicbricks.com/sangath-4-motera-ahmedabad-pdpid-4d4235323637313031
156,The Meadows,Welcome to The Meadows,,,,,,,,,,,,Gated Community,Ahmedabad,Ahmedabad,,,,"Shantigram ,Nr.Vaishnodevi Circle, S.G.Highway,",,380001,,"23.160295,72.54103",,2048,,,,,,,,,,,,,,,,,,,,,,,,,,,,,,,,,,,,,,,,https://www.magicbricks.com/the-meadows-vaishno-devi-ahmedabad-pdpid-4d4235303732333430
157,Vibrant Silver I,Welcome to Vibrant Silver I,,,,,,,,,,,,Gated Community,Ahmedabad,Ahmedabad,,,,"Nr. Baleshwar Bungalows, Jain Derasar, India Colony, Bopal, Ahmadabad.",,380058,,"23.03461,72.46091",,117,,,,,,,,,,,,,,,,,,,,,,,,,,,,,,,,,,,,,,,,https://www.magicbricks.com/vibrant-silver-i-bopal-ahmedabad-pdpid-4d4235303432383432
158,Pruthvi Tower,Welcome to Pruthvi Tower,,,,,,,,,,,,Gated Community,Ahmedabad,Ahmedabad,,,,0,,380058,,"23.0187,72.52149",,0,,,,,,,,,,,,,,,,,,,,,,,,,,,,,,,,,,,,,,,,https://www.magicbricks.com/pruthvi-tower-jodhpur-ahmedabad-pdpid-4d4235333135323535
159,Sachin Towers,Welcome to Sachin Towers,,,,,,,,,,,,Gated Community,Ahmedabad,Ahmedabad,,,,0,,380015,,"23.029482,72.51949",,0,,,,,,,,,,,,,,,,,,,,,,,,,,,,,,,,,,,,,,,,https://www.magicbricks.com/sachin-towers-satellite-ahmedabad-pdpid-4d4235313436323637
160,Satyesh Residency,Welcome to Satyesh Residency,,,,,,,,,,,,Gated Community,Ahmedabad,Ahmedabad,,,,"Sa0d - Sarkhej Rd, Shantipura, Ahmedabad, Gujarat",,382470,,"22.988491,72.46359",,1150,,,,,,,,,,,,,,,,,,,,,,,,,,,,,,,,,,,,,,,,https://www.magicbricks.com/satyesh-residency-sardar-patel-ring-road-ahmedabad-pdpid-4d4235303736303432
161,Applewoods Township,Welcome to Applewoods Township,,,,,,,,,,,,Gated Community,Ahmedabad,Ahmedabad,,,,"Sardar Patel Ring Road, Ahmedabad",,382470,,"22.993834,72.47125",,300,,,,,,,,,,,,,,,,,,,,,,,,,,,,,,,,,,,,,,,,https://www.magicbricks.com/applewoods-township-sardar-patel-ring-road-ahmedabad-pdpid-4d4235303330343937
162,Rajshree Heights,Welcome to Rajshree Heights,,,,,,,,,,,,Gated Community,Ahmedabad,Ahmedabad,,,,"A24, Chandra Vihar Society, Kailash Colony, Rabari Colony, Amraiwadi, Ahmedabad, Gujarat",,380038,,"22.997223,72.6368",,408,,,,,,,,,,,,,,,,,,,,,,,,,,,,,,,,,,,,,,,,https://www.magicbricks.com/rajshree-heights-ctm-ahmedabad-pdpid-4d4235313138323139
163,Shivalik Kirtisagar Apartment,Welcome to Shivalik Kirtisagar Apartment,,,,,,,,,,,,Gated Community,Ahmedabad,Ahmedabad,,,,0,,380038,,"23.03026,72.520134",,0,,,,,,,,,,,,,,,,,,,,,,,,,,,,,,,,,,,,,,,,https://www.magicbricks.com/shivalik-kirtisagar-apartment-satellite-ahmedabad-pdpid-4d4235313037373739
164,Milan Karnavati 4,Welcome to Milan Karnavati 4,,,,,,,,,,,,Gated Community,Ahmedabad,Ahmedabad,,,,"Opposite Aviraj Pinnacle, near Divine life school, Ahmedabad, Gujarat",,382405,,"22.952349,72.617836",,400,,,,,,,,,,,,,,,,,,,,,,,,,,,,,,,,,,,,,,,,https://www.magicbricks.com/milan-karnavati-4-vatva-ahmedabad-pdpid-4d4235333137343833
165,Adani Aangan,Welcome to Adani Aangan,,,,,,,,,,,,Gated Community,Ahmedabad,Ahmedabad,,,,"Shantigram, Nr. Vaishnodevi Circle, S.G Highway, Ahmedabad, Gujarat, India",,380054,,"23.161392,72.54449",,896,,,,,,,,,,,,,,,,,,,,,,,,,,,,,,,,,,,,,,,,https://www.magicbricks.com/adani-aangan-sg-highway-ahmedabad-pdpid-4d4235303237373532
166,Shubham 1,Welcome to Shubham 1,,,,,,,,,,,,Gated Community,Ahmedabad,Ahmedabad,,,,0,,382110,,"22.992493,72.37836",,180,,,,,,,,,,,,,,,,,,,,,,,,,,,,,,,,,,,,,,,,https://www.magicbricks.com/shubham-1-sanand-ahmedabad-pdpid-4d4235313633333437
167,Maher Homes 3,Welcome to Maher Homes 3,,,,,,,,,,,,Gated Community,Ahmedabad,Ahmedabad,,,,0,,380058,,"23.007318,72.45441",,112,,,,,,,,,,,,,,,,,,,,,,,,,,,,,,,,,,,,,,,,https://www.magicbricks.com/maher-homes-3-shela-ahmedabad-pdpid-4d4235313233393235
168,Devas Apartment,Welcome to Devas Apartment,,,,,,,,,,,,Gated Community,Ahmedabad,Ahmedabad,,,,"B/16 Nr.Rajvadu Hotel, Gupta Nagar Rd, Gupta Nagar, Vasna, Ahmedabad, Gujarat",,382460,,"23.00279,72.54437",,0,,,,,,,,,,,,,,,,,,,,,,,,,,,,,,,,,,,,,,,,https://www.magicbricks.com/devas-apartment-vasna-ahmedabad-pdpid-4d4235333138333039
169,Sharan Residency,Welcome to Sharan Residency,,,,,,,,,,,,Gated Community,Ahmedabad,Ahmedabad,,,,0,,380005,,"23.112467,72.58168",,140,,,,,,,,,,,,,,,,,,,,,,,,,,,,,,,,,,,,,,,,https://www.magicbricks.com/sharan-residency-chandkheda-ahmedabad-pdpid-4d4235313439383735
170,Jaldhara 319,Welcome to Jaldhara 319,,,,,,,,,,,,Gated Community,Ahmedabad,Ahmedabad,,,,0,,380058,,"23.034426,72.42913",,37,,,,,,,,,,,,,,,,,,,,,,,,,,,,,,,,,,,,,,,,https://www.magicbricks.com/jaldhara-319-manipur-ahmedabad-pdpid-4d4235313439383631
171,Savya Skyz,Welcome to Savya Skyz,,,,,,,,,,,,Gated Community,Ahmedabad,Ahmedabad,,,,"Opp. Shantavan Party Plot, 200 ft Ring Road, Vaishnodevi to DCIS Circle, Zundal, Ahmedabad.",,380001,,"23.132862,72.57094",,130,,,,,,,,,,,,,,,,,,,,,,,,,,,,,,,,,,,,,,,,https://www.magicbricks.com/savya-skyz-vaishno-devi-ahmedabad-pdpid-4d4235303938393631
172,Swati Apartment 2,Welcome to Swati Apartment 2,,,,,,,,,,,,Gated Community,Ahmedabad,Ahmedabad,,,,"Vejalpur Rd, behind D-Mart, Baldev Nagar Society, Jai But Bhavani Society, Jivraj Park, Ahmedabad, G",,380051,,"23.032629,72.644615",,0,,,,,,,,,,,,,,,,,,,,,,,,,,,,,,,,,,,,,,,,https://www.magicbricks.com/swati-apartment-2-jivraj-park-ahmedabad-pdpid-4d4235333131363135
173,Saujanya,Welcome to Saujanya,,,,,,,,,,,,Gated Community,Ahmedabad,Ahmedabad,,,,"Maninagar, Ahmedabad East.",,380008,,"23.007965,72.612915",,861,,,,,,,,,,,,,,,,,,,,,,,,,,,,,,,,,,,,,,,,https://www.magicbricks.com/saujanya-khokhra-ahmedabad-pdpid-4d4235313030323639
174,Malabar County,Welcome to Malabar County,,,,,,,,,,,,Gated Community,Ahmedabad,Ahmedabad,,,,"Malabar County, Malabar County Rd, behind Nirma University, Ahmedabad, Gujarat",,380054,,"23.12343,72.547775",,600,,,,,,,,,,,,,,,,,,,,,,,,,,,,,,,,,,,,,,,,https://www.magicbricks.com/malabar-county-sg-highway-ahmedabad-pdpid-4d4235303731383936
175,Pebble Bay Phase 2,Welcome to Pebble Bay Phase 2,,,,,,,,,,,,Gated Community,Ahmedabad,Ahmedabad,,,,"Near Janta Nagar, Opp. New C.G. Road, Chandkheda, ,Ahmedabad",,380005,,"23.10969,72.58425",,164,,,,,,,,,,,,,,,,,,,,,,,,,,,,,,,,,,,,,,,,https://www.magicbricks.com/pebble-bay-phase-2-chandkheda-ahmedabad-pdpid-4d4235313030323435
176,Ratnatrayi,Welcome to Ratnatrayi,,,,,,,,,,,,Gated Community,Ahmedabad,Ahmedabad,,,,"Godhavi, Ahemdabad, Gujarat",,382115,,"23.022882,72.4083",,0,,,,,,,,,,,,,,,,,,,,,,,,,,,,,,,,,,,,,,,,https://www.magicbricks.com/ratnatrayi-godhavi-ahmedabad-pdpid-4d4235333134343031
177,Sangath Nano,Welcome to Sangath Nano,,,,,,,,,,,,Gated Community,Ahmedabad,Ahmedabad,,,,"Motera-Koteshwar road, Motera",,380005,,"23.104103,72.604454",,80,,,,,,,,,,,,,,,,,,,,,,,,,,,,,,,,,,,,,,,,https://www.magicbricks.com/sangath-nano-motera-ahmedabad-pdpid-4d4235303339393539
178,Jainam City,Welcome to Jainam City,,,,,,,,,,,,Gated Community,Ahmedabad,Ahmedabad,,,,"Near Karnavati Enclave, Opp. Shree0d City 8, New Maninagar, Ahmedabad.",,380008,,"22.983553,72.64339",,432,,,,,,,,,,,,,,,,,,,,,,,,,,,,,,,,,,,,,,,,https://www.magicbricks.com/jainam-city-maninagar-ahmedabad-pdpid-4d4235303736363530
179,Hari Om Sollitaire,Welcome to Hari Om Sollitaire,,,,,,,,,,,,Gated Community,Ahmedabad,Ahmedabad,,,,0,,380008,,"23.033772,72.43135",,0,,,,,,,,,,,,,,,,,,,,,,,,,,,,,,,,,,,,,,,,https://www.magicbricks.com/hari-om-sollitaire-manipur-ahmedabad-pdpid-4d4235313530333435
180,Parshwanath Atlantis Park,Welcome to Parshwanath Atlantis Park,,,,,,,,,,,,Gated Community,Ahmedabad,Ahmedabad,,,,"Sughad, Sardar Patel Ring Road, Ahmedabad",,382424,,"23.11719,72.63105",,819,,,,,,,,,,,,,,,,,,,,,,,,,,,,,,,,,,,,,,,,https://www.magicbricks.com/parshwanath-atlantis-park-sughad-ahmedabad-pdpid-4d4235303139373233
181,Swaminarayan Park 2,Welcome to Swaminarayan Park 2,,,,,,,,,,,,Gated Community,Ahmedabad,Ahmedabad,,,,"Opp. Satkar Homes, Nr. Karnavati Apartment 1, Narol, Ahmedabad.",,382460,,"22.99255,72.54322",,400,,,,,,,,,,,,,,,,,,,,,,,,,,,,,,,,,,,,,,,,https://www.magicbricks.com/swaminarayan-park-2-vasna-ahmedabad-pdpid-4d4235303232373939
182,Krupal Bachpan,Welcome to Krupal Bachpan,,,,,,,,,,,,Gated Community,Ahmedabad,Ahmedabad,,,,"Shela, Gujarat",,380058,,"23.009144,72.45104",,150,,,,,,,,,,,,,,,,,,,,,,,,,,,,,,,,,,,,,,,,https://www.magicbricks.com/krupal-bachpan-shela-ahmedabad-pdpid-4d4235313235343939
183,Swareet,Welcome to Swareet,,,,,,,,,,,,Gated Community,Ahmedabad,Ahmedabad,,,,"Swareet Apartments, Juhapura, Ahmedabad, Gujarat",,380051,,"22.997738,72.51958",,530,,,,,,,,,,,,,,,,,,,,,,,,,,,,,,,,,,,,,,,,https://www.magicbricks.com/swareet-vejalpur-ahmedabad-pdpid-4d4235303331373233
184,PanchRatna Flora,Welcome to PanchRatna Flora,,,,,,,,,,,,Gated Community,Ahmedabad,Ahmedabad,,,,0,,380051,,"22.946533,72.64685",,0,,,,,,,,,,,,,,,,,,,,,,,,,,,,,,,,,,,,,,,,https://www.magicbricks.com/panchratna-flora-vinzol-ahmedabad-pdpid-4d4235303833353030
185,Jaldeep Icon,Welcome to Jaldeep Icon,,,,,,,,,,,,Gated Community,Ahmedabad,Ahmedabad,,,,0,,380051,,"23.000448,72.50768",,84,,,,,,,,,,,,,,,,,,,,,,,,,,,,,,,,,,,,,,,,https://www.magicbricks.com/jaldeep-icon-makarba-ahmedabad-pdpid-4d4235313439383537
186,Kalhaar Blues & Greens,Welcome to Kalhaar Blues & Greens,,,,,,,,,,,,Gated Community,Ahmedabad,Ahmedabad,,,,"Bopal -Sa0d Bypass Road, B/h Muni Bapu Ashram, Ahmedabad, Gujarat",,382110,,"23.016245,72.358154",,801,,,,,,,,,,,,,,,,,,,,,,,,,,,,,,,,,,,,,,,,https://www.magicbricks.com/kalhaar-blues-&-greens-sanand-ahmedabad-pdpid-4d4235303731313033
187,BelleVue Vierraaa II,Welcome to BelleVue Vierraaa II,,,,,,,,,,,,Gated Community,Ahmedabad,Ahmedabad,,,,"Aadroda, 5 km away from Bavla, Bavla Nalsarovar Road",,382220,,"22.82722,72.36269",,0,,,,,,,,,,,,,,,,,,,,,,,,,,,,,,,,,,,,,,,,https://www.magicbricks.com/bellevue-vierraaa-ii-bavla-ahmedabad-pdpid-4d4235303237363939
188,Reevanta,Welcome to Reevanta,,,,,,,,,,,,Gated Community,Ahmedabad,Ahmedabad,,,,"Bh G B Shah college, Nr Silver Flora, Vasna",,382460,,"22.998884,72.54839",,294,,,,,,,,,,,,,,,,,,,,,,,,,,,,,,,,,,,,,,,,https://www.magicbricks.com/reevanta-vasna-ahmedabad-pdpid-4d4235303430343330
189,GopalaNand Residency,Welcome to GopalaNand Residency,,,,,,,,,,,,Gated Community,Ahmedabad,Ahmedabad,,,,"B/H. Satyamev Hospital, Nr. Hiradhan City, IOC Road, New Chandkheda, Ahmadabad.",,380005,,"23.117905,72.57003",,105,,,,,,,,,,,,,,,,,,,,,,,,,,,,,,,,,,,,,,,,https://www.magicbricks.com/gopalanand-residency-chandkheda-ahmedabad-pdpid-4d4235303338303235
190,Vraj Garden,Welcome to Vraj Garden,,,,,,,,,,,,Gated Community,Ahmedabad,Ahmedabad,,,,"B/H. Applewood, Nr. Shanti Business School, Shela Road, Bopal, Ahmedabad - 380058",,380058,,"23.029106,72.465385",,470,,,,,,,,,,,,,,,,,,,,,,,,,,,,,,,,,,,,,,,,https://www.magicbricks.com/vraj-garden-bopal-ahmedabad-pdpid-4d4235303430383237
191,Swagat Bungalows 1,Welcome to Swagat Bungalows 1,,,,,,,,,,,,Gated Community,Ahmedabad,Ahmedabad,,,,0,,380058,,"23.112467,72.58168",,0,,,,,,,,,,,,,,,,,,,,,,,,,,,,,,,,,,,,,,,,https://www.magicbricks.com/swagat-bungalows-1-chandkheda-ahmedabad-pdpid-4d4235313439383237
192,Domain Heights,Welcome to Domain Heights,,,,,,,,,,,,Gated Community,Ahmedabad,Ahmedabad,,,,"Opp Kenyug Apartments, Near Bakeri Sonnet, Shyamal Cross Road, Satellite, Ahmedabad",,380015,,"23.01214,72.53337",,96,,,,,,,,,,,,,,,,,,,,,,,,,,,,,,,,,,,,,,,,https://www.magicbricks.com/domain-heights-shyamal-cross-road-ahmedabad-pdpid-4d4235303730373430
193,Veer Savarker Heights 2 Vasantnagar,Welcome to Veer Savarker Heights 2 Vasantnagar,,,,,,,,,,,,Gated Community,Ahmedabad,Ahmedabad,,,,"VASANTNAGAR TOWNSHIP GOTA-OGNAJ ROAD, GOTA, Ahmedabad, Gujarat",,382481,,"23.101118,72.53812",,548,,,,,,,,,,,,,,,,,,,,,,,,,,,,,,,,,,,,,,,,https://www.magicbricks.com/veer-savarker-heights-2-vasantnagar-gota-ahmedabad-pdpid-4d4235323035383533
194,Green Park,Welcome to Green Park,,,,,,,,,,,,Gated Community,Ahmedabad,Ahmedabad,,,,"Gokuldham, Near Eklavya school, sanathal",,382210,,"22.985611,22.985611",,114,,,,,,,,,,,,,,,,,,,,,,,,,,,,,,,,,,,,,,,,https://www.magicbricks.com/green-park-sanathal-ahmedabad-pdpid-4d4235303737383830
195,78 at Gokuldham,Welcome to 78 at Gokuldham,,,,,,,,,,,,Gated Community,Ahmedabad,Ahmedabad,,,,0,,380013,,"22.980618,72.45475",,0,,,,,,,,,,,,,,,,,,,,,,,,,,,,,,,,,,,,,,,,https://www.magicbricks.com/78-at-gokuldham-gokuldham-ahmedabad-pdpid-4d4235313834313231
196,Rishi Avenue,Welcome to Rishi Avenue,,,,,,,,,,,,Gated Community,Ahmedabad,Ahmedabad,,,,"Pushpkunj, Maninagar, Ahmedabad, Gujarat",,380008,,"22.999178,72.596146",,0,,,,,,,,,,,,,,,,,,,,,,,,,,,,,,,,,,,,,,,,https://www.magicbricks.com/rishi-avenue-maninagar-ahmedabad-pdpid-4d4235313939353935
197,Shree Sharan,Welcome to Shree Sharan,,,,,,,,,,,,Gated Community,Ahmedabad,Ahmedabad,,,,"Near Siddhidata Aditi, Near Sanidhya Residency, Chandkheda, Ahmedabad",,380005,,"23.123398,72.56868",,97,,,,,,,,,,,,,,,,,,,,,,,,,,,,,,,,,,,,,,,,https://www.magicbricks.com/shree-sharan-chandkheda-ahmedabad-pdpid-4d4235303734373430
198,Shree Asthalakshmi Ocean Colina,Welcome to Shree Asthalakshmi Ocean Colina,,,,,,,,,,,,Gated Community,Ahmedabad,Ahmedabad,,,,"Naranpura, Ahmedabad, Gujarat",,380013,,"23.056635,72.55433",,174,,,,,,,,,,,,,,,,,,,,,,,,,,,,,,,,,,,,,,,,https://www.magicbricks.com/shree-asthalakshmi-ocean-colina-naranpura-ahmedabad-pdpid-4d4235333136363731
199,Shyam Valley,Welcome to Shyam Valley,,,,,,,,,,,,Gated Community,Ahmedabad,Ahmedabad,,,,0,,380005,,"23.112467,72.58168",,0,,,,,,,,,,,,,,,,,,,,,,,,,,,,,,,,,,,,,,,,https://www.magicbricks.com/shyam-valley-chandkheda-ahmedabad-pdpid-4d4235313536333135
200,Sun Divine 1,Welcome to Sun Divine 1,,,,,,,,,,,,Gated Community,Ahmedabad,Ahmedabad,,,,"Sun Divine 1, Gota, Ahmedabad, Gujarat",,382481,,"23.08735,72.53269",,144,,,,,,,,,,,,,,,,,,,,,,,,,,,,,,,,,,,,,,,,https://www.magicbricks.com/sun-divine-1-gota-ahmedabad-pdpid-4d4235313031323631
201,Samyaka Apartments,Welcome to Samyaka Apartments,,,,,,,,,,,,Gated Community,Ahmedabad,Ahmedabad,,,,"Bakeri City, Near Torrent Power, Vejalpur, Ahmedabad, Gujarat",,380051,,"22.99662,72.516556",,440,,,,,,,,,,,,,,,,,,,,,,,,,,,,,,,,,,,,,,,,https://www.magicbricks.com/samyaka-apartments-vejalpur-ahmedabad-pdpid-4d4235313035363539
202,Sarathya,Welcome to Sarathya,,,,,,,,,,,,Gated Community,Ahmedabad,Ahmedabad,,,,"10, ND Avenue, Opp. Club O7, Sky City Road, S. P. Ring Road, Ahmedabad, Gujarat",,380058,,"23.012194,72.456",,240,,,,,,,,,,,,,,,,,,,,,,,,,,,,,,,,,,,,,,,,https://www.magicbricks.com/sarathya-shela-ahmedabad-pdpid-4d4235303939303333
203,Gala Haven,Welcome to Gala Haven,,,,,,,,,,,,Gated Community,Ahmedabad,Ahmedabad,,,,"Near Vaishnodevi Temple Circle, 200 Feet, Sardar Patel Ring Rd, Ahmedabad,Gujarat",,380054,,"23.134792,72.54637",,576,,,,,,,,,,,,,,,,,,,,,,,,,,,,,,,,,,,,,,,,https://www.magicbricks.com/gala-haven-sg-highway-ahmedabad-pdpid-4d4235303237373432
204,Satyam Sarjan,Welcome to Satyam Sarjan,,,,,,,,,,,,Gated Community,Ahmedabad,Ahmedabad,,,,"Opposite Petrol Pump, Changodar-Bavla Road, Changodar, Ahmedabad.",,382213,,"22.939785,72.4553",,240,,,,,,,,,,,,,,,,,,,,,,,,,,,,,,,,,,,,,,,,https://www.magicbricks.com/satyam-sarjan-changodar-ahmedabad-pdpid-4d4235303237363933
205,Sangath IPL Posh,Welcome to Sangath IPL Posh,,,,,,,,,,,,Gated Community,Ahmedabad,Ahmedabad,,,,"Chandkheda, Ahmedabad.",,380005,,"23.126965,72.588066",,88,,,,,,,,,,,,,,,,,,,,,,,,,,,,,,,,,,,,,,,,https://www.magicbricks.com/sangath-ipl-posh-chandkheda-ahmedabad-pdpid-4d4235303238373032
206,Sambhavnath Upvan,Welcome to Sambhavnath Upvan,,,,,,,,,,,,Gated Community,Ahmedabad,Ahmedabad,,,,"Tragad Rd, Near darti Nagar, Chandkheda, Ahmedabad, Gujarat",,380005,,"23.112467,72.58168",,0,,,,,,,,,,,,,,,,,,,,,,,,,,,,,,,,,,,,,,,,https://www.magicbricks.com/sambhavnath-upvan-chandkheda-ahmedabad-pdpid-4d4235333133343937
207,Srushti Lake View,Welcome to Srushti Lake View,,,,,,,,,,,,Gated Community,Ahmedabad,Ahmedabad,,,,0,,380005,,"23.079868,72.50093",,0,,,,,,,,,,,,,,,,,,,,,,,,,,,,,,,,,,,,,,,,https://www.magicbricks.com/srushti-lake-view-science-city-road-ahmedabad-pdpid-4d4235303733373234
208,Ashraya 10,Welcome to Ashraya 10,,,,,,,,,,,,Gated Community,Ahmedabad,Ahmedabad,,,,"New Ranip, Ahmedabad.",,382480,,"23.094826,72.56381",,670,,,,,,,,,,,,,,,,,,,,,,,,,,,,,,,,,,,,,,,,https://www.magicbricks.com/ashraya-10-new-ranip-ahmedabad-pdpid-4d4235303934353639
209,Seventh Grace,Welcome to Seventh Grace,,,,,,,,,,,,Gated Community,Ahmedabad,Ahmedabad,,,,"Gota, Ahmedabad, Gujarat",,382481,,"23.109003,72.53681",,49,,,,,,,,,,,,,,,,,,,,,,,,,,,,,,,,,,,,,,,,https://www.magicbricks.com/seventh-grace-gota-ahmedabad-pdpid-4d4235323036353735
210,Nebula Aavaas,Welcome to Nebula Aavaas,,,,,,,,,,,,Gated Community,Ahmedabad,Ahmedabad,,,,"Opp. Kesar City Moraiya, Changodar, Gujarat",,382213,,"22.919456,72.42966",,2556,,,,,,,,,,,,,,,,,,,,,,,,,,,,,,,,,,,,,,,,https://www.magicbricks.com/nebula-aavaas-changodar-ahmedabad-pdpid-4d4235313030363739
211,Riviera Greens,Welcome to Riviera Greens,,,,,,,,,,,,Gated Community,Ahmedabad,Ahmedabad,,,,"Sa0d, Ahmedabad.",,382110,,"22.98989,72.3665",,44,,,,,,,,,,,,,,,,,,,,,,,,,,,,,,,,,,,,,,,,https://www.magicbricks.com/riviera-greens-sanand-ahmedabad-pdpid-4d4235303939353635
212,Shahibaug Greens,Welcome to Shahibaug Greens,,,,,,,,,,,,Gated Community,Ahmedabad,Ahmedabad,,,,"Shahibuag, Ahmedabad.",,380004,,"23.04933,72.59604",,56,,,,,,,,,,,,,,,,,,,,,,,,,,,,,,,,,,,,,,,,https://www.magicbricks.com/shahibaug-greens-shahibuag-ahmedabad-pdpid-4d4235313037363137
213,Bakeri Sanatan Apartments,Welcome to Bakeri Sanatan Apartments,,,,,,,,,,,,Gated Community,Ahmedabad,Ahmedabad,,,,0,,380004,,"23.003222,72.51992",,0,,,,,,,,,,,,,,,,,,,,,,,,,,,,,,,,,,,,,,,,https://www.magicbricks.com/bakeri-sanatan-apartments-vejalpur-ahmedabad-pdpid-4d4235333133363235
214,Avalon Park,Welcome to Avalon Park,,,,,,,,,,,,Gated Community,Ahmedabad,Ahmedabad,,,,"Nr. Shakti House, Opp. Satej Homes, New Vatva, Ahmedabad.",,382405,,"22.941956,72.61571",,47,,,,,,,,,,,,,,,,,,,,,,,,,,,,,,,,,,,,,,,,https://www.magicbricks.com/avalon-park-vatva-ahmedabad-pdpid-4d4235303931313936
215,Setu Scarlet,Welcome to Setu Scarlet,,,,,,,,,,,,Gated Community,Ahmedabad,Ahmedabad,,,,"Chandkheda To Gandhinagar Road, Chandkheda, Ahmedabad.",,380005,,"23.11256,72.60551",,64,,,,,,,,,,,,,,,,,,,,,,,,,,,,,,,,,,,,,,,,https://www.magicbricks.com/setu-scarlet-motera-ahmedabad-pdpid-4d4235303733303531
216,Garden residency 3,Welcome to Garden residency 3,,,,,,,,,,,,Gated Community,Ahmedabad,Ahmedabad,,,,"Opp. Garden Homes, Nr. Garden Residency 2, South Bopal, Ahmedabad.",,380058,,"23.025896,72.46537",,260,,,,,,,,,,,,,,,,,,,,,,,,,,,,,,,,,,,,,,,,https://www.magicbricks.com/garden-residency-3-south-bopal-ahmedabad-pdpid-4d4235303238393339
217,Gala Glory,Welcome to Gala Glory,,,,,,,,,,,,Gated Community,Ahmedabad,Ahmedabad,,,,"Besides Gala Aria, South Bopal, Bopal, Ahmedabad, Gujarat 380058",,380058,,"23.016031,72.473495",,156,,,,,,,,,,,,,,,,,,,,,,,,,,,,,,,,,,,,,,,,https://www.magicbricks.com/gala-glory-south-bopal-ahmedabad-pdpid-4d4235303736393931
218,Sagar Tower,Welcome to Sagar Tower,,,,,,,,,,,,Gated Community,Ahmedabad,Ahmedabad,,,,"Sagar Apartment, Sargam Marg, Satellite, Vastrapur, Ahmedabad, Gujarat",,380015,,"23.030968,72.52555",,0,,,,,,,,,,,,,,,,,,,,,,,,,,,,,,,,,,,,,,,,https://www.magicbricks.com/sagar-tower-satellite-ahmedabad-pdpid-4d4235323035383733
219,7OAK Golden City,Welcome to 7OAK Golden City,,,,,,,,,,,,Gated Community,Ahmedabad,Ahmedabad,,,,"Fedra - Pipli Road, DHOLERA SIR, Gujarat 382465",,382455,,"22.24836,72.186356",,333,,,,,,,,,,,,,,,,,,,,,,,,,,,,,,,,,,,,,,,,https://www.magicbricks.com/7oak-golden-city-dholera-sir-ahmedabad-pdpid-4d4235303938323639
220,Akash Residency Phase 2,Welcome to Akash Residency Phase 2,,,,,,,,,,,,Gated Community,Ahmedabad,Ahmedabad,,,,0,,380058,,"23.004011,72.45393",,0,,,,,,,,,,,,,,,,,,,,,,,,,,,,,,,,,,,,,,,,https://www.magicbricks.com/akash-residency-phase-2-shela-ahmedabad-pdpid-4d4235313536343535
221,Neelkanth Orchid,Welcome to Neelkanth Orchid,,,,,,,,,,,,Gated Community,Ahmedabad,Ahmedabad,,,,"Sterling City,Bopal, Ahmedabad",,380058,,"23.05117,72.4676",,222,,,,,,,,,,,,,,,,,,,,,,,,,,,,,,,,,,,,,,,,https://www.magicbricks.com/neelkanth-orchid-bopal-ahmedabad-pdpid-4d4235303232373938
222,Ozone Aangan,Welcome to Ozone Aangan,,,,,,,,,,,,Gated Community,Ahmedabad,Ahmedabad,,,,"New Ashram Road, Vadaj Bus Stop to 132 ft. Ring Road, Ahmadabad.",,380013,,"23.062708,72.571014",,296,,,,,,,,,,,,,,,,,,,,,,,,,,,,,,,,,,,,,,,,https://www.magicbricks.com/ozone-aangan-nava-vadaj-ahmedabad-pdpid-4d4235303237363333
223,Serene Lifestyle,Welcome to Serene Lifestyle,,,,,,,,,,,,Gated Community,Ahmedabad,Ahmedabad,,,,"Nr. Alak0da Residency, Opp. Vishwakarma Temples, Nr. Gota Overbridge, Chandlodia, Ahmedabad.",,380061,,"23.085075,72.54072",,130,,,,,,,,,,,,,,,,,,,,,,,,,,,,,,,,,,,,,,,,https://www.magicbricks.com/serene-lifestyle-chandlodia-ahmedabad-pdpid-4d4235303739333434
224,Hiradhan Halcyon,Welcome to Hiradhan Halcyon,,,,,,,,,,,,Gated Community,Ahmedabad,Ahmedabad,,,,"Behind Satyamev Hospital, Chandkheda, Ahmedabad, Gujarat",,380005,,"23.12,72.5735",,156,,,,,,,,,,,,,,,,,,,,,,,,,,,,,,,,,,,,,,,,https://www.magicbricks.com/hiradhan-halcyon-chandkheda-ahmedabad-pdpid-4d4235303734353834
225,Pavitra Enclave,Welcome to Pavitra Enclave,,,,,,,,,,,,Gated Community,Ahmedabad,Ahmedabad,,,,"Nr. Auda Garden, 100 Ft Road, Nr. 200Ft S.P Ring Road, New Chandkheda, Ahmedabad.",,380005,,"23.112467,72.58168",,168,,,,,,,,,,,,,,,,,,,,,,,,,,,,,,,,,,,,,,,,https://www.magicbricks.com/pavitra-enclave-chandkheda-ahmedabad-pdpid-4d4235303932343930
226,Parth Indraprasth Tower,Welcome to Parth Indraprasth Tower,,,,,,,,,,,,Gated Community,Ahmedabad,Ahmedabad,,,,"Sarkari Vasahat Road, Vastrapur, Ahmedabad, Gujarat",,380052,,"23.03381,72.5273",,0,,,,,,,,,,,,,,,,,,,,,,,,,,,,,,,,,,,,,,,,https://www.magicbricks.com/parth-indraprasth-tower-gurukul-ahmedabad-pdpid-4d4235303330313732
227,Sahaj Bungalows,Welcome to Sahaj Bungalows,,,,,,,,,,,,Gated Community,Ahmedabad,Ahmedabad,,,,"Opp. Somnath Park, Beside Sarvoday Hotel, Moraiya Village, Ahmedabad.",,382213,,"22.92063,72.41827",,123,,,,,,,,,,,,,,,,,,,,,,,,,,,,,,,,,,,,,,,,https://www.magicbricks.com/sahaj-bungalows-moraiya-ahmedabad-pdpid-4d4235303237363632
228,Godrej Vanaangan,Welcome to Godrej Vanaangan,,,,,,,,,,,,Gated Community,Ahmedabad,Ahmedabad,,,,"Godrej Garden City, B/h Nirma University, Jagatpur, Ahmedabad City, Ahmedabad, Gujarat",,382470,,"23.112246,72.54806",,294,,,,,,,,,,,,,,,,,,,,,,,,,,,,,,,,,,,,,,,,https://www.magicbricks.com/godrej-vanaangan-jagatpur-ahmedabad-pdpid-4d4235323332323339
229,Sahaj Sapphire,Welcome to Sahaj Sapphire,,,,,,,,,,,,Gated Community,Ahmedabad,Ahmedabad,,,,"RAJYASH CITY,BESIDE, NR, APMC MARKET,SOUTH, Vasna, Ahmedabad, Gujarat",,382460,,"22.993015,72.537445",,80,,,,,,,,,,,,,,,,,,,,,,,,,,,,,,,,,,,,,,,,https://www.magicbricks.com/sahaj-sapphire-vasna-ahmedabad-pdpid-4d4235303239353732
230,Mansi Residency,Welcome to Mansi Residency,,,,,,,,,,,,Gated Community,Ahmedabad,Ahmedabad,,,,"Near Pleasure Club, Ghuma, Ahmedabad",,380058,,"23.03108,72.44757",,28,,,,,,,,,,,,,,,,,,,,,,,,,,,,,,,,,,,,,,,,https://www.magicbricks.com/mansi-residency-ghuma-ahmedabad-pdpid-4d4235303833343437
231,Shilp Saral,Welcome to Shilp Saral,,,,,,,,,,,,Gated Community,Ahmedabad,Ahmedabad,,,,"Opp. Kabir Enclave, Bopal - Ghuma Main Road, Ahmadabad.",,380058,,"23.032118,72.45953",,114,,,,,,,,,,,,,,,,,,,,,,,,,,,,,,,,,,,,,,,,https://www.magicbricks.com/shilp-saral-bopal-ahmedabad-pdpid-4d4235303430313036
232,KP Villas,Welcome to KP Villas,,,,,,,,,,,,Gated Community,Ahmedabad,Ahmedabad,,,,"Gokuldham, Ahmedabad.",,380013,,"22.981289,72.454124",,167,,,,,,,,,,,,,,,,,,,,,,,,,,,,,,,,,,,,,,,,https://www.magicbricks.com/kp-villas-gokuldham-ahmedabad-pdpid-4d4235313031363135
233,Narayan Bungalows,Welcome to Narayan Bungalows,,,,,,,,,,,,Gated Community,Ahmedabad,Ahmedabad,,,,0,,380013,,"23.00914,72.675476",,0,,,,,,,,,,,,,,,,,,,,,,,,,,,,,,,,,,,,,,,,https://www.magicbricks.com/narayan-bungalows-vastral-ahmedabad-pdpid-4d4235303833373833
234,Eden Godrej Garden city,Welcome to Eden Godrej Garden city,,,,,,,,,,,,Gated Community,Ahmedabad,Ahmedabad,,,,"Behind Nirma University, Off Sarkhej Gandhinagar highway, Village Jagatpur, Chandkheda, New Chamunda Society, Godrej Garden City, Chandkheda",,380054,,"23.116035,72.55588",,1680,,,,,,,,,,,,,,,,,,,,,,,,,,,,,,,,,,,,,,,,https://www.magicbricks.com/eden-godrej-garden-city-sg-highway-ahmedabad-pdpid-4d4235303736373930
235,Vandematram City,Welcome to Vandematram City,,,,,,,,,,,,Gated Community,Ahmedabad,Ahmedabad,,,,"nr. vandematram Prime, opp. neelkamal, vandematram cross road, new s.g. road, Gota, Ahmadabad.",,382481,,"23.095793,72.54606",,405,,,,,,,,,,,,,,,,,,,,,,,,,,,,,,,,,,,,,,,,https://www.magicbricks.com/vandematram-city-gota-ahmedabad-pdpid-4d4235303737303439
236,Shayona Tilak 4,Welcome to Shayona Tilak 4,,,,,,,,,,,,Gated Community,Ahmedabad,Ahmedabad,,,,"New S.G Road, Behind Vishwakarma Temple, Gota-Jagatpur Road, Gota, Ahmedabad.",,382481,,"23.098246,72.54946",,40,,,,,,,,,,,,,,,,,,,,,,,,,,,,,,,,,,,,,,,,https://www.magicbricks.com/shayona-tilak-4-gota-ahmedabad-pdpid-4d4235303734313733
237,TATA Shubh Griha,Welcome to TATA Shubh Griha,,,,,,,,,,,,Gated Community,Ahmedabad,Ahmedabad,,,,"Vadsar - Kalol Road, Opp. Universal College of Engineering Moti Bhoyan, Taluka - Kalol, Ahmedabad, Gujarat",,382721,,"23.162348,72.459465",,1200,,,,,,,,,,,,,,,,,,,,,,,,,,,,,,,,,,,,,,,,https://www.magicbricks.com/tata-shubh-griha-vadsar-ahmedabad-pdpid-4d4235303939363139
238,Suprabhat Apartment,Welcome to Suprabhat Apartment,,,,,,,,,,,,Gated Community,Ahmedabad,Ahmedabad,,,,0,,382721,,"23.058477,72.50512",,0,,,,,,,,,,,,,,,,,,,,,,,,,,,,,,,,,,,,,,,,https://www.magicbricks.com/suprabhat-apartment-thaltej-ahmedabad-pdpid-4d4235333132393735
239,Aamrakunj Ayan,Welcome to Aamrakunj Ayan,,,,,,,,,,,,Gated Community,Ahmedabad,Ahmedabad,,,,"Chandkheda, Ahmedabad",,380005,,"23.112467,72.58168",,98,,,,,,,,,,,,,,,,,,,,,,,,,,,,,,,,,,,,,,,,https://www.magicbricks.com/aamrakunj-ayan-chandkheda-ahmedabad-pdpid-4d4235313836323331
240,S G Highway,Welcome to S G Highway,,,,,,,,,,,,Gated Community,Ahmedabad,Ahmedabad,,,,0,,380054,,"23.065676,72.52203",,0,,,,,,,,,,,,,,,,,,,,,,,,,,,,,,,,,,,,,,,,https://www.magicbricks.com/s-g-highway-sg-highway-ahmedabad-pdpid-4d4235303031373334
241,Ratnaakar 4,Welcome to Ratnaakar 4,,,,,,,,,,,,Gated Community,Ahmedabad,Ahmedabad,,,,"Nr. Vrakdham, A0dnagar cross road, Satellite",,380015,,"23.017805,72.51812",,78,,,,,,,,,,,,,,,,,,,,,,,,,,,,,,,,,,,,,,,,https://www.magicbricks.com/ratnaakar-4-satellite-ahmedabad-pdpid-4d4235303734343533
242,Swati Gardenia,Welcome to Swati Gardenia,,,,,,,,,,,,Gated Community,Ahmedabad,Ahmedabad,,,,"Nr. Richmond Grand, Prahlaad Nagar Examinations, Makarba Road, Prahlaad Nagar, Ahmedabad.",,380015,,"22.999418,72.510155",,196,,,,,,,,,,,,,,,,,,,,,,,,,,,,,,,,,,,,,,,,https://www.magicbricks.com/swati-gardenia-prahlad-nagar-ahmedabad-pdpid-4d4235303732393237
243,Binori Pristine,Welcome to Binori Pristine,,,,,,,,,,,,Gated Community,Ahmedabad,Ahmedabad,,,,"B-3, Jodhpur Village, Ahmedabad, Gujarat",,380015,,"23.014524,72.5229",,106,,,,,,,,,,,,,,,,,,,,,,,,,,,,,,,,,,,,,,,,https://www.magicbricks.com/binori-pristine-prahlad-nagar-ahmedabad-pdpid-4d4235313030313139
244,Gala swing,Welcome to Gala swing,,,,,,,,,,,,Gated Community,Ahmedabad,Ahmedabad,,,,"Nr. Aarohi Royal Bungalows, Off. S.P Ring Road, South Bopal, Ahmadabad.",,380058,,"23.016907,72.47392",,176,,,,,,,,,,,,,,,,,,,,,,,,,,,,,,,,,,,,,,,,https://www.magicbricks.com/gala-swing-south-bopal-ahmedabad-pdpid-4d4235303238393439
245,Ganesh Genesis,Welcome to Ganesh Genesis,,,,,,,,,,,,Gated Community,Ahmedabad,Ahmedabad,,,,"Nr. Bsnl Tower, Jagatpur-Chenpur Road, Off. S.G. Highway, Jagatpur, Ahmadabad.",,380054,,"23.112276,72.54378",,792,,,,,,,,,,,,,,,,,,,,,,,,,,,,,,,,,,,,,,,,https://www.magicbricks.com/ganesh-genesis-sg-highway-ahmedabad-pdpid-4d4235303330383236
246,Indraprasth 5,Welcome to Indraprasth 5,,,,,,,,,,,,Gated Community,Ahmedabad,Ahmedabad,,,,"Near. Auda Garden, Flevour Restaurant, Prahladnagar, Ahmadabad - 380015",,380015,,"23.008411,72.50876",,220,,,,,,,,,,,,,,,,,,,,,,,,,,,,,,,,,,,,,,,,https://www.magicbricks.com/indraprasth-5-prahlad-nagar-ahmedabad-pdpid-4d4235303330313633
247,RajYash Reeva,Welcome to RajYash Reeva,,,,,,,,,,,,Gated Community,Ahmedabad,Ahmedabad,,,,"BESIDE RAJYASH REEVANTA, B/H G.B. SHAH COLLEGE, ,SOUTH VASNA, AHMEDABAD",,382460,,"22.992811,72.54832",,216,,,,,,,,,,,,,,,,,,,,,,,,,,,,,,,,,,,,,,,,https://www.magicbricks.com/rajyash-reeva-vasna-ahmedabad-pdpid-4d4235313138333831
248,Dwarkesh Greens,Welcome to Dwarkesh Greens,,,,,,,,,,,,Gated Community,Ahmedabad,Ahmedabad,,,,Opp venetian villa nr a0d Niketan school thaltej shiaj road thaltej ahmedabad,,380059,,"23.050875,72.481834",,98,,,,,,,,,,,,,,,,,,,,,,,,,,,,,,,,,,,,,,,,https://www.magicbricks.com/dwarkesh-greens-thaltej-ahmedabad-pdpid-4d4235303737373130
249,Dev Atelier,Welcome to Dev Atelier,,,,,,,,,,,,Gated Community,Ahmedabad,Ahmedabad,,,,"a0dnagar 100 ft road ,, 100 Feet A0d Nagar Rd, Prahlad Nagar, Ahmedabad, Gujarat",,380015,,"23.012905,72.51469",,50,,,,,,,,,,,,,,,,,,,,,,,,,,,,,,,,,,,,,,,,https://www.magicbricks.com/dev-atelier-prahlad-nagar-ahmedabad-pdpid-4d4235303734333935
250,Green Blossom,Welcome to Green Blossom,,,,,,,,,,,,Gated Community,Ahmedabad,Ahmedabad,,,,"Opp. Hotel Ramada, Nr. Prahladnagar Garden, Satellite, Ahmedabad- 380015",,380015,,"23.010012,72.50499",,40,,,,,,,,,,,,,,,,,,,,,,,,,,,,,,,,,,,,,,,,https://www.magicbricks.com/green-blossom-prahlad-nagar-ahmedabad-pdpid-4d4235303330393639
251,Galaxy Apartment,Welcome to Galaxy Apartment,,,,,,,,,,,,Gated Community,Ahmedabad,Ahmedabad,,,,0,,380054,,"23.038609,72.513664",,0,,,,,,,,,,,,,,,,,,,,,,,,,,,,,,,,,,,,,,,,https://www.magicbricks.com/galaxy-apartment-bodakdev-ahmedabad-pdpid-4d4235313534363133
252,Water Lily Phase 3,Welcome to Water Lily Phase 3,,,,,,,,,,,,Gated Community,Ahmedabad,Ahmedabad,,,,"Waterlily, Shantigram Township, Near Vaishnodevi Circle, Sarkhej - Gandhinagar Hwy, Ahmedabad, Gujar",,380054,,"23.065676,72.52203",,0,,,,,,,,,,,,,,,,,,,,,,,,,,,,,,,,,,,,,,,,https://www.magicbricks.com/water-lily-phase-3-sg-highway-ahmedabad-pdpid-4d4235333131363337
253,Kavisha Panorama,Welcome to Kavisha Panorama,,,,,,,,,,,,Gated Community,Ahmedabad,Ahmedabad,,,,"Kavisha Panorama ,Ahead Sky SOl, South Bopal Extension Road",,380058,,"23.019112,72.453964",,235,,,,,,,,,,,,,,,,,,,,,,,,,,,,,,,,,,,,,,,,https://www.magicbricks.com/kavisha-panorama-south-bopal-ahmedabad-pdpid-4d4235313139393031
254,Sangam Residency,Welcome to Sangam Residency,,,,,,,,,,,,Gated Community,Ahmedabad,Ahmedabad,,,,"Opp. Geb Sub Station, Narol-aslali Highway, Narol, Ahmedabad.",,382405,,"22.949955,72.59188",,134,,,,,,,,,,,,,,,,,,,,,,,,,,,,,,,,,,,,,,,,https://www.magicbricks.com/sangam-residency-narolgam-ahmedabad-pdpid-4d4235303734363135
255,Binori Residency,Welcome to Binori Residency,,,,,,,,,,,,Gated Community,Ahmedabad,Ahmedabad,,,,0,,380058,,"23.034847,72.471",,0,,,,,,,,,,,,,,,,,,,,,,,,,,,,,,,,,,,,,,,,https://www.magicbricks.com/binori-residency-bopal-ahmedabad-pdpid-4d4235303330363430
256,Al Muqaam,Welcome to Al Muqaam,,,,,,,,,,,,Gated Community,Ahmedabad,Ahmedabad,,,,"Sanklit Nagar, Ahmedabad.",,380055,,"22.996275,72.533485",,198,,,,,,,,,,,,,,,,,,,,,,,,,,,,,,,,,,,,,,,,https://www.magicbricks.com/al-muqaam-sanklit-nagar-ahmedabad-pdpid-4d4235313032333635
257,Maple Tree Garden Homes,Welcome to Maple Tree Garden Homes,,,,,,,,,,,,Gated Community,Ahmedabad,Ahmedabad,,,,"Opp Patel Media, Sun - n - Step Club Road, Nr Surdhara Circle, Thaltej, Ahmedabad",,380059,,"23.058477,72.50512",,488,,,,,,,,,,,,,,,,,,,,,,,,,,,,,,,,,,,,,,,,https://www.magicbricks.com/maple-tree-garden-homes-thaltej-ahmedabad-pdpid-4d4235303831393535
258,Serendeep Mansions,Welcome to Serendeep Mansions,,,,,,,,,,,,Gated Community,Ahmedabad,Ahmedabad,,,,"Nr. Jhaveri Farm, Bopal-Ghuma-Shela Road, Ahmedabad.",,380058,,"23.01832,72.44597",,128,,,,,,,,,,,,,,,,,,,,,,,,,,,,,,,,,,,,,,,,https://www.magicbricks.com/serendeep-mansions-ghuma-ahmedabad-pdpid-4d4235303833373930
259,Binori Moneta,Welcome to Binori Moneta,,,,,,,,,,,,Gated Community,Ahmedabad,Ahmedabad,,,,0,,380054,,"23.039074,72.51995",,32,,,,,,,,,,,,,,,,,,,,,,,,,,,,,,,,,,,,,,,,https://www.magicbricks.com/binori-moneta-bodakdev-ahmedabad-pdpid-4d4235303330363338
260,Shayona Green,Welcome to Shayona Green,,,,,,,,,,,,Gated Community,Ahmedabad,Ahmedabad,,,,"Nr Vishnudhara Homes, Gota",,382481,,"23.103367,72.54466",,245,,,,,,,,,,,,,,,,,,,,,,,,,,,,,,,,,,,,,,,,https://www.magicbricks.com/shayona-green-gota-ahmedabad-pdpid-4d4235303430303135
261,Swati Crimson,Welcome to Swati Crimson,,,,,,,,,,,,Gated Community,Ahmedabad,Ahmedabad,,,,"Shilaj Circle, Sardar Patel Ring Rd, Thaltej, Ahmedabad, Gujarat",,380059,,"23.051233,72.480286",,120,,,,,,,,,,,,,,,,,,,,,,,,,,,,,,,,,,,,,,,,https://www.magicbricks.com/swati-crimson-thaltej-ahmedabad-pdpid-4d4235313230303433
262,Sarvesh,Welcome to Sarvesh,,,,,,,,,,,,Gated Community,Ahmedabad,Ahmedabad,,,,"261, Sarkari Vasahat Road, Opp Auda Garden, Vastrapur, Ahmedabad, Gujarat",,382480,,"23.081396,72.572365",,726,,,,,,,,,,,,,,,,,,,,,,,,,,,,,,,,,,,,,,,,https://www.magicbricks.com/sarvesh-ranip-ahmedabad-pdpid-4d4235313135383235
263,Vrindavan Godrej Garden City,Welcome to Vrindavan Godrej Garden City,,,,,,,,,,,,Gated Community,Ahmedabad,Ahmedabad,,,,"44/46, New Chamunda Society, Godrej Garden City, Chandkheda",,380054,,"23.116665,72.55887",,0,,,,,,,,,,,,,,,,,,,,,,,,,,,,,,,,,,,,,,,,https://www.magicbricks.com/vrindavan-godrej-garden-city-sg-highway-ahmedabad-pdpid-4d4235303736373936
264,Galaxy Gala Laxuria,Welcome to Galaxy Gala Laxuria,,,,,,,,,,,,Gated Community,Ahmedabad,Ahmedabad,,,,"Off S P Ring Road, South Bopal, Bopal, Ahmedabad, Gujarat",,380058,,"23.017973,72.4683",,76,,,,,,,,,,,,,,,,,,,,,,,,,,,,,,,,,,,,,,,,https://www.magicbricks.com/galaxy-gala-laxuria-south-bopal-ahmedabad-pdpid-4d4235303737323631
265,Dev Samruddhi,Welcome to Dev Samruddhi,,,,,,,,,,,,Gated Community,Ahmedabad,Ahmedabad,,,,"Near Dev Gaja0 Bunglows, Beside S.P Ring Road, Vastral, Ahmedabad.",,382418,,"23.004387,72.66537",,240,,,,,,,,,,,,,,,,,,,,,,,,,,,,,,,,,,,,,,,,https://www.magicbricks.com/dev-samruddhi-vastral-ahmedabad-pdpid-4d4235303734393136
266,Sky City Vernis,Welcome to Sky City Vernis,,,,,,,,,,,,Gated Community,Ahmedabad,Ahmedabad,,,,"near 07 club road, off. sp ring road, shela, Ahmedabad, Gujarat",,380058,,"23.005049,72.46265",,75,,,,,,,,,,,,,,,,,,,,,,,,,,,,,,,,,,,,,,,,https://www.magicbricks.com/sky-city-vernis-shela-ahmedabad-pdpid-4d4235303935353531
267,Swastik Heights,Welcome to Swastik Heights,,,,,,,,,,,,Gated Community,Ahmedabad,Ahmedabad,,,,"B/H Savya Skyz ,Vaishno Devi-Zundal Ring Road, Zundal, Ahmedabad, Gujarat",,382421,,"23.136457,72.583374",,47,,,,,,,,,,,,,,,,,,,,,,,,,,,,,,,,,,,,,,,,https://www.magicbricks.com/swastik-heights-zundal-ahmedabad-pdpid-4d4235313135393037
268,SAFAL PARIVESH,Welcome to SAFAL PARIVESH,,,,,,,,,,,,Gated Community,Ahmedabad,Ahmedabad,,,,"Prahlad Nagar, Ahmedabad, Gujarat",,380015,,"23.006845,72.508354",,324,,,,,,,,,,,,,,,,,,,,,,,,,,,,,,,,,,,,,,,,https://www.magicbricks.com/safal-parivesh-prahlad-nagar-ahmedabad-pdpid-4d4235303233343439
269,Westend Park,Welcome to Westend Park,,,,,,,,,,,,Gated Community,Ahmedabad,Ahmedabad,,,,0,,380059,,"23.058477,72.50512",,0,,,,,,,,,,,,,,,,,,,,,,,,,,,,,,,,,,,,,,,,https://www.magicbricks.com/westend-park-thaltej-ahmedabad-pdpid-4d4235313534363231
270,Vraj Dham I,Welcome to Vraj Dham I,,,,,,,,,,,,Gated Community,Ahmedabad,Ahmedabad,,,,0,,380061,,"23.068792,72.539444",,239,,,,,,,,,,,,,,,,,,,,,,,,,,,,,,,,,,,,,,,,https://www.magicbricks.com/vraj-dham-i-ghatlodiya-ahmedabad-pdpid-4d4235313630383939
271,Sanand Greens Residency 2,Welcome to Sanand Greens Residency 2,,,,,,,,,,,,Gated Community,Ahmedabad,Ahmedabad,,,,"Near Station Road, Sa0d Kadi Road, Near Drygraing market yard Sa0d, Ahmedabad.",,382110,,"23.000465,72.37786",,175,,,,,,,,,,,,,,,,,,,,,,,,,,,,,,,,,,,,,,,,https://www.magicbricks.com/sanand-greens-residency-2-sanand-ahmedabad-pdpid-4d4235303834343535
272,Sagarika Apartment,Welcome to Sagarika Apartment,,,,,,,,,,,,Gated Community,Ahmedabad,Ahmedabad,,,,"Bopal, Ahmedabad, Gujarat",,380058,,"23.02991,72.47326",,0,,,,,,,,,,,,,,,,,,,,,,,,,,,,,,,,,,,,,,,,https://www.magicbricks.com/sagarika-apartment-bopal-ahmedabad-pdpid-4d4235313834313837
273,Shlok Mirabel,Welcome to Shlok Mirabel,,,,,,,,,,,,Gated Community,Ahmedabad,Ahmedabad,,,,"Gota, Ahmedabad.",,382481,,"23.102434,72.54356",,40,,,,,,,,,,,,,,,,,,,,,,,,,,,,,,,,,,,,,,,,https://www.magicbricks.com/shlok-mirabel-gota-ahmedabad-pdpid-4d4235303937353233
274,Tejendra Vihar Society Part 2,Welcome to Tejendra Vihar Society Part 2,,,,,,,,,,,,Gated Community,Ahmedabad,Ahmedabad,,,,"Virat Nagar Rd, Tejendra Vihar Society, Part 2, Khodiar Nagar, Ahmedabad, Gujarat",,380008,,"23.03012,72.64632",,0,,,,,,,,,,,,,,,,,,,,,,,,,,,,,,,,,,,,,,,,https://www.magicbricks.com/tejendra-vihar-society-part-2-maninagar-ahmedabad-pdpid-4d4235323035303639
275,Madhav Mangal Apartment,Welcome to Madhav Mangal Apartment,,,,,,,,,,,,Gated Community,Ahmedabad,Ahmedabad,,,,"Vejalpur, Ahmedabad, Gujarat",,380051,,"23.003222,72.51992",,0,,,,,,,,,,,,,,,,,,,,,,,,,,,,,,,,,,,,,,,,https://www.magicbricks.com/madhav-mangal-apartment-vejalpur-ahmedabad-pdpid-4d4235333135383731
276,Signature Homes,Welcome to Signature Homes,,,,,,,,,,,,Gated Community,Ahmedabad,Ahmedabad,,,,"Sa0d Sarkhej Road, Ahmedabad.",,382210,,"22.985094,72.48704",,160,,,,,,,,,,,,,,,,,,,,,,,,,,,,,,,,,,,,,,,,https://www.magicbricks.com/signature-homes-sanand-sarkhej-rd-ahmedabad-pdpid-4d4235313030353839
277,Indraprasth Greens,Welcome to Indraprasth Greens,,,,,,,,,,,,Gated Community,Ahmedabad,Ahmedabad,,,,0,,380015,,"23.029482,72.51949",,280,,,,,,,,,,,,,,,,,,,,,,,,,,,,,,,,,,,,,,,,https://www.magicbricks.com/indraprasth-greens-satellite-ahmedabad-pdpid-4d4235313332353139
278,Ashwamegh Pearl,Welcome to Ashwamegh Pearl,,,,,,,,,,,,Gated Community,Ahmedabad,Ahmedabad,,,,"Maninagar, Ahmedabad.",,380008,,"22.999527,72.599236",,49,,,,,,,,,,,,,,,,,,,,,,,,,,,,,,,,,,,,,,,,https://www.magicbricks.com/ashwamegh-pearl-maninagar-ahmedabad-pdpid-4d4235303939393435
279,Richmond Grand,Welcome to Richmond Grand,,,,,,,,,,,,Gated Community,Ahmedabad,Ahmedabad,,,,"Nr Torrent Power, B/h Vodafone House, Off Prahaladnagar Garden, Prahaladnagar, Ahmedabad",,380015,,"23.00025,72.50898",,336,,,,,,,,,,,,,,,,,,,,,,,,,,,,,,,,,,,,,,,,https://www.magicbricks.com/richmond-grand-prahlad-nagar-ahmedabad-pdpid-4d4235303237393830
280,Ashirvad Dream,Welcome to Ashirvad Dream,,,,,,,,,,,,Gated Community,Ahmedabad,Ahmedabad,,,,"Vastral, Ahmedabad.",,382418,,"22.99643,72.66242",,0,,,,,,,,,,,,,,,,,,,,,,,,,,,,,,,,,,,,,,,,https://www.magicbricks.com/ashirvad-dream-vastral-ahmedabad-pdpid-4d4235313037373239
281,3rd Eye Home,Welcome to 3rd Eye Home,,,,,,,,,,,,Gated Community,Ahmedabad,Ahmedabad,,,,"Calica 3rd Eye residency, Bal Krishna Nagar, Janta Nagar, ONGC Colony, Chandkheda, Ahmedabad, Gujara",,380005,,"23.10511,72.58347",,91,,,,,,,,,,,,,,,,,,,,,,,,,,,,,,,,,,,,,,,,https://www.magicbricks.com/3rd-eye-home-chandkheda-ahmedabad-pdpid-4d4235313938333437
282,Shree Balaji Agora Mall,Welcome to Shree Balaji Agora Mall,,,,,,,,,,,,Gated Community,Ahmedabad,Ahmedabad,,,,"Sardar Patel Ring Rd, Motera, Ahmedabad, Gujarat",,380005,,"23.11867,72.62513",,0,,,,,,,,,,,,,,,,,,,,,,,,,,,,,,,,,,,,,,,,https://www.magicbricks.com/shree-balaji-agora-mall-motera-ahmedabad-pdpid-4d4235313436313739
283,Savvy Swaraj Phase 2,Welcome to Savvy Swaraj Phase 2,,,,,,,,,,,,Gated Community,Ahmedabad,Ahmedabad,,,,"No. L301, Savvy Swaraj, Near Godrej Garden City, Gota, Ahmedabad, Gujarat",,382481,,"23.10541,72.54991",,1000,,,,,,,,,,,,,,,,,,,,,,,,,,,,,,,,,,,,,,,,https://www.magicbricks.com/savvy-swaraj-phase-2-gota-ahmedabad-pdpid-4d4235303939333637
284,Gala Haven Apartment,Welcome to Gala Haven Apartment,,,,,,,,,,,,Gated Community,Ahmedabad,Ahmedabad,,,,"SG Highway, Ahmedabad",,380054,,"23.134914,72.54509",,432,,,,,,,,,,,,,,,,,,,,,,,,,,,,,,,,,,,,,,,,https://www.magicbricks.com/gala-haven-apartment-sg-highway-ahmedabad-pdpid-4d4235303431303239
285,Orchid Divine,Welcome to Orchid Divine,,,,,,,,,,,,Gated Community,Ahmedabad,Ahmedabad,,,,"Nr. Aarohi Villa, South Bopal, ,S.NO. 469/p, F.P. NO. 143, T.P. Scheme no. 3 Bopal",,380058,,"23.015482,72.47366",,250,,,,,,,,,,,,,,,,,,,,,,,,,,,,,,,,,,,,,,,,https://www.magicbricks.com/orchid-divine-south-bopal-ahmedabad-pdpid-4d4235303832343438
286,Sangath IPL Pure,Welcome to Sangath IPL Pure,,,,,,,,,,,,Gated Community,Ahmedabad,Ahmedabad,,,,"Nr. DCIS Circle, B/w S G Road to Airport, S P Ring road, Chandkheda, Ahmedabad",,380005,,"23.127245,72.586235",,203,,,,,,,,,,,,,,,,,,,,,,,,,,,,,,,,,,,,,,,,https://www.magicbricks.com/sangath-ipl-pure-chandkheda-ahmedabad-pdpid-4d4235303339393631
287,Jyoti Residency,Welcome to Jyoti Residency,,,,,,,,,,,,Gated Community,Ahmedabad,Ahmedabad,,,,"opp s.r.p.ground, nr canal, navyug school road, naroda,ahmedabad.",,382330,,"23.062689,72.64965",,254,,,,,,,,,,,,,,,,,,,,,,,,,,,,,,,,,,,,,,,,https://www.magicbricks.com/jyoti-residency-naroda-ahmedabad-pdpid-4d4235303735313932
288,Sanidhya Flora New Ranip,Welcome to Sanidhya Flora New Ranip,,,,,,,,,,,,Gated Community,Ahmedabad,Ahmedabad,,,,"80 Feet Rd, New Ranip, Ahmedabad, Gujarat",,382480,,"23.09295,72.55921",,518,,,,,,,,,,,,,,,,,,,,,,,,,,,,,,,,,,,,,,,,https://www.magicbricks.com/sanidhya-flora-new-ranip-new-ranip-ahmedabad-pdpid-4d4235323036373431
289,Sookomal Apartment,Welcome to Sookomal Apartment,,,,,,,,,,,,Gated Community,Ahmedabad,Ahmedabad,,,,"Ramdevnagar, Ahmedabad.",,380015,,"23.023882,72.5109",,0,,,,,,,,,,,,,,,,,,,,,,,,,,,,,,,,,,,,,,,,https://www.magicbricks.com/sookomal-apartment-ramdevnagar-ahmedabad-pdpid-4d4235313037373637
290,Dharmadev Ghanshyam Park,Welcome to Dharmadev Ghanshyam Park,,,,,,,,,,,,Gated Community,Ahmedabad,Ahmedabad,,,,0,,380015,,"23.056635,72.55433",,0,,,,,,,,,,,,,,,,,,,,,,,,,,,,,,,,,,,,,,,,https://www.magicbricks.com/dharmadev-ghanshyam-park-naranpura-ahmedabad-pdpid-4d4235333135383431
291,Satva 5,Welcome to Satva 5,,,,,,,,,,,,Gated Community,Ahmedabad,Ahmedabad,,,,"Haridarshan Cross Road, New India Colony, Naroda, Ahmedabad, Gujarat",,382330,,"23.0645,72.674706",,0,,,,,,,,,,,,,,,,,,,,,,,,,,,,,,,,,,,,,,,,https://www.magicbricks.com/satva-5-naroda-ahmedabad-pdpid-4d4235333131393535
292,Dikshanti Apartment,Welcome to Dikshanti Apartment,,,,,,,,,,,,Gated Community,Ahmedabad,Ahmedabad,,,,"B1, Gupta Nagar Rd, Amrut Jivan Society, Pavansut Society, Jivraj Park, Ahmedabad, Gujarat",,380051,,"23.001263,72.538445",,0,,,,,,,,,,,,,,,,,,,,,,,,,,,,,,,,,,,,,,,,https://www.magicbricks.com/dikshanti-apartment-jivraj-park-ahmedabad-pdpid-4d4235323035343435
293,Dhanvihar Residency,Welcome to Dhanvihar Residency,,,,,,,,,,,,Gated Community,Ahmedabad,Ahmedabad,,,,"Nigam Nagar, Chandkheda, Ahmedabad, Gujarat",,380005,,"23.115019,72.58755",,0,,,,,,,,,,,,,,,,,,,,,,,,,,,,,,,,,,,,,,,,https://www.magicbricks.com/dhanvihar-residency-chandkheda-ahmedabad-pdpid-4d4235323035333837
294,Bakeri Shrinandnagar 5,Welcome to Bakeri Shrinandnagar 5,,,,,,,,,,,,Gated Community,Ahmedabad,Ahmedabad,,,,"Shri0d Nagar Rd, Bakeri City, Shri0d Nagar, Vejalpur, Ahmedabad, Gujarat",,380051,,"22.998552,72.51924",,0,,,,,,,,,,,,,,,,,,,,,,,,,,,,,,,,,,,,,,,,https://www.magicbricks.com/bakeri-shrinandnagar-5-vejalpur-ahmedabad-pdpid-4d4235333131393435
295,Century Tower,Welcome to Century Tower,,,,,,,,,,,,Gated Community,Ahmedabad,Ahmedabad,,,,"Bodakdev Rd, Bodakdev, Ahmedabad, Gujarat",,380054,,"23.041924,72.51581",,0,,,,,,,,,,,,,,,,,,,,,,,,,,,,,,,,,,,,,,,,https://www.magicbricks.com/century-tower-bodakdev-ahmedabad-pdpid-4d4235313033313033
296,Simandhar Enclave,Welcome to Simandhar Enclave,,,,,,,,,,,,Gated Community,Ahmedabad,Ahmedabad,,,,"Janta Nagar Rd, Ghatlodiya, Chanakyapuri, Ahmedabad, Gujarat",,380061,,"23.07013,72.53372",,0,,,,,,,,,,,,,,,,,,,,,,,,,,,,,,,,,,,,,,,,https://www.magicbricks.com/simandhar-enclave-ghatlodiya-ahmedabad-pdpid-4d4235323036343737
297,Prerna Viraj II,Welcome to Prerna Viraj II,,,,,,,,,,,,Gated Community,Ahmedabad,Ahmedabad,,,,0,,380015,,"23.01701,72.51759",,0,,,,,,,,,,,,,,,,,,,,,,,,,,,,,,,,,,,,,,,,https://www.magicbricks.com/prerna-viraj-ii-jodhpur-village-ahmedabad-pdpid-4d4235313530313535
298,Swati Residency 4,Welcome to Swati Residency 4,,,,,,,,,,,,Gated Community,Ahmedabad,Ahmedabad,,,,0,,380005,,"23.114815,72.56872",,0,,,,,,,,,,,,,,,,,,,,,,,,,,,,,,,,,,,,,,,,https://www.magicbricks.com/swati-residency-4-chandkheda-ahmedabad-pdpid-4d4235303137343131
299,Kasturi Tower,Welcome to Kasturi Tower,,,,,,,,,,,,Gated Community,Ahmedabad,Ahmedabad,,,,"Bodakdev, Ahmedabad, Gujarat",,380054,,"23.019163,72.49534",,0,,,,,,,,,,,,,,,,,,,,,,,,,,,,,,,,,,,,,,,,https://www.magicbricks.com/kasturi-tower-bodakdev-ahmedabad-pdpid-4d4235323035363031
300,Aakash Residency Phase II,Welcome to Aakash Residency Phase II,,,,,,,,,,,,Gated Community,Ahmedabad,Ahmedabad,,,,"Aakash Residency, Club O7 Rd, Shela, Ahmedabad, Gujrat",,380058,,"23.007587,72.459335",,444,,,,,,,,,,,,,,,,,,,,,,,,,,,,,,,,,,,,,,,,https://www.magicbricks.com/aakash-residency-phase-ii-shela-ahmedabad-pdpid-4d4235313833393139
301,Prerna Shikhar Appartments,Welcome to Prerna Shikhar Appartments,,,,,,,,,,,,Gated Community,Ahmedabad,Ahmedabad,,,,0,,380054,,"23.038609,72.513664",,0,,,,,,,,,,,,,,,,,,,,,,,,,,,,,,,,,,,,,,,,https://www.magicbricks.com/prerna-shikhar-appartments-bodakdev-ahmedabad-pdpid-4d4235313530313733
302,Shyamal Complex,Welcome to Shyamal Complex,,,,,,,,,,,,Gated Community,Ahmedabad,Ahmedabad,,,,0,,380005,,"23.112467,72.58168",,0,,,,,,,,,,,,,,,,,,,,,,,,,,,,,,,,,,,,,,,,https://www.magicbricks.com/shyamal-complex-chandkheda-ahmedabad-pdpid-4d4235313536333133
303,Sopan Veer 2,Welcome to Sopan Veer 2,,,,,,,,,,,,Gated Community,Ahmedabad,Ahmedabad,,,,"Near Dhanvihar Apartment, Off C. G., New CG Rd, Chandkheda, Ahmedabad, Gujarat",,382424,,"23.11575,72.58755",,0,,,,,,,,,,,,,,,,,,,,,,,,,,,,,,,,,,,,,,,,https://www.magicbricks.com/sopan-veer-2-new-c-g-road-ahmedabad-pdpid-4d4235323034303333
304,Sarthak Tower,Welcome to Sarthak Tower,,,,,,,,,,,,Gated Community,Ahmedabad,Ahmedabad,,,,0,,380015,,"23.026457,72.50925",,0,,,,,,,,,,,,,,,,,,,,,,,,,,,,,,,,,,,,,,,,https://www.magicbricks.com/sarthak-tower-ramdevnagar-ahmedabad-pdpid-4d4235303836343834
305,Gajanan Dev Residency 2,Welcome to Gajanan Dev Residency 2,,,,,,,,,,,,Gated Community,Ahmedabad,Ahmedabad,,,,"Nr. Amc Water Tank, Opp.A0d Vihar Buglow, Tragad-Nirma Road, Tragad, Ahmedabad, Gujarat",,382470,,"23.1277,72.55864",,0,,,,,,,,,,,,,,,,,,,,,,,,,,,,,,,,,,,,,,,,https://www.magicbricks.com/gajanan-dev-residency-2-tragad-ahmedabad-pdpid-4d4235333137323239
306,Keshavpriya Smart City 3,Welcome to Keshavpriya Smart City 3,,,,,,,,,,,,Gated Community,Ahmedabad,Ahmedabad,,,,0,,382470,,"23.067524,72.66967",,0,,,,,,,,,,,,,,,,,,,,,,,,,,,,,,,,,,,,,,,,https://www.magicbricks.com/keshavpriya-smart-city-3-nava-naroda-ahmedabad-pdpid-4d4235333137333733
307,Vallabh Empire Heights,Welcome to Vallabh Empire Heights,,,,,,,,,,,,Gated Community,Ahmedabad,Ahmedabad,,,,"New Arti Society, Tulsikunj, Prakash Nagar, Ghodasar, Ahmedabad, Gujarat",,380050,,"22.979815,72.61316",,66,,,,,,,,,,,,,,,,,,,,,,,,,,,,,,,,,,,,,,,,https://www.magicbricks.com/vallabh-empire-heights-ghodasar-ahmedabad-pdpid-4d4235333137343733